%!PS-Adobe-3.0 EPSF-3.0 
%%BoundingBox: 0 0 454 255
%%Pages: 0
%%Creator: LibreOffice 5.1
%%Title: none
%%CreationDate: none
%%LanguageLevel: 2
%%EndComments
%%BeginProlog
%%BeginResource: procset SDRes-Prolog 1.0 0
/b4_inc_state save def
/dict_count countdictstack def
/op_count count 1 sub def
userdict begin
0 setgray 0 setlinecap 1 setlinewidth 0 setlinejoin 10 setmiterlimit[] 0 setdash newpath
/languagelevel where {pop languagelevel 1 ne {false setstrokeadjust false setoverprint} if} if
/bdef {bind def} bind def
/c {setrgbcolor} bdef
/l {neg lineto} bdef
/rl {neg rlineto} bdef
/lc {setlinecap} bdef
/lj {setlinejoin} bdef
/lw {setlinewidth} bdef
/ml {setmiterlimit} bdef
/ld {setdash} bdef
/m {neg moveto} bdef
/ct {6 2 roll neg 6 2 roll neg 6 2 roll neg curveto} bdef
/r {rotate} bdef
/t {neg translate} bdef
/s {scale} bdef
/sw {show} bdef
/gs {gsave} bdef
/gr {grestore} bdef
/f {findfont dup length dict begin
{1 index /FID ne {def} {pop pop} ifelse} forall /Encoding ISOLatin1Encoding def
currentdict end /NFont exch definefont pop /NFont findfont} bdef
/p {closepath} bdef
/sf {scalefont setfont} bdef
/ef {eofill}bdef
/pc {closepath stroke}bdef
/ps {stroke}bdef
/pum {matrix currentmatrix}bdef
/pom {setmatrix}bdef
/bs {/aString exch def /nXOfs exch def /nWidth exch def currentpoint nXOfs 0 rmoveto pum nWidth aString stringwidth pop div 1 scale aString show pom moveto} bdef
%%EndResource
%%EndProlog
%%BeginSetup
%%EndSetup
%%Page: 1 1
%%BeginPageSetup
%%EndPageSetup
pum
0.02837 0.02833 s 
0 -9000 t
/tm matrix currentmatrix def
tm setmatrix
-396 -11800 t 
1 1 s 
1.000 1.000 1.000 c 8396 20805 m  396 20805 l  396 11806 l  16395 11806 l 
16395 20805 l  8396 20805 l  p ef
0 lw 1 lj 0.703 0.703 0.703 c 10818 17942 m  5562 17942 l  5562 13919 l 
16075 13919 l  16075 17942 l  10818 17942 l  pc
16074 17941 m  5562 17941 l  ps
16074 15930 m  5562 15930 l  ps
16074 13918 m  5562 13918 l  ps
5562 18091 m  5562 17941 l  ps
5562 18091 m  5562 17941 l  ps
8190 18091 m  8190 17941 l  ps
8190 18091 m  8190 17941 l  ps
10818 18091 m  10818 17941 l  ps
10818 18091 m  10818 17941 l  ps
13446 18091 m  13446 17941 l  ps
13446 18091 m  13446 17941 l  ps
16074 18091 m  16074 17941 l  ps
16074 18091 m  16074 17941 l  ps
5562 17941 m  16074 17941 l  ps
5412 17941 m  5562 17941 l  ps
5412 17941 m  5562 17941 l  ps
5412 15930 m  5562 15930 l  ps
5412 15930 m  5562 15930 l  ps
5412 13918 m  5562 13918 l  ps
5412 13918 m  5562 13918 l  ps
5562 17941 m  5562 13918 l  ps
gs
1 lw 0.003 0.003 0.003 c 14634 14449 m  14760 14575 l  ps
14484 14449 m  14760 14725 l  ps
14334 14449 m  14760 14875 l  ps
14184 14449 m  14760 15025 l  ps
14034 14449 m  14760 15175 l  ps
13884 14449 m  14760 15325 l  ps
13884 14599 m  14760 15475 l  ps
13884 14749 m  14760 15625 l  ps
13884 14899 m  14760 15775 l  ps
13884 15049 m  14760 15925 l  ps
13884 15199 m  14760 16075 l  ps
13884 15349 m  14760 16225 l  ps
13884 15499 m  14760 16375 l  ps
13884 15649 m  14760 16525 l  ps
13884 15799 m  14760 16675 l  ps
13884 15949 m  14760 16825 l  ps
13884 16099 m  14760 16975 l  ps
13884 16249 m  14760 17125 l  ps
13884 16399 m  14760 17275 l  ps
13884 16549 m  14760 17425 l  ps
13884 16699 m  14760 17575 l  ps
13884 16849 m  14760 17725 l  ps
13884 16999 m  14760 17875 l  ps
13884 17149 m  14676 17941 l  ps
13884 17299 m  14526 17941 l  ps
13884 17449 m  14376 17941 l  ps
13884 17599 m  14226 17941 l  ps
13884 17749 m  14076 17941 l  ps
13884 17899 m  13926 17941 l  ps
gr
50.99681 lw 0.003 0.003 0.003 c 13884 17941 m  14760 17941 l  14760 14449 l 
13884 14449 l  13884 17941 l  pc
gs
1 lw 12006 14449 m  12132 14575 l  ps
11856 14449 m  12132 14725 l  ps
11706 14449 m  12132 14875 l  ps
11556 14449 m  12132 15025 l  ps
11406 14449 m  12132 15175 l  ps
11256 14449 m  12132 15325 l  ps
11256 14599 m  12132 15475 l  ps
11256 14749 m  12132 15625 l  ps
11256 14899 m  12132 15775 l  ps
11256 15049 m  12132 15925 l  ps
11256 15199 m  12132 16075 l  ps
11256 15349 m  12132 16225 l  ps
11256 15499 m  12132 16375 l  ps
11256 15649 m  12132 16525 l  ps
11256 15799 m  12132 16675 l  ps
11256 15949 m  12132 16825 l  ps
11256 16099 m  12132 16975 l  ps
11256 16249 m  12132 17125 l  ps
11256 16399 m  12132 17275 l  ps
11256 16549 m  12132 17425 l  ps
11256 16699 m  12132 17575 l  ps
11256 16849 m  12132 17725 l  ps
11256 16999 m  12132 17875 l  ps
11256 17149 m  12048 17941 l  ps
11256 17299 m  11898 17941 l  ps
11256 17449 m  11748 17941 l  ps
11256 17599 m  11598 17941 l  ps
11256 17749 m  11448 17941 l  ps
11256 17899 m  11298 17941 l  ps
gr
11256 17941 m  12132 17941 l  12132 14449 l  11256 14449 l  11256 17941 l 
pc
gs
1 lw 9377 14403 m  9503 14529 l  ps
9227 14403 m  9503 14679 l  ps
9077 14403 m  9503 14829 l  ps
8927 14403 m  9503 14979 l  ps
8777 14403 m  9503 15129 l  ps
8627 14403 m  9503 15279 l  ps
8627 14553 m  9503 15429 l  ps
8627 14703 m  9503 15579 l  ps
8627 14853 m  9503 15729 l  ps
8627 15003 m  9503 15879 l  ps
8627 15153 m  9503 16029 l  ps
8627 15303 m  9503 16179 l  ps
8627 15453 m  9503 16329 l  ps
8627 15603 m  9503 16479 l  ps
8627 15753 m  9503 16629 l  ps
8627 15903 m  9503 16779 l  ps
8627 16053 m  9503 16929 l  ps
8627 16203 m  9503 17079 l  ps
8627 16353 m  9503 17229 l  ps
8627 16503 m  9503 17379 l  ps
8627 16653 m  9503 17529 l  ps
8627 16803 m  9503 17679 l  ps
8627 16953 m  9503 17829 l  ps
8627 17103 m  9465 17941 l  ps
8627 17253 m  9315 17941 l  ps
8627 17403 m  9165 17941 l  ps
8627 17553 m  9015 17941 l  ps
8627 17703 m  8865 17941 l  ps
8627 17853 m  8715 17941 l  ps
gr
8627 17941 m  9503 17941 l  9503 14403 l  8627 14403 l  8627 17941 l  pc
gs
1 lw 6750 14403 m  6876 14529 l  ps
6600 14403 m  6876 14679 l  ps
6450 14403 m  6876 14829 l  ps
6300 14403 m  6876 14979 l  ps
6150 14403 m  6876 15129 l  ps
6000 14403 m  6876 15279 l  ps
6000 14553 m  6876 15429 l  ps
6000 14703 m  6876 15579 l  ps
6000 14853 m  6876 15729 l  ps
6000 15003 m  6876 15879 l  ps
6000 15153 m  6876 16029 l  ps
6000 15303 m  6876 16179 l  ps
6000 15453 m  6876 16329 l  ps
6000 15603 m  6876 16479 l  ps
6000 15753 m  6876 16629 l  ps
6000 15903 m  6876 16779 l  ps
6000 16053 m  6876 16929 l  ps
6000 16203 m  6876 17079 l  ps
6000 16353 m  6876 17229 l  ps
6000 16503 m  6876 17379 l  ps
6000 16653 m  6876 17529 l  ps
6000 16803 m  6876 17679 l  ps
6000 16953 m  6876 17829 l  ps
6000 17103 m  6838 17941 l  ps
6000 17253 m  6688 17941 l  ps
6000 17403 m  6538 17941 l  ps
6000 17553 m  6388 17941 l  ps
6000 17703 m  6238 17941 l  ps
6000 17853 m  6088 17941 l  ps
gr
6000 17941 m  6876 17941 l  6876 14403 l  6000 14403 l  6000 17941 l  pc
gs
1 lw 14806 17941 m  15419 17328 l  ps
15517 17941 m  15636 17822 l  ps
gr
14760 17941 m  15636 17941 l  15636 17328 l  14760 17328 l  14760 17941 l 
pc
gs
1 lw 12132 17158 m  12791 16499 l  ps
12132 17869 m  13008 16993 l  ps
12771 17941 m  13008 17704 l  ps
gr
12132 17941 m  13008 17941 l  13008 16499 l  12132 16499 l  12132 17941 l 
pc
gs
1 lw 9503 15870 m  10162 15211 l  ps
9503 16581 m  10379 15705 l  ps
9503 17292 m  10379 16416 l  ps
9565 17941 m  10379 17127 l  ps
10276 17941 m  10379 17838 l  ps
gr
9503 17941 m  10379 17941 l  10379 15211 l  9503 15211 l  9503 17941 l 
pc
gs
1 lw 6876 15113 m  7535 14454 l  ps
6876 15824 m  7752 14948 l  ps
6876 16535 m  7752 15659 l  ps
6876 17246 m  7752 16370 l  ps
6892 17941 m  7752 17081 l  ps
7603 17941 m  7752 17792 l  ps
gr
6876 17941 m  7752 17941 l  7752 14454 l  6876 14454 l  6876 17941 l  pc
pum
6175 18826 t
365 -243 m  365 -196 361 -157 352 -125 ct 343 -93 331 -68 316 -48 ct 300 -28 282 -14 262 -6 ct 
241 3 219 7 195 7 ct 172 7 150 3 129 -6 ct 109 -14 91 -28 76 -48 ct 61 -67 49 -93 41 -125 ct 
32 -157 28 -196 28 -243 ct 28 -292 32 -332 41 -365 ct 49 -397 61 -422 76 -441 ct 
91 -460 109 -474 130 -481 ct 151 -489 173 -493 198 -493 ct 221 -493 243 -489 263 -481 ct 
283 -474 301 -460 316 -441 ct 331 -422 343 -397 352 -365 ct 361 -332 365 -292 365 -243 ct 
p
302 -243 m  302 -282 300 -314 295 -339 ct 290 -365 284 -385 275 -401 ct 266 -416 255 -427 242 -433 ct 
229 -440 214 -443 198 -443 ct 180 -443 165 -439 151 -433 ct 138 -427 127 -416 118 -400 ct 
109 -385 102 -365 97 -339 ct 93 -313 90 -281 90 -243 ct 90 -206 93 -174 97 -149 ct 
102 -123 109 -103 118 -87 ct 127 -72 138 -61 151 -54 ct 164 -47 179 -44 196 -44 ct 
212 -44 227 -47 240 -54 ct 253 -61 264 -72 274 -87 ct 283 -103 290 -123 295 -149 ct 
300 -174 302 -206 302 -243 ct p ef
461 0 m  461 -76 l  529 -76 l  529 0 l  461 0 l  p ef
974 -243 m  974 -196 970 -157 961 -125 ct 952 -93 940 -68 925 -48 ct 909 -28 891 -14 871 -6 ct 
850 3 828 7 804 7 ct 781 7 759 3 738 -6 ct 718 -14 700 -28 685 -48 ct 670 -67 658 -93 650 -125 ct 
641 -157 637 -196 637 -243 ct 637 -292 641 -332 650 -365 ct 658 -397 670 -422 685 -441 ct 
700 -460 718 -474 739 -481 ct 760 -489 782 -493 807 -493 ct 830 -493 852 -489 872 -481 ct 
892 -474 910 -460 925 -441 ct 940 -422 952 -397 961 -365 ct 970 -332 974 -292 974 -243 ct 
p
911 -243 m  911 -282 909 -314 904 -339 ct 899 -365 893 -385 884 -401 ct 875 -416 864 -427 851 -433 ct 
838 -440 823 -443 807 -443 ct 789 -443 774 -439 760 -433 ct 747 -427 736 -416 727 -400 ct 
718 -385 711 -365 706 -339 ct 702 -313 699 -281 699 -243 ct 699 -206 702 -174 706 -149 ct 
711 -123 718 -103 727 -87 ct 736 -72 747 -61 760 -54 ct 773 -47 788 -44 805 -44 ct 
821 -44 836 -47 849 -54 ct 862 -61 873 -72 883 -87 ct 892 -103 899 -123 904 -149 ct 
909 -174 911 -206 911 -243 ct p ef
1368 -158 m  1368 -134 1364 -112 1357 -91 ct 1350 -71 1339 -54 1324 -39 ct 1310 -24 1292 -13 1270 -5 ct 
1249 3 1224 7 1196 7 ct 1170 7 1148 4 1129 -2 ct 1110 -8 1094 -16 1081 -27 ct 1068 -37 1057 -49 1050 -63 ct 
1042 -77 1036 -92 1033 -109 ct 1096 -116 l  1099 -107 1102 -98 1107 -89 ct 1111 -80 1118 -73 1125 -66 ct 
1133 -59 1143 -54 1155 -50 ct 1166 -46 1180 -44 1197 -44 ct 1213 -44 1228 -46 1241 -51 ct 
1254 -56 1265 -63 1274 -73 ct 1284 -83 1291 -95 1296 -109 ct 1301 -123 1304 -139 1304 -157 ct 
1304 -172 1301 -186 1296 -198 ct 1291 -211 1285 -221 1276 -231 ct 1267 -240 1256 -247 1243 -252 ct 
1230 -257 1215 -259 1198 -259 ct 1188 -259 1179 -258 1170 -257 ct 1161 -255 1153 -252 1145 -249 ct 
1138 -246 1131 -242 1125 -238 ct 1119 -233 1113 -229 1108 -224 ct 1047 -224 l 
1064 -486 l  1340 -486 l  1340 -433 l  1120 -433 l  1111 -279 l  1122 -287 1136 -295 1152 -301 ct 
1169 -307 1188 -310 1211 -310 ct 1235 -310 1257 -306 1276 -299 ct 1296 -292 1312 -281 1326 -268 ct 
1339 -254 1350 -238 1357 -220 ct 1364 -201 1368 -181 1368 -158 ct p ef
pom
pum
9001 18826 t
365 -243 m  365 -196 361 -157 352 -125 ct 343 -93 331 -68 316 -48 ct 300 -28 282 -14 262 -6 ct 
241 3 219 7 195 7 ct 172 7 150 3 129 -6 ct 109 -14 91 -28 76 -48 ct 61 -67 49 -93 41 -125 ct 
32 -157 28 -196 28 -243 ct 28 -292 32 -332 41 -365 ct 49 -397 61 -422 76 -441 ct 
91 -460 109 -474 130 -481 ct 151 -489 173 -493 198 -493 ct 221 -493 243 -489 263 -481 ct 
283 -474 301 -460 316 -441 ct 331 -422 343 -397 352 -365 ct 361 -332 365 -292 365 -243 ct 
p
302 -243 m  302 -282 300 -314 295 -339 ct 290 -365 284 -385 275 -401 ct 266 -416 255 -427 242 -433 ct 
229 -440 214 -443 198 -443 ct 180 -443 165 -439 151 -433 ct 138 -427 127 -416 118 -400 ct 
109 -385 102 -365 97 -339 ct 93 -313 90 -281 90 -243 ct 90 -206 93 -174 97 -149 ct 
102 -123 109 -103 118 -87 ct 127 -72 138 -61 151 -54 ct 164 -47 179 -44 196 -44 ct 
212 -44 227 -47 240 -54 ct 253 -61 264 -72 274 -87 ct 283 -103 290 -123 295 -149 ct 
300 -174 302 -206 302 -243 ct p ef
461 0 m  461 -76 l  529 -76 l  529 0 l  461 0 l  p ef
663 0 m  663 -53 l  787 -53 l  787 -427 l  677 -348 l  677 -407 l  792 -486 l 
849 -486 l  849 -53 l  967 -53 l  967 0 l  663 0 l  p ef
pom
pum
11432 18826 t
365 -243 m  365 -196 361 -157 352 -125 ct 343 -93 331 -68 316 -48 ct 300 -28 282 -14 262 -6 ct 
241 3 219 7 195 7 ct 172 7 150 3 129 -6 ct 109 -14 91 -28 76 -48 ct 61 -67 49 -93 41 -125 ct 
32 -157 28 -196 28 -243 ct 28 -292 32 -332 41 -365 ct 49 -397 61 -422 76 -441 ct 
91 -460 109 -474 130 -481 ct 151 -489 173 -493 198 -493 ct 221 -493 243 -489 263 -481 ct 
283 -474 301 -460 316 -441 ct 331 -422 343 -397 352 -365 ct 361 -332 365 -292 365 -243 ct 
p
302 -243 m  302 -282 300 -314 295 -339 ct 290 -365 284 -385 275 -401 ct 266 -416 255 -427 242 -433 ct 
229 -440 214 -443 198 -443 ct 180 -443 165 -439 151 -433 ct 138 -427 127 -416 118 -400 ct 
109 -385 102 -365 97 -339 ct 93 -313 90 -281 90 -243 ct 90 -206 93 -174 97 -149 ct 
102 -123 109 -103 118 -87 ct 127 -72 138 -61 151 -54 ct 164 -47 179 -44 196 -44 ct 
212 -44 227 -47 240 -54 ct 253 -61 264 -72 274 -87 ct 283 -103 290 -123 295 -149 ct 
300 -174 302 -206 302 -243 ct p ef
461 0 m  461 -76 l  529 -76 l  529 0 l  461 0 l  p ef
663 0 m  663 -53 l  787 -53 l  787 -427 l  677 -348 l  677 -407 l  792 -486 l 
849 -486 l  849 -53 l  967 -53 l  967 0 l  663 0 l  p ef
1368 -158 m  1368 -134 1364 -112 1357 -91 ct 1350 -71 1339 -54 1324 -39 ct 1310 -24 1292 -13 1270 -5 ct 
1249 3 1224 7 1196 7 ct 1170 7 1148 4 1129 -2 ct 1110 -8 1094 -16 1081 -27 ct 1068 -37 1057 -49 1050 -63 ct 
1042 -77 1036 -92 1033 -109 ct 1096 -116 l  1099 -107 1102 -98 1107 -89 ct 1111 -80 1118 -73 1125 -66 ct 
1133 -59 1143 -54 1155 -50 ct 1166 -46 1180 -44 1197 -44 ct 1213 -44 1228 -46 1241 -51 ct 
1254 -56 1265 -63 1274 -73 ct 1284 -83 1291 -95 1296 -109 ct 1301 -123 1304 -139 1304 -157 ct 
1304 -172 1301 -186 1296 -198 ct 1291 -211 1285 -221 1276 -231 ct 1267 -240 1256 -247 1243 -252 ct 
1230 -257 1215 -259 1198 -259 ct 1188 -259 1179 -258 1170 -257 ct 1161 -255 1153 -252 1145 -249 ct 
1138 -246 1131 -242 1125 -238 ct 1119 -233 1113 -229 1108 -224 ct 1047 -224 l 
1064 -486 l  1340 -486 l  1340 -433 l  1120 -433 l  1111 -279 l  1122 -287 1136 -295 1152 -301 ct 
1169 -307 1188 -310 1211 -310 ct 1235 -310 1257 -306 1276 -299 ct 1296 -292 1312 -281 1326 -268 ct 
1339 -254 1350 -238 1357 -220 ct 1364 -201 1368 -181 1368 -158 ct p ef
pom
pum
14258 18826 t
365 -243 m  365 -196 361 -157 352 -125 ct 343 -93 331 -68 316 -48 ct 300 -28 282 -14 262 -6 ct 
241 3 219 7 195 7 ct 172 7 150 3 129 -6 ct 109 -14 91 -28 76 -48 ct 61 -67 49 -93 41 -125 ct 
32 -157 28 -196 28 -243 ct 28 -292 32 -332 41 -365 ct 49 -397 61 -422 76 -441 ct 
91 -460 109 -474 130 -481 ct 151 -489 173 -493 198 -493 ct 221 -493 243 -489 263 -481 ct 
283 -474 301 -460 316 -441 ct 331 -422 343 -397 352 -365 ct 361 -332 365 -292 365 -243 ct 
p
302 -243 m  302 -282 300 -314 295 -339 ct 290 -365 284 -385 275 -401 ct 266 -416 255 -427 242 -433 ct 
229 -440 214 -443 198 -443 ct 180 -443 165 -439 151 -433 ct 138 -427 127 -416 118 -400 ct 
109 -385 102 -365 97 -339 ct 93 -313 90 -281 90 -243 ct 90 -206 93 -174 97 -149 ct 
102 -123 109 -103 118 -87 ct 127 -72 138 -61 151 -54 ct 164 -47 179 -44 196 -44 ct 
212 -44 227 -47 240 -54 ct 253 -61 264 -72 274 -87 ct 283 -103 290 -123 295 -149 ct 
300 -174 302 -206 302 -243 ct p ef
461 0 m  461 -76 l  529 -76 l  529 0 l  461 0 l  p ef
645 0 m  645 -44 l  656 -71 671 -94 687 -115 ct 704 -136 722 -154 741 -171 ct 
759 -188 778 -203 796 -217 ct 814 -231 831 -246 845 -260 ct 860 -274 872 -289 881 -305 ct 
890 -320 895 -338 895 -358 ct 895 -372 893 -384 889 -394 ct 884 -405 878 -414 871 -421 ct 
863 -428 853 -433 843 -437 ct 832 -440 820 -442 806 -442 ct 794 -442 782 -440 771 -437 ct 
760 -433 751 -428 742 -421 ct 734 -414 727 -406 721 -396 ct 716 -385 712 -374 711 -360 ct 
647 -366 l  649 -383 654 -400 662 -415 ct 669 -431 680 -444 693 -456 ct 706 -467 722 -476 741 -483 ct 
760 -490 782 -493 806 -493 ct 830 -493 852 -490 871 -484 ct 890 -479 905 -470 918 -459 ct 
931 -448 941 -434 948 -417 ct 955 -401 959 -382 959 -360 ct 959 -344 956 -328 950 -313 ct 
944 -299 936 -285 926 -271 ct 917 -258 905 -245 892 -233 ct 880 -220 866 -208 852 -196 ct 
838 -185 824 -173 810 -161 ct 795 -150 782 -138 769 -126 ct 757 -114 746 -103 736 -91 ct 
726 -78 718 -66 713 -53 ct 966 -53 l  966 0 l  645 0 l  p ef
pom
pum
4915 18180 t
365 -243 m  365 -196 361 -157 352 -125 ct 343 -93 331 -68 316 -48 ct 300 -28 282 -14 262 -6 ct 
241 3 219 7 195 7 ct 172 7 150 3 129 -6 ct 109 -14 91 -28 76 -48 ct 61 -67 49 -93 41 -125 ct 
32 -157 28 -196 28 -243 ct 28 -292 32 -332 41 -365 ct 49 -397 61 -422 76 -441 ct 
91 -460 109 -474 130 -481 ct 151 -489 173 -493 198 -493 ct 221 -493 243 -489 263 -481 ct 
283 -474 301 -460 316 -441 ct 331 -422 343 -397 352 -365 ct 361 -332 365 -292 365 -243 ct 
p
302 -243 m  302 -282 300 -314 295 -339 ct 290 -365 284 -385 275 -401 ct 266 -416 255 -427 242 -433 ct 
229 -440 214 -443 198 -443 ct 180 -443 165 -439 151 -433 ct 138 -427 127 -416 118 -400 ct 
109 -385 102 -365 97 -339 ct 93 -313 90 -281 90 -243 ct 90 -206 93 -174 97 -149 ct 
102 -123 109 -103 118 -87 ct 127 -72 138 -61 151 -54 ct 164 -47 179 -44 196 -44 ct 
212 -44 227 -47 240 -54 ct 253 -61 264 -72 274 -87 ct 283 -103 290 -123 295 -149 ct 
300 -174 302 -206 302 -243 ct p ef
pom
pum
3724 16168 t
363 -158 m  363 -134 359 -112 352 -91 ct 345 -71 334 -54 319 -39 ct 305 -24 287 -13 265 -5 ct 
244 3 219 7 191 7 ct 165 7 143 4 124 -2 ct 105 -8 89 -16 76 -27 ct 63 -37 52 -49 45 -63 ct 
37 -77 31 -92 28 -109 ct 91 -116 l  94 -107 97 -98 102 -89 ct 106 -80 113 -73 120 -66 ct 
128 -59 138 -54 150 -50 ct 161 -46 175 -44 192 -44 ct 208 -44 223 -46 236 -51 ct 
249 -56 260 -63 269 -73 ct 279 -83 286 -95 291 -109 ct 296 -123 299 -139 299 -157 ct 
299 -172 296 -186 291 -198 ct 286 -211 280 -221 271 -231 ct 262 -240 251 -247 238 -252 ct 
225 -257 210 -259 193 -259 ct 183 -259 174 -258 165 -257 ct 156 -255 148 -252 140 -249 ct 
133 -246 126 -242 120 -238 ct 114 -233 108 -229 103 -224 ct 42 -224 l  59 -486 l 
335 -486 l  335 -433 l  115 -433 l  106 -279 l  117 -287 131 -295 147 -301 ct 
164 -307 183 -310 206 -310 ct 230 -310 252 -306 271 -299 ct 291 -292 307 -281 321 -268 ct 
334 -254 345 -238 352 -220 ct 359 -201 363 -181 363 -158 ct p ef
762 -243 m  762 -196 758 -157 749 -125 ct 740 -93 728 -68 713 -48 ct 697 -28 679 -14 659 -6 ct 
638 3 616 7 592 7 ct 569 7 547 3 526 -6 ct 506 -14 488 -28 473 -48 ct 458 -67 446 -93 438 -125 ct 
429 -157 425 -196 425 -243 ct 425 -292 429 -332 438 -365 ct 446 -397 458 -422 473 -441 ct 
488 -460 506 -474 527 -481 ct 548 -489 570 -493 595 -493 ct 618 -493 640 -489 660 -481 ct 
680 -474 698 -460 713 -441 ct 728 -422 740 -397 749 -365 ct 758 -332 762 -292 762 -243 ct 
p
699 -243 m  699 -282 697 -314 692 -339 ct 687 -365 681 -385 672 -401 ct 663 -416 652 -427 639 -433 ct 
626 -440 611 -443 595 -443 ct 577 -443 562 -439 548 -433 ct 535 -427 524 -416 515 -400 ct 
506 -385 499 -365 494 -339 ct 490 -313 487 -281 487 -243 ct 487 -206 490 -174 494 -149 ct 
499 -123 506 -103 515 -87 ct 524 -72 535 -61 548 -54 ct 561 -47 576 -44 593 -44 ct 
609 -44 624 -47 637 -54 ct 650 -61 661 -72 671 -87 ct 680 -103 687 -123 692 -149 ct 
697 -174 699 -206 699 -243 ct p ef
1159 -243 m  1159 -196 1155 -157 1146 -125 ct 1137 -93 1125 -68 1110 -48 ct 
1094 -28 1076 -14 1056 -6 ct 1035 3 1013 7 989 7 ct 966 7 944 3 923 -6 ct 903 -14 885 -28 870 -48 ct 
855 -67 843 -93 835 -125 ct 826 -157 822 -196 822 -243 ct 822 -292 826 -332 835 -365 ct 
843 -397 855 -422 870 -441 ct 885 -460 903 -474 924 -481 ct 945 -489 967 -493 992 -493 ct 
1015 -493 1037 -489 1057 -481 ct 1077 -474 1095 -460 1110 -441 ct 1125 -422 1137 -397 1146 -365 ct 
1155 -332 1159 -292 1159 -243 ct p
1096 -243 m  1096 -282 1094 -314 1089 -339 ct 1084 -365 1078 -385 1069 -401 ct 
1060 -416 1049 -427 1036 -433 ct 1023 -440 1008 -443 992 -443 ct 974 -443 959 -439 945 -433 ct 
932 -427 921 -416 912 -400 ct 903 -385 896 -365 891 -339 ct 887 -313 884 -281 884 -243 ct 
884 -206 887 -174 891 -149 ct 896 -123 903 -103 912 -87 ct 921 -72 932 -61 945 -54 ct 
958 -47 973 -44 990 -44 ct 1006 -44 1021 -47 1034 -54 ct 1047 -61 1058 -72 1068 -87 ct 
1077 -103 1084 -123 1089 -149 ct 1094 -174 1096 -206 1096 -243 ct p ef
1556 -243 m  1556 -196 1552 -157 1543 -125 ct 1534 -93 1522 -68 1507 -48 ct 
1491 -28 1473 -14 1453 -6 ct 1432 3 1410 7 1386 7 ct 1363 7 1341 3 1320 -6 ct 1300 -14 1282 -28 1267 -48 ct 
1252 -67 1240 -93 1232 -125 ct 1223 -157 1219 -196 1219 -243 ct 1219 -292 1223 -332 1232 -365 ct 
1240 -397 1252 -422 1267 -441 ct 1282 -460 1300 -474 1321 -481 ct 1342 -489 1364 -493 1389 -493 ct 
1412 -493 1434 -489 1454 -481 ct 1474 -474 1492 -460 1507 -441 ct 1522 -422 1534 -397 1543 -365 ct 
1552 -332 1556 -292 1556 -243 ct p
1493 -243 m  1493 -282 1491 -314 1486 -339 ct 1481 -365 1475 -385 1466 -401 ct 
1457 -416 1446 -427 1433 -433 ct 1420 -440 1405 -443 1389 -443 ct 1371 -443 1356 -439 1342 -433 ct 
1329 -427 1318 -416 1309 -400 ct 1300 -385 1293 -365 1288 -339 ct 1284 -313 1281 -281 1281 -243 ct 
1281 -206 1284 -174 1288 -149 ct 1293 -123 1300 -103 1309 -87 ct 1318 -72 1329 -61 1342 -54 ct 
1355 -47 1370 -44 1387 -44 ct 1403 -44 1418 -47 1431 -54 ct 1444 -61 1455 -72 1465 -87 ct 
1474 -103 1481 -123 1486 -149 ct 1491 -174 1493 -206 1493 -243 ct p ef
pom
pum
3328 14156 t
54 0 m  54 -53 l  178 -53 l  178 -427 l  68 -348 l  68 -407 l  183 -486 l 
240 -486 l  240 -53 l  358 -53 l  358 0 l  54 0 l  p ef
762 -243 m  762 -196 758 -157 749 -125 ct 740 -93 728 -68 713 -48 ct 697 -28 679 -14 659 -6 ct 
638 3 616 7 592 7 ct 569 7 547 3 526 -6 ct 506 -14 488 -28 473 -48 ct 458 -67 446 -93 438 -125 ct 
429 -157 425 -196 425 -243 ct 425 -292 429 -332 438 -365 ct 446 -397 458 -422 473 -441 ct 
488 -460 506 -474 527 -481 ct 548 -489 570 -493 595 -493 ct 618 -493 640 -489 660 -481 ct 
680 -474 698 -460 713 -441 ct 728 -422 740 -397 749 -365 ct 758 -332 762 -292 762 -243 ct 
p
699 -243 m  699 -282 697 -314 692 -339 ct 687 -365 681 -385 672 -401 ct 663 -416 652 -427 639 -433 ct 
626 -440 611 -443 595 -443 ct 577 -443 562 -439 548 -433 ct 535 -427 524 -416 515 -400 ct 
506 -385 499 -365 494 -339 ct 490 -313 487 -281 487 -243 ct 487 -206 490 -174 494 -149 ct 
499 -123 506 -103 515 -87 ct 524 -72 535 -61 548 -54 ct 561 -47 576 -44 593 -44 ct 
609 -44 624 -47 637 -54 ct 650 -61 661 -72 671 -87 ct 680 -103 687 -123 692 -149 ct 
697 -174 699 -206 699 -243 ct p ef
1159 -243 m  1159 -196 1155 -157 1146 -125 ct 1137 -93 1125 -68 1110 -48 ct 
1094 -28 1076 -14 1056 -6 ct 1035 3 1013 7 989 7 ct 966 7 944 3 923 -6 ct 903 -14 885 -28 870 -48 ct 
855 -67 843 -93 835 -125 ct 826 -157 822 -196 822 -243 ct 822 -292 826 -332 835 -365 ct 
843 -397 855 -422 870 -441 ct 885 -460 903 -474 924 -481 ct 945 -489 967 -493 992 -493 ct 
1015 -493 1037 -489 1057 -481 ct 1077 -474 1095 -460 1110 -441 ct 1125 -422 1137 -397 1146 -365 ct 
1155 -332 1159 -292 1159 -243 ct p
1096 -243 m  1096 -282 1094 -314 1089 -339 ct 1084 -365 1078 -385 1069 -401 ct 
1060 -416 1049 -427 1036 -433 ct 1023 -440 1008 -443 992 -443 ct 974 -443 959 -439 945 -433 ct 
932 -427 921 -416 912 -400 ct 903 -385 896 -365 891 -339 ct 887 -313 884 -281 884 -243 ct 
884 -206 887 -174 891 -149 ct 896 -123 903 -103 912 -87 ct 921 -72 932 -61 945 -54 ct 
958 -47 973 -44 990 -44 ct 1006 -44 1021 -47 1034 -54 ct 1047 -61 1058 -72 1068 -87 ct 
1077 -103 1084 -123 1089 -149 ct 1094 -174 1096 -206 1096 -243 ct p ef
1556 -243 m  1556 -196 1552 -157 1543 -125 ct 1534 -93 1522 -68 1507 -48 ct 
1491 -28 1473 -14 1453 -6 ct 1432 3 1410 7 1386 7 ct 1363 7 1341 3 1320 -6 ct 1300 -14 1282 -28 1267 -48 ct 
1252 -67 1240 -93 1232 -125 ct 1223 -157 1219 -196 1219 -243 ct 1219 -292 1223 -332 1232 -365 ct 
1240 -397 1252 -422 1267 -441 ct 1282 -460 1300 -474 1321 -481 ct 1342 -489 1364 -493 1389 -493 ct 
1412 -493 1434 -489 1454 -481 ct 1474 -474 1492 -460 1507 -441 ct 1522 -422 1534 -397 1543 -365 ct 
1552 -332 1556 -292 1556 -243 ct p
1493 -243 m  1493 -282 1491 -314 1486 -339 ct 1481 -365 1475 -385 1466 -401 ct 
1457 -416 1446 -427 1433 -433 ct 1420 -440 1405 -443 1389 -443 ct 1371 -443 1356 -439 1342 -433 ct 
1329 -427 1318 -416 1309 -400 ct 1300 -385 1293 -365 1288 -339 ct 1284 -313 1281 -281 1281 -243 ct 
1281 -206 1284 -174 1288 -149 ct 1293 -123 1300 -103 1309 -87 ct 1318 -72 1329 -61 1342 -54 ct 
1355 -47 1370 -44 1387 -44 ct 1403 -44 1418 -47 1431 -54 ct 1444 -61 1455 -72 1465 -87 ct 
1474 -103 1481 -123 1486 -149 ct 1491 -174 1493 -206 1493 -243 ct p ef
1953 -243 m  1953 -196 1949 -157 1940 -125 ct 1931 -93 1919 -68 1904 -48 ct 
1888 -28 1870 -14 1850 -6 ct 1829 3 1807 7 1783 7 ct 1760 7 1738 3 1717 -6 ct 1697 -14 1679 -28 1664 -48 ct 
1649 -67 1637 -93 1629 -125 ct 1620 -157 1616 -196 1616 -243 ct 1616 -292 1620 -332 1629 -365 ct 
1637 -397 1649 -422 1664 -441 ct 1679 -460 1697 -474 1718 -481 ct 1739 -489 1761 -493 1786 -493 ct 
1809 -493 1831 -489 1851 -481 ct 1871 -474 1889 -460 1904 -441 ct 1919 -422 1931 -397 1940 -365 ct 
1949 -332 1953 -292 1953 -243 ct p
1890 -243 m  1890 -282 1888 -314 1883 -339 ct 1878 -365 1872 -385 1863 -401 ct 
1854 -416 1843 -427 1830 -433 ct 1817 -440 1802 -443 1786 -443 ct 1768 -443 1753 -439 1739 -433 ct 
1726 -427 1715 -416 1706 -400 ct 1697 -385 1690 -365 1685 -339 ct 1681 -313 1678 -281 1678 -243 ct 
1678 -206 1681 -174 1685 -149 ct 1690 -123 1697 -103 1706 -87 ct 1715 -72 1726 -61 1739 -54 ct 
1752 -47 1767 -44 1784 -44 ct 1800 -44 1815 -47 1828 -54 ct 1841 -61 1852 -72 1862 -87 ct 
1871 -103 1878 -123 1883 -149 ct 1888 -174 1890 -206 1890 -243 ct p ef
pom
pum
6186 12968 t
476 -248 m  476 -207 470 -172 458 -141 ct 446 -110 429 -84 408 -63 ct 387 -42 362 -27 333 -16 ct 
304 -5 273 0 240 0 ct 58 0 l  58 -486 l  219 -486 l  256 -486 291 -481 322 -472 ct 
354 -462 381 -448 404 -429 ct 426 -409 444 -385 457 -355 ct 470 -325 476 -289 476 -248 ct 
p
410 -248 m  410 -281 405 -309 396 -332 ct 386 -355 373 -375 356 -390 ct 339 -405 319 -415 295 -422 ct 
271 -430 245 -433 217 -433 ct 124 -433 l  124 -53 l  232 -53 l  258 -53 281 -57 303 -65 ct 
325 -73 343 -86 359 -102 ct 375 -118 387 -139 396 -163 ct 405 -187 410 -216 410 -248 ct 
p ef
672 7 m  634 7 606 -3 587 -23 ct 568 -43 559 -70 559 -105 ct 559 -129 564 -149 573 -165 ct 
582 -181 594 -194 610 -203 ct 625 -212 642 -218 661 -221 ct 680 -225 700 -226 720 -226 ct 
804 -226 l  804 -247 l  804 -263 802 -276 799 -287 ct 796 -298 791 -307 784 -313 ct 
777 -320 769 -325 759 -328 ct 749 -331 737 -333 724 -333 ct 712 -333 701 -332 691 -330 ct 
682 -328 673 -325 666 -321 ct 659 -316 653 -310 649 -303 ct 645 -295 642 -285 640 -273 ct 
576 -279 l  578 -294 582 -307 589 -320 ct 595 -332 604 -343 616 -352 ct 628 -361 643 -368 661 -373 ct 
678 -378 700 -380 725 -380 ct 772 -380 807 -369 831 -348 ct 855 -326 866 -295 866 -254 ct 
866 -94 l  866 -75 869 -61 874 -52 ct 879 -43 888 -38 901 -38 ct 905 -38 908 -38 912 -39 ct 
915 -39 918 -40 922 -40 ct 922 -2 l  914 0 906 1 898 2 ct 891 3 882 4 874 4 ct 
862 4 852 2 844 -1 ct 835 -4 828 -9 823 -15 ct 818 -21 814 -29 811 -39 ct 808 -48 807 -59 806 -71 ct 
804 -71 l  797 -59 790 -49 782 -39 ct 774 -29 765 -21 754 -14 ct 744 -7 732 -2 718 1 ct 
705 5 689 7 672 7 ct p
686 -40 m  706 -40 723 -43 738 -50 ct 753 -58 765 -67 775 -78 ct 784 -89 792 -101 797 -115 ct 
801 -128 804 -140 804 -153 ct 804 -183 l  736 -183 l  721 -183 706 -182 693 -180 ct 
679 -178 667 -174 657 -168 ct 646 -163 638 -155 632 -144 ct 626 -134 623 -120 623 -103 ct 
623 -83 628 -67 639 -56 ct 650 -45 666 -40 686 -40 ct p ef
1117 -2 m  1108 0 1098 2 1088 4 ct 1078 5 1067 6 1054 6 ct 1005 6 980 -22 980 -79 ct 
980 -328 l  937 -328 l  937 -373 l  982 -373 l  1000 -456 l  1042 -456 l 
1042 -373 l  1111 -373 l  1111 -328 l  1042 -328 l  1042 -92 l  1042 -74 1045 -61 1051 -54 ct 
1056 -47 1067 -43 1081 -43 ct 1087 -43 1093 -44 1099 -45 ct 1104 -46 1110 -47 1117 -48 ct 
1117 -2 l  p ef
1281 7 m  1243 7 1215 -3 1196 -23 ct 1177 -43 1168 -70 1168 -105 ct 1168 -129 1173 -149 1182 -165 ct 
1191 -181 1203 -194 1219 -203 ct 1234 -212 1251 -218 1270 -221 ct 1289 -225 1309 -226 1329 -226 ct 
1413 -226 l  1413 -247 l  1413 -263 1411 -276 1408 -287 ct 1405 -298 1400 -307 1393 -313 ct 
1386 -320 1378 -325 1368 -328 ct 1358 -331 1346 -333 1333 -333 ct 1321 -333 1310 -332 1300 -330 ct 
1291 -328 1282 -325 1275 -321 ct 1268 -316 1262 -310 1258 -303 ct 1254 -295 1251 -285 1249 -273 ct 
1185 -279 l  1187 -294 1191 -307 1198 -320 ct 1204 -332 1213 -343 1225 -352 ct 
1237 -361 1252 -368 1270 -373 ct 1287 -378 1309 -380 1334 -380 ct 1381 -380 1416 -369 1440 -348 ct 
1464 -326 1475 -295 1475 -254 ct 1475 -94 l  1475 -75 1478 -61 1483 -52 ct 1488 -43 1497 -38 1510 -38 ct 
1514 -38 1517 -38 1521 -39 ct 1524 -39 1527 -40 1531 -40 ct 1531 -2 l  1523 0 1515 1 1507 2 ct 
1500 3 1491 4 1483 4 ct 1471 4 1461 2 1453 -1 ct 1444 -4 1437 -9 1432 -15 ct 1427 -21 1423 -29 1420 -39 ct 
1417 -48 1416 -59 1415 -71 ct 1413 -71 l  1406 -59 1399 -49 1391 -39 ct 1383 -29 1374 -21 1363 -14 ct 
1353 -7 1341 -2 1327 1 ct 1314 5 1298 7 1281 7 ct p
1295 -40 m  1315 -40 1332 -43 1347 -50 ct 1362 -58 1374 -67 1384 -78 ct 1393 -89 1401 -101 1406 -115 ct 
1410 -128 1413 -140 1413 -153 ct 1413 -183 l  1345 -183 l  1330 -183 1315 -182 1302 -180 ct 
1288 -178 1276 -174 1266 -168 ct 1255 -163 1247 -155 1241 -144 ct 1235 -134 1232 -120 1232 -103 ct 
1232 -83 1237 -67 1248 -56 ct 1259 -45 1275 -40 1295 -40 ct p ef
1862 -103 m  1862 -86 1859 -70 1852 -56 ct 1846 -43 1836 -31 1823 -22 ct 1810 -12 1794 -5 1775 0 ct 
1757 5 1735 7 1711 7 ct 1690 7 1670 5 1653 2 ct 1635 -1 1620 -7 1607 -14 ct 1594 -21 1583 -31 1574 -43 ct 
1565 -55 1559 -70 1555 -87 ct 1609 -98 l  1615 -78 1626 -64 1642 -54 ct 1659 -45 1682 -40 1711 -40 ct 
1724 -40 1737 -41 1748 -43 ct 1759 -45 1769 -48 1777 -52 ct 1785 -57 1791 -63 1795 -70 ct 
1800 -78 1802 -87 1802 -98 ct 1802 -109 1800 -119 1794 -126 ct 1789 -133 1782 -139 1772 -144 ct 
1763 -149 1751 -153 1738 -157 ct 1724 -160 1710 -164 1694 -169 ct 1679 -172 1664 -177 1649 -182 ct 
1634 -186 1621 -193 1609 -201 ct 1597 -209 1588 -219 1581 -230 ct 1573 -242 1569 -257 1569 -274 ct 
1569 -308 1582 -334 1606 -352 ct 1630 -370 1665 -379 1712 -379 ct 1753 -379 1786 -372 1810 -357 ct 
1834 -343 1850 -319 1856 -288 ct 1800 -281 l  1798 -290 1794 -298 1789 -305 ct 
1783 -311 1777 -317 1769 -321 ct 1761 -325 1752 -328 1742 -329 ct 1733 -331 1722 -332 1712 -332 ct 
1684 -332 1663 -328 1650 -319 ct 1636 -311 1630 -298 1630 -281 ct 1630 -271 1632 -262 1637 -256 ct 
1642 -249 1649 -244 1658 -239 ct 1667 -235 1677 -231 1690 -227 ct 1702 -224 1716 -220 1731 -217 ct 
1741 -214 1751 -212 1761 -209 ct 1771 -206 1782 -202 1791 -198 ct 1801 -194 1810 -190 1819 -184 ct 
1828 -179 1835 -172 1841 -165 ct 1848 -157 1853 -148 1857 -138 ct 1861 -128 1862 -116 1862 -103 ct 
p ef
2000 -173 m  2000 -154 2002 -136 2006 -119 ct 2010 -103 2016 -89 2025 -77 ct 
2033 -65 2044 -56 2057 -49 ct 2070 -43 2086 -40 2104 -40 ct 2131 -40 2153 -45 2169 -56 ct 
2185 -67 2196 -80 2202 -97 ct 2256 -81 l  2252 -71 2247 -61 2240 -50 ct 2233 -40 2224 -30 2212 -22 ct 
2200 -13 2185 -7 2168 -1 ct 2150 4 2129 7 2104 7 ct 2049 7 2007 -9 1978 -42 ct 
1949 -75 1935 -124 1935 -189 ct 1935 -224 1939 -253 1948 -278 ct 1957 -302 1969 -322 1984 -337 ct 
1999 -352 2017 -363 2037 -370 ct 2057 -376 2079 -380 2102 -380 ct 2133 -380 2159 -375 2180 -365 ct 
2201 -355 2218 -341 2231 -323 ct 2244 -305 2253 -284 2258 -260 ct 2264 -236 2266 -210 2266 -182 ct 
2266 -173 l  2000 -173 l  p
2202 -221 m  2199 -260 2189 -289 2172 -307 ct 2156 -325 2132 -334 2101 -334 ct 
2090 -334 2080 -332 2068 -329 ct 2057 -326 2046 -320 2037 -311 ct 2027 -303 2019 -291 2012 -277 ct 
2006 -262 2002 -244 2001 -221 ct 2202 -221 l  p ef
2493 -2 m  2484 0 2474 2 2464 4 ct 2454 5 2443 6 2430 6 ct 2381 6 2356 -22 2356 -79 ct 
2356 -328 l  2313 -328 l  2313 -373 l  2358 -373 l  2376 -456 l  2418 -456 l 
2418 -373 l  2487 -373 l  2487 -328 l  2418 -328 l  2418 -92 l  2418 -74 2421 -61 2427 -54 ct 
2432 -47 2443 -43 2457 -43 ct 2463 -43 2469 -44 2475 -45 ct 2480 -46 2486 -47 2493 -48 ct 
2493 -2 l  p ef
2789 -302 m  2789 -373 l  2857 -373 l  2857 -302 l  2789 -302 l  p
2789 0 m  2789 -71 l  2857 -71 l  2857 0 l  2789 0 l  p ef
3588 -134 m  3588 -114 3584 -95 3576 -77 ct 3568 -60 3555 -45 3539 -33 ct 3522 -20 3501 -11 3476 -4 ct 
3451 3 3421 7 3387 7 ct 3326 7 3279 -4 3246 -25 ct 3212 -46 3190 -76 3181 -116 ct 
3245 -129 l  3248 -117 3253 -105 3260 -95 ct 3266 -84 3275 -75 3287 -68 ct 3298 -61 3312 -55 3329 -51 ct 
3346 -46 3366 -44 3389 -44 ct 3409 -44 3427 -46 3443 -49 ct 3459 -53 3473 -58 3485 -65 ct 
3497 -72 3506 -81 3513 -91 ct 3519 -102 3522 -115 3522 -131 ct 3522 -146 3519 -159 3511 -169 ct 
3504 -179 3494 -187 3481 -194 ct 3468 -200 3452 -206 3434 -210 ct 3416 -214 3396 -219 3374 -224 ct 
3360 -227 3347 -230 3333 -234 ct 3319 -237 3306 -242 3294 -247 ct 3281 -252 3269 -257 3258 -264 ct 
3247 -271 3238 -279 3230 -288 ct 3222 -297 3215 -308 3211 -320 ct 3206 -333 3204 -347 3204 -363 ct 
3204 -386 3208 -406 3218 -422 ct 3227 -439 3240 -452 3257 -463 ct 3273 -473 3293 -481 3315 -486 ct 
3338 -491 3362 -493 3388 -493 ct 3418 -493 3444 -491 3465 -486 ct 3487 -481 3505 -474 3520 -465 ct 
3534 -455 3546 -444 3555 -430 ct 3564 -416 3571 -400 3576 -381 ct 3511 -370 l 
3508 -382 3503 -392 3497 -401 ct 3491 -410 3483 -418 3473 -424 ct 3464 -431 3452 -435 3437 -439 ct 
3423 -442 3407 -443 3388 -443 ct 3365 -443 3346 -441 3331 -437 ct 3316 -433 3303 -428 3294 -421 ct 
3285 -414 3278 -406 3274 -397 ct 3270 -387 3268 -377 3268 -366 ct 3268 -352 3272 -340 3279 -331 ct 
3286 -321 3296 -314 3308 -307 ct 3321 -301 3335 -296 3351 -292 ct 3368 -288 3385 -284 3403 -280 ct 
3418 -276 3433 -273 3448 -269 ct 3463 -265 3477 -261 3491 -256 ct 3504 -251 3517 -246 3529 -239 ct 
3541 -232 3551 -224 3560 -214 ct 3568 -205 3575 -193 3580 -180 ct 3585 -167 3588 -152 3588 -134 ct 
p ef
3679 0 m  3679 -53 l  3803 -53 l  3803 -427 l  3693 -348 l  3693 -407 l 
3808 -486 l  3865 -486 l  3865 -53 l  3983 -53 l  3983 0 l  3679 0 l  p ef
4058 0 m  4058 -44 l  4069 -71 4084 -94 4100 -115 ct 4117 -136 4135 -154 4154 -171 ct 
4172 -188 4191 -203 4209 -217 ct 4227 -231 4244 -246 4258 -260 ct 4273 -274 4285 -289 4294 -305 ct 
4303 -320 4308 -338 4308 -358 ct 4308 -372 4306 -384 4302 -394 ct 4297 -405 4291 -414 4284 -421 ct 
4276 -428 4266 -433 4256 -437 ct 4245 -440 4233 -442 4219 -442 ct 4207 -442 4195 -440 4184 -437 ct 
4173 -433 4164 -428 4155 -421 ct 4147 -414 4140 -406 4134 -396 ct 4129 -385 4125 -374 4124 -360 ct 
4060 -366 l  4062 -383 4067 -400 4075 -415 ct 4082 -431 4093 -444 4106 -456 ct 
4119 -467 4135 -476 4154 -483 ct 4173 -490 4195 -493 4219 -493 ct 4243 -493 4265 -490 4284 -484 ct 
4303 -479 4318 -470 4331 -459 ct 4344 -448 4354 -434 4361 -417 ct 4368 -401 4372 -382 4372 -360 ct 
4372 -344 4369 -328 4363 -313 ct 4357 -299 4349 -285 4339 -271 ct 4330 -258 4318 -245 4305 -233 ct 
4293 -220 4279 -208 4265 -196 ct 4251 -185 4237 -173 4223 -161 ct 4208 -150 4195 -138 4182 -126 ct 
4170 -114 4159 -103 4149 -91 ct 4139 -78 4131 -66 4126 -53 ct 4379 -53 l  4379 0 l 
4058 0 l  p ef
pom
pum
5831 19914 t
434 -339 m  434 -318 430 -299 423 -280 ct 416 -262 406 -246 392 -233 ct 378 -219 360 -209 340 -201 ct 
319 -193 294 -189 266 -189 ct 124 -189 l  124 1 l  58 1 l  58 -486 l  262 -486 l 
291 -486 316 -482 337 -475 ct 359 -468 377 -458 391 -446 ct 405 -433 416 -417 423 -399 ct 
430 -381 434 -361 434 -339 ct p
367 -339 m  367 -370 358 -393 339 -409 ct 320 -425 292 -433 254 -433 ct 124 -433 l 
124 -241 l  257 -241 l  295 -241 323 -249 341 -266 ct 359 -283 367 -307 367 -339 ct 
p ef
619 7 m  581 7 553 -3 534 -23 ct 515 -43 506 -70 506 -105 ct 506 -129 511 -149 520 -165 ct 
529 -181 541 -194 557 -203 ct 572 -212 589 -218 608 -221 ct 627 -225 647 -226 667 -226 ct 
751 -226 l  751 -247 l  751 -263 749 -276 746 -287 ct 743 -298 738 -307 731 -313 ct 
724 -320 716 -325 706 -328 ct 696 -331 684 -333 671 -333 ct 659 -333 648 -332 638 -330 ct 
629 -328 620 -325 613 -321 ct 606 -316 600 -310 596 -303 ct 592 -295 589 -285 587 -273 ct 
523 -279 l  525 -294 529 -307 536 -320 ct 542 -332 551 -343 563 -352 ct 575 -361 590 -368 608 -373 ct 
625 -378 647 -380 672 -380 ct 719 -380 754 -369 778 -348 ct 802 -326 813 -295 813 -254 ct 
813 -94 l  813 -75 816 -61 821 -52 ct 826 -43 835 -38 848 -38 ct 852 -38 855 -38 859 -39 ct 
862 -39 865 -40 869 -40 ct 869 -2 l  861 0 853 1 845 2 ct 838 3 829 4 821 4 ct 
809 4 799 2 791 -1 ct 782 -4 775 -9 770 -15 ct 765 -21 761 -29 758 -39 ct 755 -48 754 -59 753 -71 ct 
751 -71 l  744 -59 737 -49 729 -39 ct 721 -29 712 -21 701 -14 ct 691 -7 679 -2 665 1 ct 
652 5 636 7 619 7 ct p
633 -40 m  653 -40 670 -43 685 -50 ct 700 -58 712 -67 722 -78 ct 731 -89 739 -101 744 -115 ct 
748 -128 751 -140 751 -153 ct 751 -183 l  683 -183 l  668 -183 653 -182 640 -180 ct 
626 -178 614 -174 604 -168 ct 593 -163 585 -155 579 -144 ct 573 -134 570 -120 570 -103 ct 
570 -83 575 -67 586 -56 ct 597 -45 613 -40 633 -40 ct p ef
922 0 m  922 -286 l  922 -294 922 -302 922 -310 ct 922 -318 922 -326 921 -334 ct 
921 -341 921 -349 921 -355 ct 920 -362 920 -368 920 -373 ct 978 -373 l  979 -368 979 -362 979 -355 ct 
980 -348 980 -341 980 -334 ct 981 -327 981 -320 981 -314 ct 981 -307 981 -302 981 -297 ct 
983 -297 l  987 -311 992 -324 997 -334 ct 1002 -344 1007 -353 1014 -360 ct 1021 -367 1029 -372 1038 -375 ct 
1047 -378 1058 -380 1071 -380 ct 1076 -380 1081 -380 1086 -379 ct 1090 -378 1094 -377 1096 -377 ct 
1096 -320 l  1092 -321 1087 -322 1082 -322 ct 1076 -323 1070 -323 1063 -323 ct 
1049 -323 1037 -320 1027 -313 ct 1017 -307 1009 -298 1002 -287 ct 996 -275 991 -262 988 -246 ct 
986 -230 984 -213 984 -194 ct 984 0 l  922 0 l  p ef
1302 -2 m  1293 0 1283 2 1273 4 ct 1263 5 1252 6 1239 6 ct 1190 6 1165 -22 1165 -79 ct 
1165 -328 l  1122 -328 l  1122 -373 l  1167 -373 l  1185 -456 l  1227 -456 l 
1227 -373 l  1296 -373 l  1296 -328 l  1227 -328 l  1227 -92 l  1227 -74 1230 -61 1236 -54 ct 
1241 -47 1252 -43 1266 -43 ct 1272 -43 1278 -44 1284 -45 ct 1289 -46 1295 -47 1302 -48 ct 
1302 -2 l  p ef
1370 -452 m  1370 -511 l  1432 -511 l  1432 -452 l  1370 -452 l  p
1370 1 m  1370 -372 l  1432 -372 l  1432 1 l  1370 1 l  p ef
1577 -188 m  1577 -167 1578 -147 1581 -129 ct 1585 -111 1590 -96 1597 -83 ct 
1605 -70 1614 -60 1626 -53 ct 1638 -46 1653 -42 1671 -42 ct 1693 -42 1711 -48 1726 -59 ct 
1741 -71 1750 -89 1754 -113 ct 1816 -113 l  1814 -97 1810 -82 1803 -68 ct 1796 -53 1787 -41 1775 -30 ct 
1763 -19 1749 -10 1732 -3 ct 1715 4 1695 7 1673 7 ct 1643 7 1619 2 1598 -8 ct 1578 -18 1561 -31 1548 -49 ct 
1536 -66 1526 -87 1521 -110 ct 1515 -134 1512 -159 1512 -187 ct 1512 -212 1514 -234 1518 -253 ct 
1522 -272 1528 -289 1536 -304 ct 1543 -318 1552 -330 1562 -340 ct 1572 -350 1583 -357 1595 -363 ct 
1607 -369 1619 -373 1632 -376 ct 1645 -379 1659 -380 1672 -380 ct 1693 -380 1711 -377 1728 -371 ct 
1744 -366 1758 -358 1770 -348 ct 1782 -338 1791 -326 1799 -312 ct 1806 -299 1811 -284 1814 -269 ct 
1751 -264 l  1747 -284 1739 -301 1726 -313 ct 1713 -325 1694 -331 1670 -331 ct 
1653 -331 1638 -328 1626 -323 ct 1614 -317 1605 -308 1597 -296 ct 1590 -284 1585 -269 1581 -251 ct 
1578 -233 1577 -212 1577 -188 ct p ef
1899 -452 m  1899 -511 l  1961 -511 l  1961 -452 l  1899 -452 l  p
1899 1 m  1899 -372 l  1961 -372 l  1961 1 l  1899 1 l  p ef
2374 -188 m  2374 -160 2372 -134 2367 -110 ct 2363 -86 2355 -65 2344 -48 ct 
2334 -31 2319 -17 2302 -8 ct 2284 2 2263 7 2237 7 ct 2210 7 2187 2 2167 -8 ct 2147 -18 2132 -35 2121 -58 ct 
2119 -58 l  2119 -57 2120 -55 2120 -52 ct 2120 -48 2120 -43 2120 -38 ct 2120 -32 2120 -26 2120 -19 ct 
2121 -12 2121 -6 2121 1 ct 2121 147 l  2059 147 l  2059 -297 l  2059 -306 2059 -315 2058 -323 ct 
2058 -332 2058 -339 2058 -346 ct 2058 -353 2057 -359 2057 -363 ct 2057 -368 2057 -371 2057 -371 ct 
2116 -371 l  2117 -370 2117 -368 2117 -364 ct 2118 -360 2118 -355 2118 -349 ct 
2119 -343 2119 -337 2119 -331 ct 2120 -324 2120 -318 2120 -312 ct 2121 -312 l 
2127 -324 2134 -335 2141 -343 ct 2148 -351 2157 -358 2166 -364 ct 2176 -369 2186 -373 2198 -375 ct 
2209 -378 2222 -379 2237 -379 ct 2263 -379 2284 -374 2302 -365 ct 2319 -356 2334 -343 2344 -326 ct 
2355 -310 2363 -290 2367 -266 ct 2372 -243 2374 -217 2374 -188 ct p
2309 -187 m  2309 -209 2307 -230 2305 -248 ct 2302 -266 2297 -281 2290 -293 ct 
2284 -306 2275 -315 2263 -321 ct 2252 -328 2238 -331 2221 -331 ct 2207 -331 2194 -329 2182 -325 ct 
2170 -321 2159 -314 2150 -303 ct 2141 -292 2134 -277 2129 -257 ct 2123 -238 2121 -213 2121 -182 ct 
2121 -155 2123 -133 2127 -115 ct 2132 -97 2138 -82 2146 -71 ct 2155 -59 2165 -51 2178 -46 ct 
2190 -41 2204 -39 2220 -39 ct 2237 -39 2252 -42 2263 -49 ct 2275 -56 2284 -65 2290 -78 ct 
2297 -90 2302 -106 2305 -124 ct 2307 -142 2309 -163 2309 -187 ct p ef
2551 7 m  2513 7 2485 -3 2466 -23 ct 2447 -43 2438 -70 2438 -105 ct 2438 -129 2443 -149 2452 -165 ct 
2461 -181 2473 -194 2489 -203 ct 2504 -212 2521 -218 2540 -221 ct 2559 -225 2579 -226 2599 -226 ct 
2683 -226 l  2683 -247 l  2683 -263 2681 -276 2678 -287 ct 2675 -298 2670 -307 2663 -313 ct 
2656 -320 2648 -325 2638 -328 ct 2628 -331 2616 -333 2603 -333 ct 2591 -333 2580 -332 2570 -330 ct 
2561 -328 2552 -325 2545 -321 ct 2538 -316 2532 -310 2528 -303 ct 2524 -295 2521 -285 2519 -273 ct 
2455 -279 l  2457 -294 2461 -307 2468 -320 ct 2474 -332 2483 -343 2495 -352 ct 
2507 -361 2522 -368 2540 -373 ct 2557 -378 2579 -380 2604 -380 ct 2651 -380 2686 -369 2710 -348 ct 
2734 -326 2745 -295 2745 -254 ct 2745 -94 l  2745 -75 2748 -61 2753 -52 ct 2758 -43 2767 -38 2780 -38 ct 
2784 -38 2787 -38 2791 -39 ct 2794 -39 2797 -40 2801 -40 ct 2801 -2 l  2793 0 2785 1 2777 2 ct 
2770 3 2761 4 2753 4 ct 2741 4 2731 2 2723 -1 ct 2714 -4 2707 -9 2702 -15 ct 2697 -21 2693 -29 2690 -39 ct 
2687 -48 2686 -59 2685 -71 ct 2683 -71 l  2676 -59 2669 -49 2661 -39 ct 2653 -29 2644 -21 2633 -14 ct 
2623 -7 2611 -2 2597 1 ct 2584 5 2568 7 2551 7 ct p
2565 -40 m  2585 -40 2602 -43 2617 -50 ct 2632 -58 2644 -67 2654 -78 ct 2663 -89 2671 -101 2676 -115 ct 
2680 -128 2683 -140 2683 -153 ct 2683 -183 l  2615 -183 l  2600 -183 2585 -182 2572 -180 ct 
2558 -178 2546 -174 2536 -168 ct 2525 -163 2517 -155 2511 -144 ct 2505 -134 2502 -120 2502 -103 ct 
2502 -83 2507 -67 2518 -56 ct 2529 -45 2545 -40 2565 -40 ct p ef
2996 -2 m  2987 0 2977 2 2967 4 ct 2957 5 2946 6 2933 6 ct 2884 6 2859 -22 2859 -79 ct 
2859 -328 l  2816 -328 l  2816 -373 l  2861 -373 l  2879 -456 l  2921 -456 l 
2921 -373 l  2990 -373 l  2990 -328 l  2921 -328 l  2921 -92 l  2921 -74 2924 -61 2930 -54 ct 
2935 -47 2946 -43 2960 -43 ct 2966 -43 2972 -44 2978 -45 ct 2983 -46 2989 -47 2996 -48 ct 
2996 -2 l  p ef
3063 -452 m  3063 -511 l  3125 -511 l  3125 -452 l  3063 -452 l  p
3063 1 m  3063 -372 l  3125 -372 l  3125 1 l  3063 1 l  p ef
3538 -187 m  3538 -122 3524 -73 3495 -41 ct 3466 -9 3424 7 3370 7 ct 3344 7 3321 3 3300 -5 ct 
3280 -13 3262 -24 3248 -41 ct 3234 -57 3223 -77 3216 -101 ct 3208 -125 3205 -154 3205 -187 ct 
3205 -316 3260 -380 3372 -380 ct 3401 -380 3426 -376 3447 -368 ct 3468 -360 3485 -348 3499 -332 ct 
3512 -315 3522 -295 3528 -271 ct 3535 -247 3538 -219 3538 -187 ct p
3473 -187 m  3473 -216 3471 -240 3466 -258 ct 3462 -277 3455 -292 3446 -304 ct 
3438 -315 3427 -323 3415 -327 ct 3403 -332 3389 -334 3373 -334 ct 3357 -334 3343 -332 3330 -327 ct 
3317 -322 3306 -314 3297 -303 ct 3288 -291 3282 -276 3277 -257 ct 3272 -239 3270 -215 3270 -187 ct 
3270 -158 3272 -134 3277 -115 ct 3282 -96 3289 -81 3298 -70 ct 3307 -58 3318 -50 3330 -46 ct 
3342 -41 3355 -39 3369 -39 ct 3385 -39 3399 -41 3412 -46 ct 3425 -50 3436 -58 3445 -69 ct 
3454 -80 3461 -96 3466 -115 ct 3470 -134 3473 -158 3473 -187 ct p ef
3856 0 m  3856 -237 l  3856 -255 3855 -270 3852 -282 ct 3850 -294 3845 -304 3840 -312 ct 
3834 -319 3826 -324 3816 -327 ct 3806 -331 3794 -332 3780 -332 ct 3765 -332 3752 -329 3740 -324 ct 
3728 -319 3718 -312 3709 -302 ct 3701 -292 3695 -280 3690 -266 ct 3685 -251 3683 -235 3683 -216 ct 
3683 0 l  3621 0 l  3621 -294 l  3621 -302 3621 -310 3621 -319 ct 3621 -328 3621 -336 3620 -344 ct 
3620 -351 3620 -358 3620 -363 ct 3619 -369 3619 -372 3619 -372 ct 3677 -372 l 
3678 -371 3678 -368 3678 -363 ct 3678 -358 3679 -352 3679 -346 ct 3679 -339 3680 -333 3680 -326 ct 
3680 -319 3680 -314 3680 -309 ct 3681 -309 l  3687 -320 3694 -330 3701 -339 ct 
3708 -347 3716 -355 3726 -361 ct 3735 -367 3746 -372 3758 -375 ct 3770 -378 3784 -380 3801 -380 ct 
3821 -380 3839 -377 3854 -372 ct 3869 -367 3881 -360 3891 -349 ct 3901 -338 3908 -325 3912 -308 ct 
3917 -291 3919 -272 3919 -249 ct 3919 0 l  3856 0 l  p ef
4245 0 m  4245 -486 l  4311 -486 l  4311 0 l  4245 0 l  p ef
4676 0 m  4676 -237 l  4676 -255 4675 -270 4672 -282 ct 4670 -294 4665 -304 4660 -312 ct 
4654 -319 4646 -324 4636 -327 ct 4626 -331 4614 -332 4600 -332 ct 4585 -332 4572 -329 4560 -324 ct 
4548 -319 4538 -312 4529 -302 ct 4521 -292 4515 -280 4510 -266 ct 4505 -251 4503 -235 4503 -216 ct 
4503 0 l  4441 0 l  4441 -294 l  4441 -302 4441 -310 4441 -319 ct 4441 -328 4441 -336 4440 -344 ct 
4440 -351 4440 -358 4440 -363 ct 4439 -369 4439 -372 4439 -372 ct 4497 -372 l 
4498 -371 4498 -368 4498 -363 ct 4498 -358 4499 -352 4499 -346 ct 4499 -339 4500 -333 4500 -326 ct 
4500 -319 4500 -314 4500 -309 ct 4501 -309 l  4507 -320 4514 -330 4521 -339 ct 
4528 -347 4536 -355 4546 -361 ct 4555 -367 4566 -372 4578 -375 ct 4590 -378 4604 -380 4621 -380 ct 
4641 -380 4659 -377 4674 -372 ct 4689 -367 4701 -360 4711 -349 ct 4721 -338 4728 -325 4732 -308 ct 
4737 -291 4739 -272 4739 -249 ct 4739 0 l  4676 0 l  p ef
5072 -59 m  5061 -35 5045 -18 5026 -8 ct 5007 3 4984 8 4956 8 ct 4909 8 4874 -8 4852 -40 ct 
4830 -71 4819 -119 4819 -184 ct 4819 -314 4864 -379 4956 -379 ct 4984 -379 5008 -374 5027 -363 ct 
5045 -353 5061 -337 5072 -314 ct 5073 -314 l  5073 -316 5073 -320 5073 -325 ct 
5072 -330 5072 -335 5072 -341 ct 5072 -346 5072 -351 5072 -356 ct 5072 -361 5072 -364 5072 -366 ct 
5072 -511 l  5134 -511 l  5134 -74 l  5134 -65 5134 -57 5134 -48 ct 5134 -40 5135 -33 5135 -26 ct 
5135 -19 5135 -13 5135 -8 ct 5136 -3 5136 0 5136 0 ct 5077 0 l  5076 -3 5076 -6 5076 -10 ct 
5075 -14 5075 -19 5075 -24 ct 5074 -30 5074 -35 5074 -41 ct 5074 -47 5073 -53 5073 -59 ct 
5072 -59 l  p
4884 -186 m  4884 -160 4885 -138 4889 -120 ct 4892 -101 4897 -86 4904 -74 ct 
4911 -62 4920 -54 4931 -48 ct 4942 -43 4956 -40 4972 -40 ct 4988 -40 5002 -43 5015 -48 ct 
5027 -53 5038 -62 5046 -74 ct 5055 -85 5061 -101 5065 -120 ct 5070 -139 5072 -162 5072 -190 ct 
5072 -216 5070 -239 5065 -257 ct 5061 -275 5055 -290 5046 -301 ct 5038 -313 5027 -321 5015 -326 ct 
5003 -331 4988 -333 4972 -333 ct 4957 -333 4944 -331 4933 -325 ct 4922 -320 4913 -311 4906 -300 ct 
4898 -288 4893 -273 4889 -254 ct 4886 -235 4884 -213 4884 -186 ct p ef
5281 -173 m  5281 -154 5283 -136 5287 -119 ct 5291 -103 5297 -89 5306 -77 ct 
5314 -65 5325 -56 5338 -49 ct 5351 -43 5367 -40 5385 -40 ct 5412 -40 5434 -45 5450 -56 ct 
5466 -67 5477 -80 5483 -97 ct 5537 -81 l  5533 -71 5528 -61 5521 -50 ct 5514 -40 5505 -30 5493 -22 ct 
5481 -13 5466 -7 5449 -1 ct 5431 4 5410 7 5385 7 ct 5330 7 5288 -9 5259 -42 ct 
5230 -75 5216 -124 5216 -189 ct 5216 -224 5220 -253 5229 -278 ct 5238 -302 5250 -322 5265 -337 ct 
5280 -352 5298 -363 5318 -370 ct 5338 -376 5360 -380 5383 -380 ct 5414 -380 5440 -375 5461 -365 ct 
5482 -355 5499 -341 5512 -323 ct 5525 -305 5534 -284 5539 -260 ct 5545 -236 5547 -210 5547 -182 ct 
5547 -173 l  5281 -173 l  p
5483 -221 m  5480 -260 5470 -289 5453 -307 ct 5437 -325 5413 -334 5382 -334 ct 
5371 -334 5361 -332 5349 -329 ct 5338 -326 5327 -320 5318 -311 ct 5308 -303 5300 -291 5293 -277 ct 
5287 -262 5283 -244 5282 -221 ct 5483 -221 l  p ef
5859 0 m  5759 -153 l  5658 0 l  5591 0 l  5724 -192 l  5597 -373 l  5666 -373 l 
5759 -228 l  5851 -373 l  5920 -373 l  5794 -192 l  5928 0 l  5859 0 l 
p ef
6386 -432 m  6386 0 l  6321 0 l  6321 -432 l  6154 -432 l  6154 -486 l 
6553 -486 l  6553 -432 l  6386 -432 l  p ef
6697 -308 m  6704 -321 6712 -332 6720 -341 ct 6728 -349 6737 -357 6746 -362 ct 
6756 -368 6766 -372 6778 -375 ct 6789 -378 6802 -379 6817 -379 ct 6840 -379 6860 -376 6875 -369 ct 
6891 -363 6903 -354 6912 -342 ct 6920 -331 6926 -317 6930 -301 ct 6933 -285 6935 -267 6935 -248 ct 
6935 1 l  6872 1 l  6872 -236 l  6872 -252 6871 -265 6869 -277 ct 6868 -289 6864 -299 6858 -307 ct 
6853 -315 6845 -321 6835 -325 ct 6825 -329 6812 -331 6796 -331 ct 6781 -331 6768 -328 6756 -323 ct 
6744 -318 6734 -310 6725 -301 ct 6717 -291 6711 -279 6706 -266 ct 6701 -252 6699 -236 6699 -219 ct 
6699 1 l  6637 1 l  6637 -511 l  6699 -511 l  6699 -378 l  6699 -370 6699 -362 6699 -355 ct 
6698 -347 6698 -340 6698 -334 ct 6697 -327 6697 -322 6697 -317 ct 6697 -313 6696 -310 6696 -308 ct 
6697 -308 l  p ef
7034 0 m  7034 -286 l  7034 -294 7034 -302 7034 -310 ct 7034 -318 7034 -326 7033 -334 ct 
7033 -341 7033 -349 7033 -355 ct 7032 -362 7032 -368 7032 -373 ct 7090 -373 l 
7091 -368 7091 -362 7091 -355 ct 7092 -348 7092 -341 7092 -334 ct 7093 -327 7093 -320 7093 -314 ct 
7093 -307 7093 -302 7093 -297 ct 7095 -297 l  7099 -311 7104 -324 7109 -334 ct 
7114 -344 7119 -353 7126 -360 ct 7133 -367 7141 -372 7150 -375 ct 7159 -378 7170 -380 7183 -380 ct 
7188 -380 7193 -380 7198 -379 ct 7202 -378 7206 -377 7208 -377 ct 7208 -320 l 
7204 -321 7199 -322 7194 -322 ct 7188 -323 7182 -323 7175 -323 ct 7161 -323 7149 -320 7139 -313 ct 
7129 -307 7121 -298 7114 -287 ct 7108 -275 7103 -262 7100 -246 ct 7098 -230 7096 -213 7096 -194 ct 
7096 0 l  7034 0 l  p ef
7318 -173 m  7318 -154 7320 -136 7324 -119 ct 7328 -103 7334 -89 7343 -77 ct 
7351 -65 7362 -56 7375 -49 ct 7388 -43 7404 -40 7422 -40 ct 7449 -40 7471 -45 7487 -56 ct 
7503 -67 7514 -80 7520 -97 ct 7574 -81 l  7570 -71 7565 -61 7558 -50 ct 7551 -40 7542 -30 7530 -22 ct 
7518 -13 7503 -7 7486 -1 ct 7468 4 7447 7 7422 7 ct 7367 7 7325 -9 7296 -42 ct 
7267 -75 7253 -124 7253 -189 ct 7253 -224 7257 -253 7266 -278 ct 7275 -302 7287 -322 7302 -337 ct 
7317 -352 7335 -363 7355 -370 ct 7375 -376 7397 -380 7420 -380 ct 7451 -380 7477 -375 7498 -365 ct 
7519 -355 7536 -341 7549 -323 ct 7562 -305 7571 -284 7576 -260 ct 7582 -236 7584 -210 7584 -182 ct 
7584 -173 l  7318 -173 l  p
7520 -221 m  7517 -260 7507 -289 7490 -307 ct 7474 -325 7450 -334 7419 -334 ct 
7408 -334 7398 -332 7386 -329 ct 7375 -326 7364 -320 7355 -311 ct 7345 -303 7337 -291 7330 -277 ct 
7324 -262 7320 -244 7319 -221 ct 7520 -221 l  p ef
7947 -103 m  7947 -86 7944 -70 7937 -56 ct 7931 -43 7921 -31 7908 -22 ct 7895 -12 7879 -5 7860 0 ct 
7842 5 7820 7 7796 7 ct 7775 7 7755 5 7738 2 ct 7720 -1 7705 -7 7692 -14 ct 7679 -21 7668 -31 7659 -43 ct 
7650 -55 7644 -70 7640 -87 ct 7694 -98 l  7700 -78 7711 -64 7727 -54 ct 7744 -45 7767 -40 7796 -40 ct 
7809 -40 7822 -41 7833 -43 ct 7844 -45 7854 -48 7862 -52 ct 7870 -57 7876 -63 7880 -70 ct 
7885 -78 7887 -87 7887 -98 ct 7887 -109 7885 -119 7879 -126 ct 7874 -133 7867 -139 7857 -144 ct 
7848 -149 7836 -153 7823 -157 ct 7809 -160 7795 -164 7779 -169 ct 7764 -172 7749 -177 7734 -182 ct 
7719 -186 7706 -193 7694 -201 ct 7682 -209 7673 -219 7666 -230 ct 7658 -242 7654 -257 7654 -274 ct 
7654 -308 7667 -334 7691 -352 ct 7715 -370 7750 -379 7797 -379 ct 7838 -379 7871 -372 7895 -357 ct 
7919 -343 7935 -319 7941 -288 ct 7885 -281 l  7883 -290 7879 -298 7874 -305 ct 
7868 -311 7862 -317 7854 -321 ct 7846 -325 7837 -328 7827 -329 ct 7818 -331 7807 -332 7797 -332 ct 
7769 -332 7748 -328 7735 -319 ct 7721 -311 7715 -298 7715 -281 ct 7715 -271 7717 -262 7722 -256 ct 
7727 -249 7734 -244 7743 -239 ct 7752 -235 7762 -231 7775 -227 ct 7787 -224 7801 -220 7816 -217 ct 
7826 -214 7836 -212 7846 -209 ct 7856 -206 7867 -202 7876 -198 ct 7886 -194 7895 -190 7904 -184 ct 
7913 -179 7920 -172 7926 -165 ct 7933 -157 7938 -148 7942 -138 ct 7946 -128 7947 -116 7947 -103 ct 
p ef
8099 -308 m  8106 -321 8114 -332 8122 -341 ct 8130 -349 8139 -357 8148 -362 ct 
8158 -368 8168 -372 8180 -375 ct 8191 -378 8204 -379 8219 -379 ct 8242 -379 8262 -376 8277 -369 ct 
8293 -363 8305 -354 8314 -342 ct 8322 -331 8328 -317 8332 -301 ct 8335 -285 8337 -267 8337 -248 ct 
8337 1 l  8274 1 l  8274 -236 l  8274 -252 8273 -265 8271 -277 ct 8270 -289 8266 -299 8260 -307 ct 
8255 -315 8247 -321 8237 -325 ct 8227 -329 8214 -331 8198 -331 ct 8183 -331 8170 -328 8158 -323 ct 
8146 -318 8136 -310 8127 -301 ct 8119 -291 8113 -279 8108 -266 ct 8103 -252 8101 -236 8101 -219 ct 
8101 1 l  8039 1 l  8039 -511 l  8101 -511 l  8101 -378 l  8101 -370 8101 -362 8101 -355 ct 
8100 -347 8100 -340 8100 -334 ct 8099 -327 8099 -322 8099 -317 ct 8099 -313 8098 -310 8098 -308 ct 
8099 -308 l  p ef
8749 -187 m  8749 -122 8735 -73 8706 -41 ct 8677 -9 8635 7 8581 7 ct 8555 7 8532 3 8511 -5 ct 
8491 -13 8473 -24 8459 -41 ct 8445 -57 8434 -77 8427 -101 ct 8419 -125 8416 -154 8416 -187 ct 
8416 -316 8471 -380 8583 -380 ct 8612 -380 8637 -376 8658 -368 ct 8679 -360 8696 -348 8710 -332 ct 
8723 -315 8733 -295 8739 -271 ct 8746 -247 8749 -219 8749 -187 ct p
8684 -187 m  8684 -216 8682 -240 8677 -258 ct 8673 -277 8666 -292 8657 -304 ct 
8649 -315 8638 -323 8626 -327 ct 8614 -332 8600 -334 8584 -334 ct 8568 -334 8554 -332 8541 -327 ct 
8528 -322 8517 -314 8508 -303 ct 8499 -291 8493 -276 8488 -257 ct 8483 -239 8481 -215 8481 -187 ct 
8481 -158 8483 -134 8488 -115 ct 8493 -96 8500 -81 8509 -70 ct 8518 -58 8529 -50 8541 -46 ct 
8553 -41 8566 -39 8580 -39 ct 8596 -39 8610 -41 8623 -46 ct 8636 -50 8647 -58 8656 -69 ct 
8665 -80 8672 -96 8677 -115 ct 8681 -134 8684 -158 8684 -187 ct p ef
8831 1 m  8831 -511 l  8893 -511 l  8893 1 l  8831 1 l  p ef
9225 -59 m  9214 -35 9198 -18 9179 -8 ct 9160 3 9137 8 9109 8 ct 9062 8 9027 -8 9005 -40 ct 
8983 -71 8972 -119 8972 -184 ct 8972 -314 9017 -379 9109 -379 ct 9137 -379 9161 -374 9180 -363 ct 
9198 -353 9214 -337 9225 -314 ct 9226 -314 l  9226 -316 9226 -320 9226 -325 ct 
9225 -330 9225 -335 9225 -341 ct 9225 -346 9225 -351 9225 -356 ct 9225 -361 9225 -364 9225 -366 ct 
9225 -511 l  9287 -511 l  9287 -74 l  9287 -65 9287 -57 9287 -48 ct 9287 -40 9288 -33 9288 -26 ct 
9288 -19 9288 -13 9288 -8 ct 9289 -3 9289 0 9289 0 ct 9230 0 l  9229 -3 9229 -6 9229 -10 ct 
9228 -14 9228 -19 9228 -24 ct 9227 -30 9227 -35 9227 -41 ct 9227 -47 9226 -53 9226 -59 ct 
9225 -59 l  p
9037 -186 m  9037 -160 9038 -138 9042 -120 ct 9045 -101 9050 -86 9057 -74 ct 
9064 -62 9073 -54 9084 -48 ct 9095 -43 9109 -40 9125 -40 ct 9141 -40 9155 -43 9168 -48 ct 
9180 -53 9191 -62 9199 -74 ct 9208 -85 9214 -101 9218 -120 ct 9223 -139 9225 -162 9225 -190 ct 
9225 -216 9223 -239 9218 -257 ct 9214 -275 9208 -290 9199 -301 ct 9191 -313 9180 -321 9168 -326 ct 
9156 -331 9141 -333 9125 -333 ct 9110 -333 9097 -331 9086 -325 ct 9075 -320 9066 -311 9059 -300 ct 
9051 -288 9046 -273 9042 -254 ct 9039 -235 9037 -213 9037 -186 ct p ef
pom
pum
1768 18144 t
89.9 r 410 0 m  124 -455 l  125 -443 125 -431 126 -418 ct 127 -408 127 -397 128 -386 ct 
128 -374 128 -364 128 -355 ct 128 0 l  64 0 l  64 -535 l  148 -535 l  437 -76 l 
436 -89 435 -101 434 -113 ct 434 -124 433 -136 433 -148 ct 432 -161 432 -173 432 -184 ct 
432 -535 l  497 -535 l  497 0 l  410 0 l  p ef
675 -410 m  675 -150 l  675 -130 676 -113 679 -100 ct 682 -86 687 -76 694 -67 ct 
700 -59 709 -53 720 -50 ct 730 -46 744 -45 759 -45 ct 776 -45 790 -48 803 -53 ct 
816 -59 827 -67 837 -78 ct 846 -89 853 -102 858 -118 ct 863 -134 866 -152 866 -172 ct 
866 -410 l  934 -410 l  934 -86 l  934 -77 934 -68 934 -59 ct 934 -49 934 -40 935 -32 ct 
935 -23 935 -16 935 -10 ct 936 -4 936 -1 936 -1 ct 872 -1 l  871 -2 871 -5 871 -11 ct 
871 -16 870 -23 870 -30 ct 870 -37 869 -44 869 -51 ct 869 -59 869 -65 869 -70 ct 
867 -70 l  861 -58 854 -47 846 -38 ct 838 -28 829 -20 819 -13 ct 808 -6 796 -1 783 3 ct 
770 6 754 8 736 8 ct 714 8 694 5 678 0 ct 661 -6 648 -15 637 -26 ct 626 -38 619 -53 614 -71 ct 
609 -89 606 -111 606 -137 ct 606 -410 l  675 -410 l  p ef
1270 0 m  1270 -260 l  1270 -280 1269 -297 1266 -310 ct 1264 -324 1259 -335 1254 -343 ct 
1248 -351 1240 -357 1230 -360 ct 1221 -364 1209 -365 1195 -365 ct 1181 -365 1168 -362 1156 -357 ct 
1144 -351 1134 -343 1126 -332 ct 1118 -321 1112 -308 1107 -292 ct 1103 -276 1101 -258 1101 -238 ct 
1101 0 l  1033 0 l  1033 -324 l  1033 -332 1033 -341 1033 -351 ct 1032 -360 1032 -369 1032 -378 ct 
1032 -386 1032 -394 1031 -400 ct 1031 -406 1031 -409 1031 -409 ct 1095 -409 l 
1095 -408 1095 -404 1096 -399 ct 1096 -393 1096 -387 1097 -380 ct 1097 -373 1097 -366 1098 -359 ct 
1098 -351 1098 -345 1098 -340 ct 1099 -340 l  1105 -352 1112 -363 1119 -372 ct 
1126 -382 1134 -390 1144 -397 ct 1153 -404 1164 -409 1176 -413 ct 1188 -416 1203 -418 1219 -418 ct 
1250 -418 1274 -412 1293 -399 ct 1311 -387 1323 -367 1330 -340 ct 1331 -340 l 
1337 -352 1344 -363 1352 -372 ct 1359 -382 1368 -390 1378 -397 ct 1388 -404 1400 -409 1412 -413 ct 
1425 -416 1440 -418 1456 -418 ct 1476 -418 1494 -415 1509 -410 ct 1524 -404 1537 -396 1546 -384 ct 
1556 -372 1563 -357 1567 -339 ct 1572 -321 1574 -299 1574 -274 ct 1574 0 l  1507 0 l 
1507 -260 l  1507 -280 1506 -297 1503 -310 ct 1501 -324 1496 -335 1490 -343 ct 
1484 -351 1477 -357 1467 -360 ct 1457 -364 1446 -365 1432 -365 ct 1417 -365 1404 -363 1393 -357 ct 
1381 -352 1371 -344 1363 -333 ct 1355 -322 1349 -309 1344 -293 ct 1340 -277 1337 -259 1337 -238 ct 
1337 0 l  1270 0 l  p ef
2013 -207 m  2013 -64 1963 7 1862 7 ct 1831 7 1805 2 1785 -9 ct 1764 -21 1747 -39 1735 -64 ct 
1734 -64 l  1734 -57 1734 -50 1733 -43 ct 1733 -36 1732 -29 1732 -23 ct 1732 -17 1731 -12 1731 -7 ct 
1731 -3 1730 -1 1730 -1 ct 1664 -1 l  1664 -3 1665 -7 1665 -12 ct 1665 -18 1665 -24 1666 -32 ct 
1666 -40 1666 -48 1666 -57 ct 1666 -66 1666 -76 1666 -85 ct 1666 -563 l  1735 -563 l 
1735 -402 l  1735 -395 1734 -388 1734 -381 ct 1734 -374 1734 -368 1734 -362 ct 
1733 -356 1733 -350 1733 -344 ct 1735 -344 l  1747 -371 1764 -390 1785 -401 ct 
1806 -412 1831 -418 1862 -418 ct 1914 -418 1952 -401 1976 -366 ct 2001 -331 2013 -278 2013 -207 ct 
p
1941 -205 m  1941 -233 1940 -257 1936 -278 ct 1933 -298 1927 -315 1919 -328 ct 
1911 -341 1901 -350 1889 -356 ct 1877 -362 1862 -365 1845 -365 ct 1827 -365 1811 -362 1797 -357 ct 
1783 -351 1772 -341 1763 -329 ct 1754 -316 1746 -299 1742 -278 ct 1737 -257 1735 -231 1735 -201 ct 
1735 -171 1737 -147 1742 -127 ct 1746 -107 1754 -91 1763 -78 ct 1772 -66 1783 -57 1797 -51 ct 
1811 -46 1826 -43 1844 -43 ct 1861 -43 1875 -46 1887 -52 ct 1899 -58 1909 -67 1918 -80 ct 
1926 -93 1932 -109 1936 -130 ct 1939 -151 1941 -176 1941 -205 ct p ef
2142 -191 m  2142 -169 2144 -149 2148 -131 ct 2153 -113 2159 -97 2169 -84 ct 
2178 -71 2190 -61 2204 -54 ct 2219 -47 2236 -43 2256 -43 ct 2286 -43 2309 -49 2327 -61 ct 
2345 -73 2357 -88 2363 -106 ct 2423 -89 l  2419 -78 2413 -66 2405 -55 ct 2397 -43 2387 -33 2374 -24 ct 
2361 -14 2345 -7 2326 -1 ct 2307 5 2283 8 2256 8 ct 2195 8 2149 -10 2118 -46 ct 
2086 -82 2070 -136 2070 -207 ct 2070 -246 2075 -278 2084 -305 ct 2094 -332 2107 -353 2124 -370 ct 
2140 -387 2160 -399 2182 -406 ct 2204 -414 2228 -417 2253 -417 ct 2288 -417 2316 -412 2340 -401 ct 
2363 -390 2381 -374 2395 -355 ct 2409 -335 2419 -312 2425 -286 ct 2431 -259 2434 -231 2434 -200 ct 
2434 -191 l  2142 -191 l  p
2364 -243 m  2360 -286 2349 -318 2331 -337 ct 2312 -357 2286 -367 2252 -367 ct 
2241 -367 2229 -365 2216 -362 ct 2204 -358 2192 -351 2182 -342 ct 2171 -333 2162 -320 2155 -304 ct 
2148 -288 2143 -268 2142 -243 ct 2364 -243 l  p ef
2515 0 m  2515 -315 l  2515 -323 2515 -332 2515 -341 ct 2514 -350 2514 -359 2514 -367 ct 
2514 -376 2514 -383 2513 -391 ct 2513 -398 2513 -405 2513 -410 ct 2577 -410 l 
2577 -405 2578 -398 2578 -390 ct 2578 -383 2579 -375 2579 -368 ct 2579 -360 2580 -352 2580 -345 ct 
2580 -338 2580 -332 2580 -327 ct 2582 -327 l  2586 -342 2591 -356 2597 -367 ct 
2602 -379 2609 -388 2616 -396 ct 2623 -403 2632 -409 2642 -413 ct 2652 -416 2664 -418 2679 -418 ct 
2684 -418 2690 -418 2695 -417 ct 2700 -416 2704 -415 2707 -414 ct 2707 -352 l 
2702 -353 2697 -354 2691 -354 ct 2685 -355 2678 -355 2670 -355 ct 2655 -355 2641 -352 2630 -345 ct 
2619 -338 2610 -328 2603 -315 ct 2596 -303 2591 -288 2588 -271 ct 2585 -253 2583 -234 2583 -214 ct 
2583 0 l  2515 0 l  p ef
3336 -205 m  3336 -133 3320 -80 3289 -45 ct 3257 -10 3211 8 3151 8 ct 3123 8 3097 4 3075 -5 ct 
3052 -13 3033 -27 3018 -44 ct 3002 -62 2990 -84 2982 -111 ct 2974 -138 2970 -169 2970 -205 ct 
2970 -347 3031 -417 3153 -417 ct 3185 -417 3213 -413 3236 -404 ct 3259 -395 3278 -382 3293 -364 ct 
3307 -347 3318 -325 3325 -298 ct 3332 -271 3336 -240 3336 -205 ct p
3264 -205 m  3264 -237 3262 -263 3257 -284 ct 3252 -305 3245 -321 3235 -334 ct 
3226 -346 3214 -355 3201 -360 ct 3187 -365 3172 -367 3155 -367 ct 3137 -367 3121 -364 3107 -359 ct 
3093 -354 3081 -345 3072 -333 ct 3062 -320 3054 -304 3049 -283 ct 3044 -262 3041 -236 3041 -205 ct 
3041 -173 3044 -147 3050 -126 ct 3055 -105 3063 -89 3072 -76 ct 3082 -64 3094 -55 3107 -50 ct 
3120 -45 3135 -42 3150 -42 ct 3168 -42 3184 -45 3198 -50 ct 3212 -55 3224 -63 3234 -76 ct 
3244 -88 3251 -105 3256 -126 ct 3262 -147 3264 -173 3264 -205 ct p ef
3497 -361 m  3497 -1 l  3429 -1 l  3429 -361 l  3371 -361 l  3371 -411 l 
3429 -411 l  3429 -457 l  3429 -472 3430 -486 3433 -499 ct 3436 -512 3441 -523 3448 -532 ct 
3456 -542 3466 -549 3479 -555 ct 3491 -560 3508 -563 3529 -563 ct 3537 -563 3545 -563 3554 -562 ct 
3563 -561 3570 -560 3577 -558 ct 3577 -506 l  3572 -507 3567 -508 3562 -509 ct 
3556 -509 3551 -510 3546 -510 ct 3536 -510 3528 -508 3522 -505 ct 3515 -503 3510 -499 3506 -493 ct 
3503 -488 3500 -482 3499 -474 ct 3497 -467 3497 -458 3497 -448 ct 3497 -411 l 
3577 -411 l  3577 -361 l  3497 -361 l  p ef
pom
pum
2615 19599 t
89.9 r 173 8 m  130 8 95 -3 67 -26 ct 39 -48 21 -84 12 -132 ct 83 -144 l  86 -128 90 -114 95 -102 ct 
101 -90 108 -80 116 -73 ct 124 -65 133 -60 143 -56 ct 153 -53 163 -51 174 -51 ct 
200 -51 221 -60 236 -78 ct 251 -96 258 -122 258 -157 ct 258 -475 l  156 -475 l 
156 -534 l  330 -534 l  330 -159 l  330 -133 327 -110 320 -90 ct 313 -69 302 -52 289 -37 ct 
275 -23 259 -12 239 -4 ct 220 4 198 8 173 8 ct p ef
554 8 m  513 8 482 -3 461 -25 ct 440 -47 430 -77 430 -115 ct 430 -142 435 -164 445 -182 ct 
456 -199 469 -213 485 -223 ct 502 -232 521 -239 542 -243 ct 563 -247 585 -249 607 -249 ct 
699 -249 l  699 -271 l  699 -289 697 -303 694 -315 ct 690 -327 685 -337 677 -344 ct 
670 -352 661 -357 650 -361 ct 639 -364 626 -366 611 -366 ct 598 -366 586 -365 575 -363 ct 
565 -361 556 -358 548 -353 ct 540 -348 534 -341 529 -333 ct 524 -324 521 -313 519 -301 ct 
448 -307 l  451 -323 455 -338 463 -352 ct 470 -365 480 -377 493 -387 ct 506 -397 522 -404 542 -410 ct 
561 -415 585 -418 613 -418 ct 664 -418 703 -406 729 -382 ct 755 -359 768 -325 768 -280 ct 
768 -103 l  768 -83 771 -68 776 -57 ct 781 -47 791 -42 806 -42 ct 810 -42 814 -42 818 -43 ct 
821 -43 825 -44 829 -45 ct 829 -2 l  820 0 811 1 803 2 ct 795 3 786 4 776 4 ct 
763 4 752 2 743 -1 ct 734 -5 726 -10 720 -17 ct 714 -24 710 -32 707 -42 ct 704 -53 702 -64 701 -78 ct 
699 -78 l  692 -65 684 -53 675 -42 ct 666 -32 656 -23 644 -15 ct 633 -8 620 -2 605 2 ct 
590 6 573 8 554 8 ct p
569 -43 m  591 -43 610 -47 626 -55 ct 643 -63 656 -73 667 -85 ct 678 -98 686 -111 691 -126 ct 
696 -140 699 -154 699 -168 ct 699 -201 l  624 -201 l  608 -201 592 -200 577 -198 ct 
562 -196 549 -191 537 -185 ct 526 -179 517 -170 510 -158 ct 503 -147 500 -132 500 -113 ct 
500 -91 506 -74 518 -62 ct 530 -49 547 -43 569 -43 ct p ef
924 -207 m  924 -183 926 -162 929 -142 ct 933 -122 938 -105 947 -91 ct 955 -77 965 -65 979 -58 ct 
992 -50 1008 -46 1028 -46 ct 1052 -46 1072 -52 1088 -65 ct 1105 -78 1115 -97 1119 -124 ct 
1188 -124 l  1185 -107 1180 -90 1173 -74 ct 1165 -58 1155 -44 1142 -32 ct 1129 -20 1113 -10 1094 -3 ct 
1076 4 1054 8 1030 8 ct 997 8 970 3 948 -8 ct 925 -19 907 -34 893 -53 ct 879 -72 869 -95 862 -121 ct 
856 -147 853 -175 853 -205 ct 853 -233 855 -257 860 -278 ct 864 -299 871 -318 879 -333 ct 
887 -349 897 -363 908 -373 ct 919 -384 931 -393 944 -399 ct 957 -406 971 -410 985 -413 ct 
1000 -416 1014 -417 1029 -417 ct 1052 -417 1072 -414 1090 -408 ct 1108 -402 1124 -393 1137 -382 ct 
1150 -371 1160 -358 1168 -343 ct 1176 -328 1182 -312 1185 -295 ct 1115 -290 l 
1112 -312 1103 -331 1088 -344 ct 1074 -357 1053 -364 1027 -364 ct 1007 -364 991 -361 978 -354 ct 
965 -348 955 -338 947 -325 ct 938 -312 933 -296 929 -276 ct 926 -256 924 -233 924 -207 ct 
p ef
1321 -207 m  1321 -183 1323 -162 1326 -142 ct 1330 -122 1335 -105 1344 -91 ct 
1352 -77 1362 -65 1376 -58 ct 1389 -50 1405 -46 1425 -46 ct 1449 -46 1469 -52 1485 -65 ct 
1502 -78 1512 -97 1516 -124 ct 1585 -124 l  1582 -107 1577 -90 1570 -74 ct 1562 -58 1552 -44 1539 -32 ct 
1526 -20 1510 -10 1491 -3 ct 1473 4 1451 8 1427 8 ct 1394 8 1367 3 1345 -8 ct 1322 -19 1304 -34 1290 -53 ct 
1276 -72 1266 -95 1259 -121 ct 1253 -147 1250 -175 1250 -205 ct 1250 -233 1252 -257 1257 -278 ct 
1261 -299 1268 -318 1276 -333 ct 1284 -349 1294 -363 1305 -373 ct 1316 -384 1328 -393 1341 -399 ct 
1354 -406 1368 -410 1382 -413 ct 1397 -416 1411 -417 1426 -417 ct 1449 -417 1469 -414 1487 -408 ct 
1505 -402 1521 -393 1534 -382 ct 1547 -371 1557 -358 1565 -343 ct 1573 -328 1579 -312 1582 -295 ct 
1512 -290 l  1509 -312 1500 -331 1485 -344 ct 1471 -357 1450 -364 1424 -364 ct 
1404 -364 1388 -361 1375 -354 ct 1362 -348 1352 -338 1344 -325 ct 1335 -312 1330 -296 1326 -276 ct 
1323 -256 1321 -233 1321 -207 ct p ef
1771 8 m  1730 8 1699 -3 1678 -25 ct 1657 -47 1647 -77 1647 -115 ct 1647 -142 1652 -164 1662 -182 ct 
1673 -199 1686 -213 1702 -223 ct 1719 -232 1738 -239 1759 -243 ct 1780 -247 1802 -249 1824 -249 ct 
1916 -249 l  1916 -271 l  1916 -289 1914 -303 1911 -315 ct 1907 -327 1902 -337 1894 -344 ct 
1887 -352 1878 -357 1867 -361 ct 1856 -364 1843 -366 1828 -366 ct 1815 -366 1803 -365 1792 -363 ct 
1782 -361 1773 -358 1765 -353 ct 1757 -348 1751 -341 1746 -333 ct 1741 -324 1738 -313 1736 -301 ct 
1665 -307 l  1668 -323 1672 -338 1680 -352 ct 1687 -365 1697 -377 1710 -387 ct 
1723 -397 1739 -404 1759 -410 ct 1778 -415 1802 -418 1830 -418 ct 1881 -418 1920 -406 1946 -382 ct 
1972 -359 1985 -325 1985 -280 ct 1985 -103 l  1985 -83 1988 -68 1993 -57 ct 
1998 -47 2008 -42 2023 -42 ct 2027 -42 2031 -42 2035 -43 ct 2038 -43 2042 -44 2046 -45 ct 
2046 -2 l  2037 0 2028 1 2020 2 ct 2012 3 2003 4 1993 4 ct 1980 4 1969 2 1960 -1 ct 
1951 -5 1943 -10 1937 -17 ct 1931 -24 1927 -32 1924 -42 ct 1921 -53 1919 -64 1918 -78 ct 
1916 -78 l  1909 -65 1901 -53 1892 -42 ct 1883 -32 1873 -23 1861 -15 ct 1850 -8 1837 -2 1822 2 ct 
1807 6 1790 8 1771 8 ct p
1786 -43 m  1808 -43 1827 -47 1843 -55 ct 1860 -63 1873 -73 1884 -85 ct 1895 -98 1903 -111 1908 -126 ct 
1913 -140 1916 -154 1916 -168 ct 1916 -201 l  1841 -201 l  1825 -201 1809 -200 1794 -198 ct 
1779 -196 1766 -191 1754 -185 ct 1743 -179 1734 -170 1727 -158 ct 1720 -147 1717 -132 1717 -113 ct 
1717 -91 1723 -74 1735 -62 ct 1747 -49 1764 -43 1786 -43 ct p ef
2091 0 m  2091 -315 l  2091 -323 2091 -332 2091 -341 ct 2090 -350 2090 -359 2090 -367 ct 
2090 -376 2090 -383 2089 -391 ct 2089 -398 2089 -405 2089 -410 ct 2153 -410 l 
2153 -405 2154 -398 2154 -390 ct 2154 -383 2155 -375 2155 -368 ct 2155 -360 2156 -352 2156 -345 ct 
2156 -338 2156 -332 2156 -327 ct 2158 -327 l  2162 -342 2167 -356 2173 -367 ct 
2178 -379 2185 -388 2192 -396 ct 2199 -403 2208 -409 2218 -413 ct 2228 -416 2240 -418 2255 -418 ct 
2260 -418 2266 -418 2271 -417 ct 2276 -416 2280 -415 2283 -414 ct 2283 -352 l 
2278 -353 2273 -354 2267 -354 ct 2261 -355 2254 -355 2246 -355 ct 2231 -355 2217 -352 2206 -345 ct 
2195 -338 2186 -328 2179 -315 ct 2172 -303 2167 -288 2164 -271 ct 2161 -253 2159 -234 2159 -214 ct 
2159 0 l  2091 0 l  p ef
2613 -66 m  2600 -40 2584 -21 2563 -9 ct 2542 2 2516 8 2485 8 ct 2434 8 2396 -10 2371 -45 ct 
2347 -80 2335 -132 2335 -203 ct 2335 -346 2385 -418 2485 -418 ct 2516 -418 2542 -412 2563 -401 ct 
2584 -390 2600 -371 2613 -347 ct 2614 -347 l  2614 -349 2614 -353 2614 -359 ct 
2614 -364 2613 -370 2613 -376 ct 2613 -382 2613 -387 2613 -393 ct 2613 -398 2613 -402 2613 -404 ct 
2613 -563 l  2681 -563 l  2681 -83 l  2681 -73 2681 -63 2681 -54 ct 2682 -45 2682 -37 2682 -29 ct 
2682 -22 2683 -15 2683 -10 ct 2683 -4 2683 -1 2684 -1 ct 2618 -1 l  2618 -4 2617 -7 2617 -12 ct 
2617 -17 2616 -22 2616 -28 ct 2616 -34 2615 -40 2615 -46 ct 2615 -53 2615 -59 2615 -66 ct 
2613 -66 l  p
2406 -206 m  2406 -177 2408 -153 2412 -133 ct 2415 -112 2421 -96 2429 -83 ct 
2436 -70 2446 -60 2458 -54 ct 2471 -48 2485 -45 2503 -45 ct 2521 -45 2537 -48 2550 -54 ct 
2564 -60 2576 -69 2585 -82 ct 2594 -95 2601 -112 2606 -133 ct 2611 -154 2613 -180 2613 -210 ct 
2613 -239 2611 -264 2606 -284 ct 2601 -304 2594 -320 2585 -333 ct 2575 -345 2564 -354 2550 -359 ct 
2537 -365 2521 -368 2504 -368 ct 2487 -368 2473 -365 2460 -359 ct 2448 -353 2438 -344 2430 -331 ct 
2422 -318 2416 -301 2412 -280 ct 2408 -260 2406 -235 2406 -206 ct p ef
3503 -269 m  3503 -228 3497 -190 3485 -155 ct 3473 -121 3456 -92 3433 -68 ct 
3411 -44 3383 -25 3350 -12 ct 3317 1 3280 8 3238 8 ct 3194 8 3156 1 3123 -13 ct 
3090 -26 3062 -46 3040 -70 ct 3018 -95 3002 -124 2990 -158 ct 2979 -192 2974 -229 2974 -269 ct 
2974 -311 2980 -349 2991 -382 ct 3003 -416 3020 -445 3042 -468 ct 3065 -492 3093 -510 3126 -523 ct 
3158 -536 3196 -542 3239 -542 ct 3281 -542 3319 -536 3352 -523 ct 3385 -510 3413 -491 3435 -468 ct 
3457 -444 3474 -415 3486 -382 ct 3498 -348 3503 -311 3503 -269 ct p
3430 -269 m  3430 -301 3425 -331 3417 -357 ct 3409 -383 3397 -406 3381 -424 ct 
3365 -443 3345 -458 3321 -468 ct 3297 -478 3270 -483 3239 -483 ct 3207 -483 3179 -478 3155 -468 ct 
3131 -458 3111 -443 3095 -424 ct 3079 -406 3067 -383 3059 -357 ct 3051 -331 3047 -301 3047 -269 ct 
3047 -237 3051 -208 3060 -181 ct 3068 -154 3080 -131 3096 -112 ct 3112 -93 3132 -78 3156 -67 ct 
3180 -56 3207 -51 3238 -51 ct 3272 -51 3300 -56 3324 -67 ct 3349 -78 3368 -93 3384 -112 ct 
3399 -132 3411 -155 3418 -182 ct 3426 -208 3430 -238 3430 -269 ct p ef
3944 -207 m  3944 -176 3941 -147 3936 -121 ct 3931 -95 3923 -72 3911 -53 ct 
3899 -34 3884 -19 3865 -9 ct 3845 2 3821 7 3793 7 ct 3764 7 3738 2 3716 -9 ct 3694 -20 3677 -39 3666 -64 ct 
3664 -64 l  3664 -63 3664 -61 3665 -57 ct 3665 -53 3665 -48 3665 -42 ct 3665 -36 3665 -29 3665 -22 ct 
3665 -14 3666 -7 3666 1 ct 3666 161 l  3597 161 l  3597 -328 l  3597 -338 3597 -347 3597 -357 ct 
3597 -366 3597 -374 3597 -381 ct 3596 -389 3596 -395 3596 -401 ct 3596 -406 3595 -409 3595 -409 ct 
3661 -409 l  3661 -408 3662 -405 3662 -401 ct 3662 -396 3663 -391 3663 -385 ct 
3663 -379 3664 -372 3664 -365 ct 3665 -358 3665 -351 3665 -345 ct 3666 -345 l 
3673 -358 3680 -369 3688 -378 ct 3696 -387 3705 -395 3716 -401 ct 3726 -407 3737 -411 3750 -414 ct 
3763 -416 3777 -418 3793 -418 ct 3821 -418 3845 -413 3865 -403 ct 3884 -392 3899 -378 3911 -360 ct 
3923 -342 3931 -319 3936 -294 ct 3941 -268 3944 -239 3944 -207 ct p
3872 -206 m  3872 -231 3871 -254 3868 -273 ct 3865 -293 3860 -310 3852 -323 ct 
3845 -337 3835 -347 3822 -354 ct 3810 -361 3794 -365 3776 -365 ct 3761 -365 3746 -363 3733 -359 ct 
3720 -354 3708 -346 3698 -334 ct 3688 -322 3680 -305 3674 -284 ct 3668 -262 3666 -235 3666 -200 ct 
3666 -171 3668 -147 3673 -127 ct 3677 -107 3685 -90 3694 -78 ct 3703 -66 3714 -57 3728 -51 ct 
3742 -46 3757 -43 3775 -43 ct 3794 -43 3810 -47 3822 -54 ct 3835 -61 3845 -72 3852 -86 ct 
3860 -100 3865 -117 3868 -137 ct 3871 -157 3872 -180 3872 -206 ct p ef
4074 -191 m  4074 -169 4076 -149 4080 -131 ct 4085 -113 4091 -97 4101 -84 ct 
4110 -71 4122 -61 4136 -54 ct 4151 -47 4168 -43 4188 -43 ct 4218 -43 4241 -49 4259 -61 ct 
4277 -73 4289 -88 4295 -106 ct 4355 -89 l  4351 -78 4345 -66 4337 -55 ct 4329 -43 4319 -33 4306 -24 ct 
4293 -14 4277 -7 4258 -1 ct 4239 5 4215 8 4188 8 ct 4127 8 4081 -10 4050 -46 ct 
4018 -82 4002 -136 4002 -207 ct 4002 -246 4007 -278 4016 -305 ct 4026 -332 4039 -353 4056 -370 ct 
4072 -387 4092 -399 4114 -406 ct 4136 -414 4160 -417 4185 -417 ct 4220 -417 4248 -412 4272 -401 ct 
4295 -390 4313 -374 4327 -355 ct 4341 -335 4351 -312 4357 -286 ct 4363 -259 4366 -231 4366 -200 ct 
4366 -191 l  4074 -191 l  p
4296 -243 m  4292 -286 4281 -318 4263 -337 ct 4244 -357 4218 -367 4184 -367 ct 
4173 -367 4161 -365 4148 -362 ct 4136 -358 4124 -351 4114 -342 ct 4103 -333 4094 -320 4087 -304 ct 
4080 -288 4075 -268 4074 -243 ct 4296 -243 l  p ef
4446 0 m  4446 -315 l  4446 -323 4446 -332 4446 -341 ct 4445 -350 4445 -359 4445 -367 ct 
4445 -376 4445 -383 4444 -391 ct 4444 -398 4444 -405 4444 -410 ct 4508 -410 l 
4508 -405 4509 -398 4509 -390 ct 4509 -383 4510 -375 4510 -368 ct 4510 -360 4511 -352 4511 -345 ct 
4511 -338 4511 -332 4511 -327 ct 4513 -327 l  4517 -342 4522 -356 4528 -367 ct 
4533 -379 4540 -388 4547 -396 ct 4554 -403 4563 -409 4573 -413 ct 4583 -416 4595 -418 4610 -418 ct 
4615 -418 4621 -418 4626 -417 ct 4631 -416 4635 -415 4638 -414 ct 4638 -352 l 
4633 -353 4628 -354 4622 -354 ct 4616 -355 4609 -355 4601 -355 ct 4586 -355 4572 -352 4561 -345 ct 
4550 -338 4541 -328 4534 -315 ct 4527 -303 4522 -288 4519 -271 ct 4516 -253 4514 -234 4514 -214 ct 
4514 0 l  4446 0 l  p ef
4814 8 m  4773 8 4742 -3 4721 -25 ct 4700 -47 4690 -77 4690 -115 ct 4690 -142 4695 -164 4705 -182 ct 
4716 -199 4729 -213 4745 -223 ct 4762 -232 4781 -239 4802 -243 ct 4823 -247 4845 -249 4867 -249 ct 
4959 -249 l  4959 -271 l  4959 -289 4957 -303 4954 -315 ct 4950 -327 4945 -337 4937 -344 ct 
4930 -352 4921 -357 4910 -361 ct 4899 -364 4886 -366 4871 -366 ct 4858 -366 4846 -365 4835 -363 ct 
4825 -361 4816 -358 4808 -353 ct 4800 -348 4794 -341 4789 -333 ct 4784 -324 4781 -313 4779 -301 ct 
4708 -307 l  4711 -323 4715 -338 4723 -352 ct 4730 -365 4740 -377 4753 -387 ct 
4766 -397 4782 -404 4802 -410 ct 4821 -415 4845 -418 4873 -418 ct 4924 -418 4963 -406 4989 -382 ct 
5015 -359 5028 -325 5028 -280 ct 5028 -103 l  5028 -83 5031 -68 5036 -57 ct 
5041 -47 5051 -42 5066 -42 ct 5070 -42 5074 -42 5078 -43 ct 5081 -43 5085 -44 5089 -45 ct 
5089 -2 l  5080 0 5071 1 5063 2 ct 5055 3 5046 4 5036 4 ct 5023 4 5012 2 5003 -1 ct 
4994 -5 4986 -10 4980 -17 ct 4974 -24 4970 -32 4967 -42 ct 4964 -53 4962 -64 4961 -78 ct 
4959 -78 l  4952 -65 4944 -53 4935 -42 ct 4926 -32 4916 -23 4904 -15 ct 4893 -8 4880 -2 4865 2 ct 
4850 6 4833 8 4814 8 ct p
4829 -43 m  4851 -43 4870 -47 4886 -55 ct 4903 -63 4916 -73 4927 -85 ct 4938 -98 4946 -111 4951 -126 ct 
4956 -140 4959 -154 4959 -168 ct 4959 -201 l  4884 -201 l  4868 -201 4852 -200 4837 -198 ct 
4822 -196 4809 -191 4797 -185 ct 4786 -179 4777 -170 4770 -158 ct 4763 -147 4760 -132 4760 -113 ct 
4760 -91 4766 -74 4778 -62 ct 4790 -49 4807 -43 4829 -43 ct p ef
5290 -3 m  5280 0 5269 2 5258 4 ct 5248 5 5235 6 5221 6 ct 5166 6 5139 -25 5139 -87 ct 
5139 -361 l  5092 -361 l  5092 -411 l  5142 -411 l  5162 -503 l  5207 -503 l 
5207 -411 l  5283 -411 l  5283 -361 l  5207 -361 l  5207 -102 l  5207 -82 5211 -68 5217 -60 ct 
5223 -52 5235 -48 5251 -48 ct 5257 -48 5263 -49 5270 -50 ct 5276 -51 5283 -52 5290 -54 ct 
5290 -3 l  p ef
5344 -498 m  5344 -563 l  5412 -563 l  5412 -498 l  5344 -498 l  p
5344 0 m  5344 -410 l  5412 -410 l  5412 0 l  5344 0 l  p ef
5849 -205 m  5849 -133 5833 -80 5802 -45 ct 5770 -10 5724 8 5664 8 ct 5636 8 5610 4 5588 -5 ct 
5565 -13 5546 -27 5531 -44 ct 5515 -62 5503 -84 5495 -111 ct 5487 -138 5483 -169 5483 -205 ct 
5483 -347 5544 -417 5666 -417 ct 5698 -417 5726 -413 5749 -404 ct 5772 -395 5791 -382 5806 -364 ct 
5820 -347 5831 -325 5838 -298 ct 5845 -271 5849 -240 5849 -205 ct p
5777 -205 m  5777 -237 5775 -263 5770 -284 ct 5765 -305 5758 -321 5748 -334 ct 
5739 -346 5727 -355 5714 -360 ct 5700 -365 5685 -367 5668 -367 ct 5650 -367 5634 -364 5620 -359 ct 
5606 -354 5594 -345 5585 -333 ct 5575 -320 5567 -304 5562 -283 ct 5557 -262 5554 -236 5554 -205 ct 
5554 -173 5557 -147 5563 -126 ct 5568 -105 5576 -89 5585 -76 ct 5595 -64 5607 -55 5620 -50 ct 
5633 -45 5648 -42 5663 -42 ct 5681 -42 5697 -45 5711 -50 ct 5725 -55 5737 -63 5747 -76 ct 
5757 -88 5764 -105 5769 -126 ct 5775 -147 5777 -173 5777 -205 ct p ef
6187 0 m  6187 -260 l  6187 -280 6185 -297 6182 -310 ct 6179 -324 6175 -335 6168 -343 ct 
6161 -351 6153 -357 6142 -360 ct 6131 -364 6118 -365 6102 -365 ct 6086 -365 6071 -362 6058 -357 ct 
6045 -351 6034 -343 6025 -332 ct 6016 -321 6009 -308 6004 -292 ct 5999 -276 5996 -258 5996 -238 ct 
5996 0 l  5928 0 l  5928 -324 l  5928 -332 5928 -341 5928 -351 ct 5927 -360 5927 -369 5927 -378 ct 
5927 -386 5927 -394 5926 -400 ct 5926 -406 5926 -409 5926 -409 ct 5990 -409 l 
5990 -408 5990 -404 5991 -399 ct 5991 -393 5991 -387 5992 -380 ct 5992 -373 5992 -366 5993 -359 ct 
5993 -351 5993 -345 5993 -340 ct 5994 -340 l  6001 -352 6008 -363 6016 -372 ct 
6024 -382 6033 -390 6043 -397 ct 6053 -404 6065 -409 6079 -413 ct 6092 -416 6108 -418 6125 -418 ct 
6148 -418 6168 -415 6184 -410 ct 6200 -404 6214 -396 6224 -384 ct 6235 -372 6243 -357 6248 -339 ct 
6253 -321 6255 -299 6255 -274 ct 6255 0 l  6187 0 l  p ef
6657 -113 m  6657 -94 6653 -77 6646 -62 ct 6638 -47 6628 -34 6613 -24 ct 6599 -13 6582 -6 6561 0 ct 
6541 5 6517 8 6491 8 ct 6467 8 6445 6 6426 3 ct 6407 -1 6391 -7 6376 -15 ct 6362 -23 6350 -34 6340 -47 ct 
6330 -60 6323 -77 6319 -96 ct 6379 -108 l  6385 -86 6397 -70 6415 -59 ct 6433 -49 6458 -44 6491 -44 ct 
6505 -44 6519 -45 6531 -47 ct 6543 -49 6554 -53 6563 -57 ct 6571 -62 6578 -69 6583 -77 ct 
6588 -85 6591 -96 6591 -108 ct 6591 -120 6588 -130 6582 -138 ct 6576 -146 6568 -153 6558 -158 ct 
6547 -164 6535 -168 6520 -172 ct 6505 -176 6489 -180 6471 -185 ct 6455 -189 6439 -194 6422 -200 ct 
6406 -205 6392 -212 6379 -221 ct 6366 -229 6355 -240 6347 -253 ct 6339 -266 6335 -282 6335 -302 ct 
6335 -339 6348 -368 6375 -387 ct 6402 -407 6440 -417 6491 -417 ct 6537 -417 6573 -409 6599 -393 ct 
6626 -377 6643 -351 6650 -316 ct 6588 -308 l  6586 -319 6582 -328 6576 -335 ct 
6570 -342 6562 -348 6554 -353 ct 6545 -357 6536 -360 6525 -362 ct 6514 -364 6503 -365 6491 -365 ct 
6461 -365 6438 -360 6423 -351 ct 6409 -342 6401 -327 6401 -308 ct 6401 -297 6404 -288 6409 -281 ct 
6415 -274 6422 -268 6432 -263 ct 6442 -258 6453 -254 6467 -250 ct 6481 -246 6496 -242 6512 -238 ct 
6523 -235 6534 -233 6546 -229 ct 6557 -226 6568 -222 6579 -218 ct 6589 -214 6600 -208 6609 -202 ct 
6619 -196 6627 -189 6634 -181 ct 6641 -173 6647 -163 6651 -152 ct 6655 -141 6657 -128 6657 -113 ct 
p ef
pom
0 9000 t 
pom
count op_count sub {pop} repeat countdictstack dict_count sub {end} repeat b4_inc_state restore
%%PageTrailer
%%Trailer
%%EOF
