%!PS-Adobe-3.0 EPSF-3.0 
%%BoundingBox: 0 0 454 255
%%Pages: 0
%%Creator: LibreOffice 5.1
%%Title: none
%%CreationDate: none
%%LanguageLevel: 2
%%EndComments
%%BeginProlog
%%BeginResource: procset SDRes-Prolog 1.0 0
/b4_inc_state save def
/dict_count countdictstack def
/op_count count 1 sub def
userdict begin
0 setgray 0 setlinecap 1 setlinewidth 0 setlinejoin 10 setmiterlimit[] 0 setdash newpath
/languagelevel where {pop languagelevel 1 ne {false setstrokeadjust false setoverprint} if} if
/bdef {bind def} bind def
/c {setrgbcolor} bdef
/l {neg lineto} bdef
/rl {neg rlineto} bdef
/lc {setlinecap} bdef
/lj {setlinejoin} bdef
/lw {setlinewidth} bdef
/ml {setmiterlimit} bdef
/ld {setdash} bdef
/m {neg moveto} bdef
/ct {6 2 roll neg 6 2 roll neg 6 2 roll neg curveto} bdef
/r {rotate} bdef
/t {neg translate} bdef
/s {scale} bdef
/sw {show} bdef
/gs {gsave} bdef
/gr {grestore} bdef
/f {findfont dup length dict begin
{1 index /FID ne {def} {pop pop} ifelse} forall /Encoding ISOLatin1Encoding def
currentdict end /NFont exch definefont pop /NFont findfont} bdef
/p {closepath} bdef
/sf {scalefont setfont} bdef
/ef {eofill}bdef
/pc {closepath stroke}bdef
/ps {stroke}bdef
/pum {matrix currentmatrix}bdef
/pom {setmatrix}bdef
/bs {/aString exch def /nXOfs exch def /nWidth exch def currentpoint nXOfs 0 rmoveto pum nWidth aString stringwidth pop div 1 scale aString show pom moveto} bdef
%%EndResource
%%EndProlog
%%BeginSetup
%%EndSetup
%%Page: 1 1
%%BeginPageSetup
%%EndPageSetup
pum
0.02837 0.02833 s 
0 -9000 t
/tm matrix currentmatrix def
tm setmatrix
-300 -12800 t 
1 1 s 
1.000 1.000 1.000 c 8300 21799 m  300 21799 l  300 12800 l  16299 12800 l 
16299 21799 l  8300 21799 l  p ef
0 lw 1 lj 0.703 0.703 0.703 c 10524 18841 m  5070 18841 l  5070 14912 l 
15979 14912 l  15979 18841 l  10524 18841 l  pc
15979 18840 m  5070 18840 l  ps
15979 17857 m  5070 17857 l  ps
15979 16876 m  5070 16876 l  ps
15979 15893 m  5070 15893 l  ps
15979 14911 m  5070 14911 l  ps
5070 18990 m  5070 18840 l  ps
5070 18990 m  5070 18840 l  ps
7797 18990 m  7797 18840 l  ps
7797 18990 m  7797 18840 l  ps
10524 18990 m  10524 18840 l  ps
10524 18990 m  10524 18840 l  ps
13251 18990 m  13251 18840 l  ps
13251 18990 m  13251 18840 l  ps
15979 18990 m  15979 18840 l  ps
15979 18990 m  15979 18840 l  ps
5070 18840 m  15979 18840 l  ps
4920 18840 m  5070 18840 l  ps
4920 18840 m  5070 18840 l  ps
4920 17857 m  5070 17857 l  ps
4920 17857 m  5070 17857 l  ps
4920 16876 m  5070 16876 l  ps
4920 16876 m  5070 16876 l  ps
4920 15893 m  5070 15893 l  ps
4920 15893 m  5070 15893 l  ps
4920 14911 m  5070 14911 l  ps
4920 14911 m  5070 14911 l  ps
5070 18840 m  5070 14911 l  ps
gs
1 lw 0.003 0.003 0.003 c 13706 15329 m  13804 15231 l  ps
13706 15479 m  13954 15231 l  ps
13706 15629 m  14104 15231 l  ps
13706 15779 m  14254 15231 l  ps
13706 15929 m  14404 15231 l  ps
13706 16079 m  14554 15231 l  ps
13706 16229 m  14615 15320 l  ps
13706 16379 m  14615 15470 l  ps
13706 16529 m  14615 15620 l  ps
13706 16679 m  14615 15770 l  ps
13706 16829 m  14615 15920 l  ps
13706 16979 m  14615 16070 l  ps
13706 17129 m  14615 16220 l  ps
13706 17279 m  14615 16370 l  ps
13706 17429 m  14615 16520 l  ps
13706 17579 m  14615 16670 l  ps
13706 17729 m  14615 16820 l  ps
13706 17879 m  14615 16970 l  ps
13706 18029 m  14615 17120 l  ps
13706 18179 m  14615 17270 l  ps
13706 18329 m  14615 17420 l  ps
13706 18479 m  14615 17570 l  ps
13706 18629 m  14615 17720 l  ps
13706 18779 m  14615 17870 l  ps
13795 18840 m  14615 18020 l  ps
13945 18840 m  14615 18170 l  ps
14095 18840 m  14615 18320 l  ps
14245 18840 m  14615 18470 l  ps
14395 18840 m  14615 18620 l  ps
14545 18840 m  14615 18770 l  ps
gr
50.99681 lw 0.003 0.003 0.003 c 13706 18840 m  14615 18840 l  14615 15231 l 
13706 15231 l  13706 18840 l  pc
gs
1 lw 10978 15329 m  11076 15231 l  ps
10978 15479 m  11226 15231 l  ps
10978 15629 m  11376 15231 l  ps
10978 15779 m  11526 15231 l  ps
10978 15929 m  11676 15231 l  ps
10978 16079 m  11826 15231 l  ps
10978 16229 m  11887 15320 l  ps
10978 16379 m  11887 15470 l  ps
10978 16529 m  11887 15620 l  ps
10978 16679 m  11887 15770 l  ps
10978 16829 m  11887 15920 l  ps
10978 16979 m  11887 16070 l  ps
10978 17129 m  11887 16220 l  ps
10978 17279 m  11887 16370 l  ps
10978 17429 m  11887 16520 l  ps
10978 17579 m  11887 16670 l  ps
10978 17729 m  11887 16820 l  ps
10978 17879 m  11887 16970 l  ps
10978 18029 m  11887 17120 l  ps
10978 18179 m  11887 17270 l  ps
10978 18329 m  11887 17420 l  ps
10978 18479 m  11887 17570 l  ps
10978 18629 m  11887 17720 l  ps
10978 18779 m  11887 17870 l  ps
11067 18840 m  11887 18020 l  ps
11217 18840 m  11887 18170 l  ps
11367 18840 m  11887 18320 l  ps
11517 18840 m  11887 18470 l  ps
11667 18840 m  11887 18620 l  ps
11817 18840 m  11887 18770 l  ps
gr
10978 18840 m  11887 18840 l  11887 15231 l  10978 15231 l  10978 18840 l 
pc
gs
1 lw 8252 15329 m  8350 15231 l  ps
8252 15479 m  8500 15231 l  ps
8252 15629 m  8650 15231 l  ps
8252 15779 m  8800 15231 l  ps
8252 15929 m  8950 15231 l  ps
8252 16079 m  9100 15231 l  ps
8252 16229 m  9160 15321 l  ps
8252 16379 m  9160 15471 l  ps
8252 16529 m  9160 15621 l  ps
8252 16679 m  9160 15771 l  ps
8252 16829 m  9160 15921 l  ps
8252 16979 m  9160 16071 l  ps
8252 17129 m  9160 16221 l  ps
8252 17279 m  9160 16371 l  ps
8252 17429 m  9160 16521 l  ps
8252 17579 m  9160 16671 l  ps
8252 17729 m  9160 16821 l  ps
8252 17879 m  9160 16971 l  ps
8252 18029 m  9160 17121 l  ps
8252 18179 m  9160 17271 l  ps
8252 18329 m  9160 17421 l  ps
8252 18479 m  9160 17571 l  ps
8252 18629 m  9160 17721 l  ps
8252 18779 m  9160 17871 l  ps
8341 18840 m  9160 18021 l  ps
8491 18840 m  9160 18171 l  ps
8641 18840 m  9160 18321 l  ps
8791 18840 m  9160 18471 l  ps
8941 18840 m  9160 18621 l  ps
9091 18840 m  9160 18771 l  ps
gr
8252 18840 m  9160 18840 l  9160 15231 l  8252 15231 l  8252 18840 l  pc
gs
1 lw 5524 15303 m  5622 15205 l  ps
5524 15453 m  5772 15205 l  ps
5524 15603 m  5922 15205 l  ps
5524 15753 m  6072 15205 l  ps
5524 15903 m  6222 15205 l  ps
5524 16053 m  6372 15205 l  ps
5524 16203 m  6433 15294 l  ps
5524 16353 m  6433 15444 l  ps
5524 16503 m  6433 15594 l  ps
5524 16653 m  6433 15744 l  ps
5524 16803 m  6433 15894 l  ps
5524 16953 m  6433 16044 l  ps
5524 17103 m  6433 16194 l  ps
5524 17253 m  6433 16344 l  ps
5524 17403 m  6433 16494 l  ps
5524 17553 m  6433 16644 l  ps
5524 17703 m  6433 16794 l  ps
5524 17853 m  6433 16944 l  ps
5524 18003 m  6433 17094 l  ps
5524 18153 m  6433 17244 l  ps
5524 18303 m  6433 17394 l  ps
5524 18453 m  6433 17544 l  ps
5524 18603 m  6433 17694 l  ps
5524 18753 m  6433 17844 l  ps
5587 18840 m  6433 17994 l  ps
5737 18840 m  6433 18144 l  ps
5887 18840 m  6433 18294 l  ps
6037 18840 m  6433 18444 l  ps
6187 18840 m  6433 18594 l  ps
6337 18840 m  6433 18744 l  ps
gr
5524 18840 m  6433 18840 l  6433 15205 l  5524 15205 l  5524 18840 l  pc
gs
1 lw 14615 18838 m  15274 18179 l  ps
15324 18840 m  15524 18640 l  ps
gr
14615 18840 m  15524 18840 l  15524 18179 l  14615 18179 l  14615 18840 l 
pc
gs
1 lw 11887 17656 m  12546 16997 l  ps
11887 18367 m  12796 17458 l  ps
12125 18840 m  12796 18169 l  ps
gr
11887 18840 m  12796 18840 l  12796 16997 l  11887 16997 l  11887 18840 l 
pc
gs
1 lw 9160 16556 m  9819 15897 l  ps
9160 17267 m  10069 16358 l  ps
9160 17978 m  10069 17069 l  ps
9160 18689 m  10069 17780 l  ps
9720 18840 m  10069 18491 l  ps
gr
9160 18840 m  10069 18840 l  10069 15897 l  9160 15897 l  9160 18840 l 
pc
gs
1 lw 6433 15907 m  7092 15248 l  ps
6433 16618 m  7342 15709 l  ps
6433 17329 m  7342 16420 l  ps
6433 18040 m  7342 17131 l  ps
6433 18751 m  7342 17842 l  ps
7055 18840 m  7342 18553 l  ps
gr
6433 18840 m  7342 18840 l  7342 15248 l  6433 15248 l  6433 18840 l  pc
pum
5732 19725 t
365 -243 m  365 -196 361 -157 352 -125 ct 343 -93 331 -68 316 -48 ct 300 -28 282 -14 262 -6 ct 
241 3 219 7 195 7 ct 172 7 150 3 129 -6 ct 109 -14 91 -28 76 -48 ct 61 -67 49 -93 41 -125 ct 
32 -157 28 -196 28 -243 ct 28 -292 32 -332 41 -365 ct 49 -397 61 -422 76 -441 ct 
91 -460 109 -474 130 -481 ct 151 -489 173 -493 198 -493 ct 221 -493 243 -489 263 -481 ct 
283 -474 301 -460 316 -441 ct 331 -422 343 -397 352 -365 ct 361 -332 365 -292 365 -243 ct 
p
302 -243 m  302 -282 300 -314 295 -339 ct 290 -365 284 -385 275 -401 ct 266 -416 255 -427 242 -433 ct 
229 -440 214 -443 198 -443 ct 180 -443 165 -439 151 -433 ct 138 -427 127 -416 118 -400 ct 
109 -385 102 -365 97 -339 ct 93 -313 90 -281 90 -243 ct 90 -206 93 -174 97 -149 ct 
102 -123 109 -103 118 -87 ct 127 -72 138 -61 151 -54 ct 164 -47 179 -44 196 -44 ct 
212 -44 227 -47 240 -54 ct 253 -61 264 -72 274 -87 ct 283 -103 290 -123 295 -149 ct 
300 -174 302 -206 302 -243 ct p ef
461 0 m  461 -76 l  529 -76 l  529 0 l  461 0 l  p ef
974 -243 m  974 -196 970 -157 961 -125 ct 952 -93 940 -68 925 -48 ct 909 -28 891 -14 871 -6 ct 
850 3 828 7 804 7 ct 781 7 759 3 738 -6 ct 718 -14 700 -28 685 -48 ct 670 -67 658 -93 650 -125 ct 
641 -157 637 -196 637 -243 ct 637 -292 641 -332 650 -365 ct 658 -397 670 -422 685 -441 ct 
700 -460 718 -474 739 -481 ct 760 -489 782 -493 807 -493 ct 830 -493 852 -489 872 -481 ct 
892 -474 910 -460 925 -441 ct 940 -422 952 -397 961 -365 ct 970 -332 974 -292 974 -243 ct 
p
911 -243 m  911 -282 909 -314 904 -339 ct 899 -365 893 -385 884 -401 ct 875 -416 864 -427 851 -433 ct 
838 -440 823 -443 807 -443 ct 789 -443 774 -439 760 -433 ct 747 -427 736 -416 727 -400 ct 
718 -385 711 -365 706 -339 ct 702 -313 699 -281 699 -243 ct 699 -206 702 -174 706 -149 ct 
711 -123 718 -103 727 -87 ct 736 -72 747 -61 760 -54 ct 773 -47 788 -44 805 -44 ct 
821 -44 836 -47 849 -54 ct 862 -61 873 -72 883 -87 ct 892 -103 899 -123 904 -149 ct 
909 -174 911 -206 911 -243 ct p ef
1368 -158 m  1368 -134 1364 -112 1357 -91 ct 1350 -71 1339 -54 1324 -39 ct 1310 -24 1292 -13 1270 -5 ct 
1249 3 1224 7 1196 7 ct 1170 7 1148 4 1129 -2 ct 1110 -8 1094 -16 1081 -27 ct 1068 -37 1057 -49 1050 -63 ct 
1042 -77 1036 -92 1033 -109 ct 1096 -116 l  1099 -107 1102 -98 1107 -89 ct 1111 -80 1118 -73 1125 -66 ct 
1133 -59 1143 -54 1155 -50 ct 1166 -46 1180 -44 1197 -44 ct 1213 -44 1228 -46 1241 -51 ct 
1254 -56 1265 -63 1274 -73 ct 1284 -83 1291 -95 1296 -109 ct 1301 -123 1304 -139 1304 -157 ct 
1304 -172 1301 -186 1296 -198 ct 1291 -211 1285 -221 1276 -231 ct 1267 -240 1256 -247 1243 -252 ct 
1230 -257 1215 -259 1198 -259 ct 1188 -259 1179 -258 1170 -257 ct 1161 -255 1153 -252 1145 -249 ct 
1138 -246 1131 -242 1125 -238 ct 1119 -233 1113 -229 1108 -224 ct 1047 -224 l 
1064 -486 l  1340 -486 l  1340 -433 l  1120 -433 l  1111 -279 l  1122 -287 1136 -295 1152 -301 ct 
1169 -307 1188 -310 1211 -310 ct 1235 -310 1257 -306 1276 -299 ct 1296 -292 1312 -281 1326 -268 ct 
1339 -254 1350 -238 1357 -220 ct 1364 -201 1368 -181 1368 -158 ct p ef
pom
pum
8658 19725 t
365 -243 m  365 -196 361 -157 352 -125 ct 343 -93 331 -68 316 -48 ct 300 -28 282 -14 262 -6 ct 
241 3 219 7 195 7 ct 172 7 150 3 129 -6 ct 109 -14 91 -28 76 -48 ct 61 -67 49 -93 41 -125 ct 
32 -157 28 -196 28 -243 ct 28 -292 32 -332 41 -365 ct 49 -397 61 -422 76 -441 ct 
91 -460 109 -474 130 -481 ct 151 -489 173 -493 198 -493 ct 221 -493 243 -489 263 -481 ct 
283 -474 301 -460 316 -441 ct 331 -422 343 -397 352 -365 ct 361 -332 365 -292 365 -243 ct 
p
302 -243 m  302 -282 300 -314 295 -339 ct 290 -365 284 -385 275 -401 ct 266 -416 255 -427 242 -433 ct 
229 -440 214 -443 198 -443 ct 180 -443 165 -439 151 -433 ct 138 -427 127 -416 118 -400 ct 
109 -385 102 -365 97 -339 ct 93 -313 90 -281 90 -243 ct 90 -206 93 -174 97 -149 ct 
102 -123 109 -103 118 -87 ct 127 -72 138 -61 151 -54 ct 164 -47 179 -44 196 -44 ct 
212 -44 227 -47 240 -54 ct 253 -61 264 -72 274 -87 ct 283 -103 290 -123 295 -149 ct 
300 -174 302 -206 302 -243 ct p ef
461 0 m  461 -76 l  529 -76 l  529 0 l  461 0 l  p ef
663 0 m  663 -53 l  787 -53 l  787 -427 l  677 -348 l  677 -407 l  792 -486 l 
849 -486 l  849 -53 l  967 -53 l  967 0 l  663 0 l  p ef
pom
pum
11187 19725 t
365 -243 m  365 -196 361 -157 352 -125 ct 343 -93 331 -68 316 -48 ct 300 -28 282 -14 262 -6 ct 
241 3 219 7 195 7 ct 172 7 150 3 129 -6 ct 109 -14 91 -28 76 -48 ct 61 -67 49 -93 41 -125 ct 
32 -157 28 -196 28 -243 ct 28 -292 32 -332 41 -365 ct 49 -397 61 -422 76 -441 ct 
91 -460 109 -474 130 -481 ct 151 -489 173 -493 198 -493 ct 221 -493 243 -489 263 -481 ct 
283 -474 301 -460 316 -441 ct 331 -422 343 -397 352 -365 ct 361 -332 365 -292 365 -243 ct 
p
302 -243 m  302 -282 300 -314 295 -339 ct 290 -365 284 -385 275 -401 ct 266 -416 255 -427 242 -433 ct 
229 -440 214 -443 198 -443 ct 180 -443 165 -439 151 -433 ct 138 -427 127 -416 118 -400 ct 
109 -385 102 -365 97 -339 ct 93 -313 90 -281 90 -243 ct 90 -206 93 -174 97 -149 ct 
102 -123 109 -103 118 -87 ct 127 -72 138 -61 151 -54 ct 164 -47 179 -44 196 -44 ct 
212 -44 227 -47 240 -54 ct 253 -61 264 -72 274 -87 ct 283 -103 290 -123 295 -149 ct 
300 -174 302 -206 302 -243 ct p ef
461 0 m  461 -76 l  529 -76 l  529 0 l  461 0 l  p ef
663 0 m  663 -53 l  787 -53 l  787 -427 l  677 -348 l  677 -407 l  792 -486 l 
849 -486 l  849 -53 l  967 -53 l  967 0 l  663 0 l  p ef
1368 -158 m  1368 -134 1364 -112 1357 -91 ct 1350 -71 1339 -54 1324 -39 ct 1310 -24 1292 -13 1270 -5 ct 
1249 3 1224 7 1196 7 ct 1170 7 1148 4 1129 -2 ct 1110 -8 1094 -16 1081 -27 ct 1068 -37 1057 -49 1050 -63 ct 
1042 -77 1036 -92 1033 -109 ct 1096 -116 l  1099 -107 1102 -98 1107 -89 ct 1111 -80 1118 -73 1125 -66 ct 
1133 -59 1143 -54 1155 -50 ct 1166 -46 1180 -44 1197 -44 ct 1213 -44 1228 -46 1241 -51 ct 
1254 -56 1265 -63 1274 -73 ct 1284 -83 1291 -95 1296 -109 ct 1301 -123 1304 -139 1304 -157 ct 
1304 -172 1301 -186 1296 -198 ct 1291 -211 1285 -221 1276 -231 ct 1267 -240 1256 -247 1243 -252 ct 
1230 -257 1215 -259 1198 -259 ct 1188 -259 1179 -258 1170 -257 ct 1161 -255 1153 -252 1145 -249 ct 
1138 -246 1131 -242 1125 -238 ct 1119 -233 1113 -229 1108 -224 ct 1047 -224 l 
1064 -486 l  1340 -486 l  1340 -433 l  1120 -433 l  1111 -279 l  1122 -287 1136 -295 1152 -301 ct 
1169 -307 1188 -310 1211 -310 ct 1235 -310 1257 -306 1276 -299 ct 1296 -292 1312 -281 1326 -268 ct 
1339 -254 1350 -238 1357 -220 ct 1364 -201 1368 -181 1368 -158 ct p ef
pom
pum
14113 19725 t
365 -243 m  365 -196 361 -157 352 -125 ct 343 -93 331 -68 316 -48 ct 300 -28 282 -14 262 -6 ct 
241 3 219 7 195 7 ct 172 7 150 3 129 -6 ct 109 -14 91 -28 76 -48 ct 61 -67 49 -93 41 -125 ct 
32 -157 28 -196 28 -243 ct 28 -292 32 -332 41 -365 ct 49 -397 61 -422 76 -441 ct 
91 -460 109 -474 130 -481 ct 151 -489 173 -493 198 -493 ct 221 -493 243 -489 263 -481 ct 
283 -474 301 -460 316 -441 ct 331 -422 343 -397 352 -365 ct 361 -332 365 -292 365 -243 ct 
p
302 -243 m  302 -282 300 -314 295 -339 ct 290 -365 284 -385 275 -401 ct 266 -416 255 -427 242 -433 ct 
229 -440 214 -443 198 -443 ct 180 -443 165 -439 151 -433 ct 138 -427 127 -416 118 -400 ct 
109 -385 102 -365 97 -339 ct 93 -313 90 -281 90 -243 ct 90 -206 93 -174 97 -149 ct 
102 -123 109 -103 118 -87 ct 127 -72 138 -61 151 -54 ct 164 -47 179 -44 196 -44 ct 
212 -44 227 -47 240 -54 ct 253 -61 264 -72 274 -87 ct 283 -103 290 -123 295 -149 ct 
300 -174 302 -206 302 -243 ct p ef
461 0 m  461 -76 l  529 -76 l  529 0 l  461 0 l  p ef
645 0 m  645 -44 l  656 -71 671 -94 687 -115 ct 704 -136 722 -154 741 -171 ct 
759 -188 778 -203 796 -217 ct 814 -231 831 -246 845 -260 ct 860 -274 872 -289 881 -305 ct 
890 -320 895 -338 895 -358 ct 895 -372 893 -384 889 -394 ct 884 -405 878 -414 871 -421 ct 
863 -428 853 -433 843 -437 ct 832 -440 820 -442 806 -442 ct 794 -442 782 -440 771 -437 ct 
760 -433 751 -428 742 -421 ct 734 -414 727 -406 721 -396 ct 716 -385 712 -374 711 -360 ct 
647 -366 l  649 -383 654 -400 662 -415 ct 669 -431 680 -444 693 -456 ct 706 -467 722 -476 741 -483 ct 
760 -490 782 -493 806 -493 ct 830 -493 852 -490 871 -484 ct 890 -479 905 -470 918 -459 ct 
931 -448 941 -434 948 -417 ct 955 -401 959 -382 959 -360 ct 959 -344 956 -328 950 -313 ct 
944 -299 936 -285 926 -271 ct 917 -258 905 -245 892 -233 ct 880 -220 866 -208 852 -196 ct 
838 -185 824 -173 810 -161 ct 795 -150 782 -138 769 -126 ct 757 -114 746 -103 736 -91 ct 
726 -78 718 -66 713 -53 ct 966 -53 l  966 0 l  645 0 l  p ef
pom
pum
4423 19079 t
365 -243 m  365 -196 361 -157 352 -125 ct 343 -93 331 -68 316 -48 ct 300 -28 282 -14 262 -6 ct 
241 3 219 7 195 7 ct 172 7 150 3 129 -6 ct 109 -14 91 -28 76 -48 ct 61 -67 49 -93 41 -125 ct 
32 -157 28 -196 28 -243 ct 28 -292 32 -332 41 -365 ct 49 -397 61 -422 76 -441 ct 
91 -460 109 -474 130 -481 ct 151 -489 173 -493 198 -493 ct 221 -493 243 -489 263 -481 ct 
283 -474 301 -460 316 -441 ct 331 -422 343 -397 352 -365 ct 361 -332 365 -292 365 -243 ct 
p
302 -243 m  302 -282 300 -314 295 -339 ct 290 -365 284 -385 275 -401 ct 266 -416 255 -427 242 -433 ct 
229 -440 214 -443 198 -443 ct 180 -443 165 -439 151 -433 ct 138 -427 127 -416 118 -400 ct 
109 -385 102 -365 97 -339 ct 93 -313 90 -281 90 -243 ct 90 -206 93 -174 97 -149 ct 
102 -123 109 -103 118 -87 ct 127 -72 138 -61 151 -54 ct 164 -47 179 -44 196 -44 ct 
212 -44 227 -47 240 -54 ct 253 -61 264 -72 274 -87 ct 283 -103 290 -123 295 -149 ct 
300 -174 302 -206 302 -243 ct p ef
pom
pum
3629 18096 t
363 -158 m  363 -134 359 -112 352 -91 ct 345 -71 334 -54 319 -39 ct 305 -24 287 -13 265 -5 ct 
244 3 219 7 191 7 ct 165 7 143 4 124 -2 ct 105 -8 89 -16 76 -27 ct 63 -37 52 -49 45 -63 ct 
37 -77 31 -92 28 -109 ct 91 -116 l  94 -107 97 -98 102 -89 ct 106 -80 113 -73 120 -66 ct 
128 -59 138 -54 150 -50 ct 161 -46 175 -44 192 -44 ct 208 -44 223 -46 236 -51 ct 
249 -56 260 -63 269 -73 ct 279 -83 286 -95 291 -109 ct 296 -123 299 -139 299 -157 ct 
299 -172 296 -186 291 -198 ct 286 -211 280 -221 271 -231 ct 262 -240 251 -247 238 -252 ct 
225 -257 210 -259 193 -259 ct 183 -259 174 -258 165 -257 ct 156 -255 148 -252 140 -249 ct 
133 -246 126 -242 120 -238 ct 114 -233 108 -229 103 -224 ct 42 -224 l  59 -486 l 
335 -486 l  335 -433 l  115 -433 l  106 -279 l  117 -287 131 -295 147 -301 ct 
164 -307 183 -310 206 -310 ct 230 -310 252 -306 271 -299 ct 291 -292 307 -281 321 -268 ct 
334 -254 345 -238 352 -220 ct 359 -201 363 -181 363 -158 ct p ef
762 -243 m  762 -196 758 -157 749 -125 ct 740 -93 728 -68 713 -48 ct 697 -28 679 -14 659 -6 ct 
638 3 616 7 592 7 ct 569 7 547 3 526 -6 ct 506 -14 488 -28 473 -48 ct 458 -67 446 -93 438 -125 ct 
429 -157 425 -196 425 -243 ct 425 -292 429 -332 438 -365 ct 446 -397 458 -422 473 -441 ct 
488 -460 506 -474 527 -481 ct 548 -489 570 -493 595 -493 ct 618 -493 640 -489 660 -481 ct 
680 -474 698 -460 713 -441 ct 728 -422 740 -397 749 -365 ct 758 -332 762 -292 762 -243 ct 
p
699 -243 m  699 -282 697 -314 692 -339 ct 687 -365 681 -385 672 -401 ct 663 -416 652 -427 639 -433 ct 
626 -440 611 -443 595 -443 ct 577 -443 562 -439 548 -433 ct 535 -427 524 -416 515 -400 ct 
506 -385 499 -365 494 -339 ct 490 -313 487 -281 487 -243 ct 487 -206 490 -174 494 -149 ct 
499 -123 506 -103 515 -87 ct 524 -72 535 -61 548 -54 ct 561 -47 576 -44 593 -44 ct 
609 -44 624 -47 637 -54 ct 650 -61 661 -72 671 -87 ct 680 -103 687 -123 692 -149 ct 
697 -174 699 -206 699 -243 ct p ef
1159 -243 m  1159 -196 1155 -157 1146 -125 ct 1137 -93 1125 -68 1110 -48 ct 
1094 -28 1076 -14 1056 -6 ct 1035 3 1013 7 989 7 ct 966 7 944 3 923 -6 ct 903 -14 885 -28 870 -48 ct 
855 -67 843 -93 835 -125 ct 826 -157 822 -196 822 -243 ct 822 -292 826 -332 835 -365 ct 
843 -397 855 -422 870 -441 ct 885 -460 903 -474 924 -481 ct 945 -489 967 -493 992 -493 ct 
1015 -493 1037 -489 1057 -481 ct 1077 -474 1095 -460 1110 -441 ct 1125 -422 1137 -397 1146 -365 ct 
1155 -332 1159 -292 1159 -243 ct p
1096 -243 m  1096 -282 1094 -314 1089 -339 ct 1084 -365 1078 -385 1069 -401 ct 
1060 -416 1049 -427 1036 -433 ct 1023 -440 1008 -443 992 -443 ct 974 -443 959 -439 945 -433 ct 
932 -427 921 -416 912 -400 ct 903 -385 896 -365 891 -339 ct 887 -313 884 -281 884 -243 ct 
884 -206 887 -174 891 -149 ct 896 -123 903 -103 912 -87 ct 921 -72 932 -61 945 -54 ct 
958 -47 973 -44 990 -44 ct 1006 -44 1021 -47 1034 -54 ct 1047 -61 1058 -72 1068 -87 ct 
1077 -103 1084 -123 1089 -149 ct 1094 -174 1096 -206 1096 -243 ct p ef
pom
pum
3232 17114 t
54 0 m  54 -53 l  178 -53 l  178 -427 l  68 -348 l  68 -407 l  183 -486 l 
240 -486 l  240 -53 l  358 -53 l  358 0 l  54 0 l  p ef
762 -243 m  762 -196 758 -157 749 -125 ct 740 -93 728 -68 713 -48 ct 697 -28 679 -14 659 -6 ct 
638 3 616 7 592 7 ct 569 7 547 3 526 -6 ct 506 -14 488 -28 473 -48 ct 458 -67 446 -93 438 -125 ct 
429 -157 425 -196 425 -243 ct 425 -292 429 -332 438 -365 ct 446 -397 458 -422 473 -441 ct 
488 -460 506 -474 527 -481 ct 548 -489 570 -493 595 -493 ct 618 -493 640 -489 660 -481 ct 
680 -474 698 -460 713 -441 ct 728 -422 740 -397 749 -365 ct 758 -332 762 -292 762 -243 ct 
p
699 -243 m  699 -282 697 -314 692 -339 ct 687 -365 681 -385 672 -401 ct 663 -416 652 -427 639 -433 ct 
626 -440 611 -443 595 -443 ct 577 -443 562 -439 548 -433 ct 535 -427 524 -416 515 -400 ct 
506 -385 499 -365 494 -339 ct 490 -313 487 -281 487 -243 ct 487 -206 490 -174 494 -149 ct 
499 -123 506 -103 515 -87 ct 524 -72 535 -61 548 -54 ct 561 -47 576 -44 593 -44 ct 
609 -44 624 -47 637 -54 ct 650 -61 661 -72 671 -87 ct 680 -103 687 -123 692 -149 ct 
697 -174 699 -206 699 -243 ct p ef
1159 -243 m  1159 -196 1155 -157 1146 -125 ct 1137 -93 1125 -68 1110 -48 ct 
1094 -28 1076 -14 1056 -6 ct 1035 3 1013 7 989 7 ct 966 7 944 3 923 -6 ct 903 -14 885 -28 870 -48 ct 
855 -67 843 -93 835 -125 ct 826 -157 822 -196 822 -243 ct 822 -292 826 -332 835 -365 ct 
843 -397 855 -422 870 -441 ct 885 -460 903 -474 924 -481 ct 945 -489 967 -493 992 -493 ct 
1015 -493 1037 -489 1057 -481 ct 1077 -474 1095 -460 1110 -441 ct 1125 -422 1137 -397 1146 -365 ct 
1155 -332 1159 -292 1159 -243 ct p
1096 -243 m  1096 -282 1094 -314 1089 -339 ct 1084 -365 1078 -385 1069 -401 ct 
1060 -416 1049 -427 1036 -433 ct 1023 -440 1008 -443 992 -443 ct 974 -443 959 -439 945 -433 ct 
932 -427 921 -416 912 -400 ct 903 -385 896 -365 891 -339 ct 887 -313 884 -281 884 -243 ct 
884 -206 887 -174 891 -149 ct 896 -123 903 -103 912 -87 ct 921 -72 932 -61 945 -54 ct 
958 -47 973 -44 990 -44 ct 1006 -44 1021 -47 1034 -54 ct 1047 -61 1058 -72 1068 -87 ct 
1077 -103 1084 -123 1089 -149 ct 1094 -174 1096 -206 1096 -243 ct p ef
1556 -243 m  1556 -196 1552 -157 1543 -125 ct 1534 -93 1522 -68 1507 -48 ct 
1491 -28 1473 -14 1453 -6 ct 1432 3 1410 7 1386 7 ct 1363 7 1341 3 1320 -6 ct 1300 -14 1282 -28 1267 -48 ct 
1252 -67 1240 -93 1232 -125 ct 1223 -157 1219 -196 1219 -243 ct 1219 -292 1223 -332 1232 -365 ct 
1240 -397 1252 -422 1267 -441 ct 1282 -460 1300 -474 1321 -481 ct 1342 -489 1364 -493 1389 -493 ct 
1412 -493 1434 -489 1454 -481 ct 1474 -474 1492 -460 1507 -441 ct 1522 -422 1534 -397 1543 -365 ct 
1552 -332 1556 -292 1556 -243 ct p
1493 -243 m  1493 -282 1491 -314 1486 -339 ct 1481 -365 1475 -385 1466 -401 ct 
1457 -416 1446 -427 1433 -433 ct 1420 -440 1405 -443 1389 -443 ct 1371 -443 1356 -439 1342 -433 ct 
1329 -427 1318 -416 1309 -400 ct 1300 -385 1293 -365 1288 -339 ct 1284 -313 1281 -281 1281 -243 ct 
1281 -206 1284 -174 1288 -149 ct 1293 -123 1300 -103 1309 -87 ct 1318 -72 1329 -61 1342 -54 ct 
1355 -47 1370 -44 1387 -44 ct 1403 -44 1418 -47 1431 -54 ct 1444 -61 1455 -72 1465 -87 ct 
1474 -103 1481 -123 1486 -149 ct 1491 -174 1493 -206 1493 -243 ct p ef
pom
pum
3232 16131 t
54 0 m  54 -53 l  178 -53 l  178 -427 l  68 -348 l  68 -407 l  183 -486 l 
240 -486 l  240 -53 l  358 -53 l  358 0 l  54 0 l  p ef
760 -158 m  760 -134 756 -112 749 -91 ct 742 -71 731 -54 716 -39 ct 702 -24 684 -13 662 -5 ct 
641 3 616 7 588 7 ct 562 7 540 4 521 -2 ct 502 -8 486 -16 473 -27 ct 460 -37 449 -49 442 -63 ct 
434 -77 428 -92 425 -109 ct 488 -116 l  491 -107 494 -98 499 -89 ct 503 -80 510 -73 517 -66 ct 
525 -59 535 -54 547 -50 ct 558 -46 572 -44 589 -44 ct 605 -44 620 -46 633 -51 ct 
646 -56 657 -63 666 -73 ct 676 -83 683 -95 688 -109 ct 693 -123 696 -139 696 -157 ct 
696 -172 693 -186 688 -198 ct 683 -211 677 -221 668 -231 ct 659 -240 648 -247 635 -252 ct 
622 -257 607 -259 590 -259 ct 580 -259 571 -258 562 -257 ct 553 -255 545 -252 537 -249 ct 
530 -246 523 -242 517 -238 ct 511 -233 505 -229 500 -224 ct 439 -224 l  456 -486 l 
732 -486 l  732 -433 l  512 -433 l  503 -279 l  514 -287 528 -295 544 -301 ct 
561 -307 580 -310 603 -310 ct 627 -310 649 -306 668 -299 ct 688 -292 704 -281 718 -268 ct 
731 -254 742 -238 749 -220 ct 756 -201 760 -181 760 -158 ct p ef
1159 -243 m  1159 -196 1155 -157 1146 -125 ct 1137 -93 1125 -68 1110 -48 ct 
1094 -28 1076 -14 1056 -6 ct 1035 3 1013 7 989 7 ct 966 7 944 3 923 -6 ct 903 -14 885 -28 870 -48 ct 
855 -67 843 -93 835 -125 ct 826 -157 822 -196 822 -243 ct 822 -292 826 -332 835 -365 ct 
843 -397 855 -422 870 -441 ct 885 -460 903 -474 924 -481 ct 945 -489 967 -493 992 -493 ct 
1015 -493 1037 -489 1057 -481 ct 1077 -474 1095 -460 1110 -441 ct 1125 -422 1137 -397 1146 -365 ct 
1155 -332 1159 -292 1159 -243 ct p
1096 -243 m  1096 -282 1094 -314 1089 -339 ct 1084 -365 1078 -385 1069 -401 ct 
1060 -416 1049 -427 1036 -433 ct 1023 -440 1008 -443 992 -443 ct 974 -443 959 -439 945 -433 ct 
932 -427 921 -416 912 -400 ct 903 -385 896 -365 891 -339 ct 887 -313 884 -281 884 -243 ct 
884 -206 887 -174 891 -149 ct 896 -123 903 -103 912 -87 ct 921 -72 932 -61 945 -54 ct 
958 -47 973 -44 990 -44 ct 1006 -44 1021 -47 1034 -54 ct 1047 -61 1058 -72 1068 -87 ct 
1077 -103 1084 -123 1089 -149 ct 1094 -174 1096 -206 1096 -243 ct p ef
1556 -243 m  1556 -196 1552 -157 1543 -125 ct 1534 -93 1522 -68 1507 -48 ct 
1491 -28 1473 -14 1453 -6 ct 1432 3 1410 7 1386 7 ct 1363 7 1341 3 1320 -6 ct 1300 -14 1282 -28 1267 -48 ct 
1252 -67 1240 -93 1232 -125 ct 1223 -157 1219 -196 1219 -243 ct 1219 -292 1223 -332 1232 -365 ct 
1240 -397 1252 -422 1267 -441 ct 1282 -460 1300 -474 1321 -481 ct 1342 -489 1364 -493 1389 -493 ct 
1412 -493 1434 -489 1454 -481 ct 1474 -474 1492 -460 1507 -441 ct 1522 -422 1534 -397 1543 -365 ct 
1552 -332 1556 -292 1556 -243 ct p
1493 -243 m  1493 -282 1491 -314 1486 -339 ct 1481 -365 1475 -385 1466 -401 ct 
1457 -416 1446 -427 1433 -433 ct 1420 -440 1405 -443 1389 -443 ct 1371 -443 1356 -439 1342 -433 ct 
1329 -427 1318 -416 1309 -400 ct 1300 -385 1293 -365 1288 -339 ct 1284 -313 1281 -281 1281 -243 ct 
1281 -206 1284 -174 1288 -149 ct 1293 -123 1300 -103 1309 -87 ct 1318 -72 1329 -61 1342 -54 ct 
1355 -47 1370 -44 1387 -44 ct 1403 -44 1418 -47 1431 -54 ct 1444 -61 1455 -72 1465 -87 ct 
1474 -103 1481 -123 1486 -149 ct 1491 -174 1493 -206 1493 -243 ct p ef
pom
pum
3232 15149 t
36 0 m  36 -44 l  47 -71 62 -94 78 -115 ct 95 -136 113 -154 132 -171 ct 150 -188 169 -203 187 -217 ct 
205 -231 222 -246 236 -260 ct 251 -274 263 -289 272 -305 ct 281 -320 286 -338 286 -358 ct 
286 -372 284 -384 280 -394 ct 275 -405 269 -414 262 -421 ct 254 -428 244 -433 234 -437 ct 
223 -440 211 -442 197 -442 ct 185 -442 173 -440 162 -437 ct 151 -433 142 -428 133 -421 ct 
125 -414 118 -406 112 -396 ct 107 -385 103 -374 102 -360 ct 38 -366 l  40 -383 45 -400 53 -415 ct 
60 -431 71 -444 84 -456 ct 97 -467 113 -476 132 -483 ct 151 -490 173 -493 197 -493 ct 
221 -493 243 -490 262 -484 ct 281 -479 296 -470 309 -459 ct 322 -448 332 -434 339 -417 ct 
346 -401 350 -382 350 -360 ct 350 -344 347 -328 341 -313 ct 335 -299 327 -285 317 -271 ct 
308 -258 296 -245 283 -233 ct 271 -220 257 -208 243 -196 ct 229 -185 215 -173 201 -161 ct 
186 -150 173 -138 160 -126 ct 148 -114 137 -103 127 -91 ct 117 -78 109 -66 104 -53 ct 
357 -53 l  357 0 l  36 0 l  p ef
762 -243 m  762 -196 758 -157 749 -125 ct 740 -93 728 -68 713 -48 ct 697 -28 679 -14 659 -6 ct 
638 3 616 7 592 7 ct 569 7 547 3 526 -6 ct 506 -14 488 -28 473 -48 ct 458 -67 446 -93 438 -125 ct 
429 -157 425 -196 425 -243 ct 425 -292 429 -332 438 -365 ct 446 -397 458 -422 473 -441 ct 
488 -460 506 -474 527 -481 ct 548 -489 570 -493 595 -493 ct 618 -493 640 -489 660 -481 ct 
680 -474 698 -460 713 -441 ct 728 -422 740 -397 749 -365 ct 758 -332 762 -292 762 -243 ct 
p
699 -243 m  699 -282 697 -314 692 -339 ct 687 -365 681 -385 672 -401 ct 663 -416 652 -427 639 -433 ct 
626 -440 611 -443 595 -443 ct 577 -443 562 -439 548 -433 ct 535 -427 524 -416 515 -400 ct 
506 -385 499 -365 494 -339 ct 490 -313 487 -281 487 -243 ct 487 -206 490 -174 494 -149 ct 
499 -123 506 -103 515 -87 ct 524 -72 535 -61 548 -54 ct 561 -47 576 -44 593 -44 ct 
609 -44 624 -47 637 -54 ct 650 -61 661 -72 671 -87 ct 680 -103 687 -123 692 -149 ct 
697 -174 699 -206 699 -243 ct p ef
1159 -243 m  1159 -196 1155 -157 1146 -125 ct 1137 -93 1125 -68 1110 -48 ct 
1094 -28 1076 -14 1056 -6 ct 1035 3 1013 7 989 7 ct 966 7 944 3 923 -6 ct 903 -14 885 -28 870 -48 ct 
855 -67 843 -93 835 -125 ct 826 -157 822 -196 822 -243 ct 822 -292 826 -332 835 -365 ct 
843 -397 855 -422 870 -441 ct 885 -460 903 -474 924 -481 ct 945 -489 967 -493 992 -493 ct 
1015 -493 1037 -489 1057 -481 ct 1077 -474 1095 -460 1110 -441 ct 1125 -422 1137 -397 1146 -365 ct 
1155 -332 1159 -292 1159 -243 ct p
1096 -243 m  1096 -282 1094 -314 1089 -339 ct 1084 -365 1078 -385 1069 -401 ct 
1060 -416 1049 -427 1036 -433 ct 1023 -440 1008 -443 992 -443 ct 974 -443 959 -439 945 -433 ct 
932 -427 921 -416 912 -400 ct 903 -385 896 -365 891 -339 ct 887 -313 884 -281 884 -243 ct 
884 -206 887 -174 891 -149 ct 896 -123 903 -103 912 -87 ct 921 -72 932 -61 945 -54 ct 
958 -47 973 -44 990 -44 ct 1006 -44 1021 -47 1034 -54 ct 1047 -61 1058 -72 1068 -87 ct 
1077 -103 1084 -123 1089 -149 ct 1094 -174 1096 -206 1096 -243 ct p ef
1556 -243 m  1556 -196 1552 -157 1543 -125 ct 1534 -93 1522 -68 1507 -48 ct 
1491 -28 1473 -14 1453 -6 ct 1432 3 1410 7 1386 7 ct 1363 7 1341 3 1320 -6 ct 1300 -14 1282 -28 1267 -48 ct 
1252 -67 1240 -93 1232 -125 ct 1223 -157 1219 -196 1219 -243 ct 1219 -292 1223 -332 1232 -365 ct 
1240 -397 1252 -422 1267 -441 ct 1282 -460 1300 -474 1321 -481 ct 1342 -489 1364 -493 1389 -493 ct 
1412 -493 1434 -489 1454 -481 ct 1474 -474 1492 -460 1507 -441 ct 1522 -422 1534 -397 1543 -365 ct 
1552 -332 1556 -292 1556 -243 ct p
1493 -243 m  1493 -282 1491 -314 1486 -339 ct 1481 -365 1475 -385 1466 -401 ct 
1457 -416 1446 -427 1433 -433 ct 1420 -440 1405 -443 1389 -443 ct 1371 -443 1356 -439 1342 -433 ct 
1329 -427 1318 -416 1309 -400 ct 1300 -385 1293 -365 1288 -339 ct 1284 -313 1281 -281 1281 -243 ct 
1281 -206 1284 -174 1288 -149 ct 1293 -123 1300 -103 1309 -87 ct 1318 -72 1329 -61 1342 -54 ct 
1355 -47 1370 -44 1387 -44 ct 1403 -44 1418 -47 1431 -54 ct 1444 -61 1455 -72 1465 -87 ct 
1474 -103 1481 -123 1486 -149 ct 1491 -174 1493 -206 1493 -243 ct p ef
pom
pum
6289 13962 t
476 -248 m  476 -207 470 -172 458 -141 ct 446 -110 429 -84 408 -63 ct 387 -42 362 -27 333 -16 ct 
304 -5 273 0 240 0 ct 58 0 l  58 -486 l  219 -486 l  256 -486 291 -481 322 -472 ct 
354 -462 381 -448 404 -429 ct 426 -409 444 -385 457 -355 ct 470 -325 476 -289 476 -248 ct 
p
410 -248 m  410 -281 405 -309 396 -332 ct 386 -355 373 -375 356 -390 ct 339 -405 319 -415 295 -422 ct 
271 -430 245 -433 217 -433 ct 124 -433 l  124 -53 l  232 -53 l  258 -53 281 -57 303 -65 ct 
325 -73 343 -86 359 -102 ct 375 -118 387 -139 396 -163 ct 405 -187 410 -216 410 -248 ct 
p ef
672 7 m  634 7 606 -3 587 -23 ct 568 -43 559 -70 559 -105 ct 559 -129 564 -149 573 -165 ct 
582 -181 594 -194 610 -203 ct 625 -212 642 -218 661 -221 ct 680 -225 700 -226 720 -226 ct 
804 -226 l  804 -247 l  804 -263 802 -276 799 -287 ct 796 -298 791 -307 784 -313 ct 
777 -320 769 -325 759 -328 ct 749 -331 737 -333 724 -333 ct 712 -333 701 -332 691 -330 ct 
682 -328 673 -325 666 -321 ct 659 -316 653 -310 649 -303 ct 645 -295 642 -285 640 -273 ct 
576 -279 l  578 -294 582 -307 589 -320 ct 595 -332 604 -343 616 -352 ct 628 -361 643 -368 661 -373 ct 
678 -378 700 -380 725 -380 ct 772 -380 807 -369 831 -348 ct 855 -326 866 -295 866 -254 ct 
866 -94 l  866 -75 869 -61 874 -52 ct 879 -43 888 -38 901 -38 ct 905 -38 908 -38 912 -39 ct 
915 -39 918 -40 922 -40 ct 922 -2 l  914 0 906 1 898 2 ct 891 3 882 4 874 4 ct 
862 4 852 2 844 -1 ct 835 -4 828 -9 823 -15 ct 818 -21 814 -29 811 -39 ct 808 -48 807 -59 806 -71 ct 
804 -71 l  797 -59 790 -49 782 -39 ct 774 -29 765 -21 754 -14 ct 744 -7 732 -2 718 1 ct 
705 5 689 7 672 7 ct p
686 -40 m  706 -40 723 -43 738 -50 ct 753 -58 765 -67 775 -78 ct 784 -89 792 -101 797 -115 ct 
801 -128 804 -140 804 -153 ct 804 -183 l  736 -183 l  721 -183 706 -182 693 -180 ct 
679 -178 667 -174 657 -168 ct 646 -163 638 -155 632 -144 ct 626 -134 623 -120 623 -103 ct 
623 -83 628 -67 639 -56 ct 650 -45 666 -40 686 -40 ct p ef
1117 -2 m  1108 0 1098 2 1088 4 ct 1078 5 1067 6 1054 6 ct 1005 6 980 -22 980 -79 ct 
980 -328 l  937 -328 l  937 -373 l  982 -373 l  1000 -456 l  1042 -456 l 
1042 -373 l  1111 -373 l  1111 -328 l  1042 -328 l  1042 -92 l  1042 -74 1045 -61 1051 -54 ct 
1056 -47 1067 -43 1081 -43 ct 1087 -43 1093 -44 1099 -45 ct 1104 -46 1110 -47 1117 -48 ct 
1117 -2 l  p ef
1281 7 m  1243 7 1215 -3 1196 -23 ct 1177 -43 1168 -70 1168 -105 ct 1168 -129 1173 -149 1182 -165 ct 
1191 -181 1203 -194 1219 -203 ct 1234 -212 1251 -218 1270 -221 ct 1289 -225 1309 -226 1329 -226 ct 
1413 -226 l  1413 -247 l  1413 -263 1411 -276 1408 -287 ct 1405 -298 1400 -307 1393 -313 ct 
1386 -320 1378 -325 1368 -328 ct 1358 -331 1346 -333 1333 -333 ct 1321 -333 1310 -332 1300 -330 ct 
1291 -328 1282 -325 1275 -321 ct 1268 -316 1262 -310 1258 -303 ct 1254 -295 1251 -285 1249 -273 ct 
1185 -279 l  1187 -294 1191 -307 1198 -320 ct 1204 -332 1213 -343 1225 -352 ct 
1237 -361 1252 -368 1270 -373 ct 1287 -378 1309 -380 1334 -380 ct 1381 -380 1416 -369 1440 -348 ct 
1464 -326 1475 -295 1475 -254 ct 1475 -94 l  1475 -75 1478 -61 1483 -52 ct 1488 -43 1497 -38 1510 -38 ct 
1514 -38 1517 -38 1521 -39 ct 1524 -39 1527 -40 1531 -40 ct 1531 -2 l  1523 0 1515 1 1507 2 ct 
1500 3 1491 4 1483 4 ct 1471 4 1461 2 1453 -1 ct 1444 -4 1437 -9 1432 -15 ct 1427 -21 1423 -29 1420 -39 ct 
1417 -48 1416 -59 1415 -71 ct 1413 -71 l  1406 -59 1399 -49 1391 -39 ct 1383 -29 1374 -21 1363 -14 ct 
1353 -7 1341 -2 1327 1 ct 1314 5 1298 7 1281 7 ct p
1295 -40 m  1315 -40 1332 -43 1347 -50 ct 1362 -58 1374 -67 1384 -78 ct 1393 -89 1401 -101 1406 -115 ct 
1410 -128 1413 -140 1413 -153 ct 1413 -183 l  1345 -183 l  1330 -183 1315 -182 1302 -180 ct 
1288 -178 1276 -174 1266 -168 ct 1255 -163 1247 -155 1241 -144 ct 1235 -134 1232 -120 1232 -103 ct 
1232 -83 1237 -67 1248 -56 ct 1259 -45 1275 -40 1295 -40 ct p ef
1862 -103 m  1862 -86 1859 -70 1852 -56 ct 1846 -43 1836 -31 1823 -22 ct 1810 -12 1794 -5 1775 0 ct 
1757 5 1735 7 1711 7 ct 1690 7 1670 5 1653 2 ct 1635 -1 1620 -7 1607 -14 ct 1594 -21 1583 -31 1574 -43 ct 
1565 -55 1559 -70 1555 -87 ct 1609 -98 l  1615 -78 1626 -64 1642 -54 ct 1659 -45 1682 -40 1711 -40 ct 
1724 -40 1737 -41 1748 -43 ct 1759 -45 1769 -48 1777 -52 ct 1785 -57 1791 -63 1795 -70 ct 
1800 -78 1802 -87 1802 -98 ct 1802 -109 1800 -119 1794 -126 ct 1789 -133 1782 -139 1772 -144 ct 
1763 -149 1751 -153 1738 -157 ct 1724 -160 1710 -164 1694 -169 ct 1679 -172 1664 -177 1649 -182 ct 
1634 -186 1621 -193 1609 -201 ct 1597 -209 1588 -219 1581 -230 ct 1573 -242 1569 -257 1569 -274 ct 
1569 -308 1582 -334 1606 -352 ct 1630 -370 1665 -379 1712 -379 ct 1753 -379 1786 -372 1810 -357 ct 
1834 -343 1850 -319 1856 -288 ct 1800 -281 l  1798 -290 1794 -298 1789 -305 ct 
1783 -311 1777 -317 1769 -321 ct 1761 -325 1752 -328 1742 -329 ct 1733 -331 1722 -332 1712 -332 ct 
1684 -332 1663 -328 1650 -319 ct 1636 -311 1630 -298 1630 -281 ct 1630 -271 1632 -262 1637 -256 ct 
1642 -249 1649 -244 1658 -239 ct 1667 -235 1677 -231 1690 -227 ct 1702 -224 1716 -220 1731 -217 ct 
1741 -214 1751 -212 1761 -209 ct 1771 -206 1782 -202 1791 -198 ct 1801 -194 1810 -190 1819 -184 ct 
1828 -179 1835 -172 1841 -165 ct 1848 -157 1853 -148 1857 -138 ct 1861 -128 1862 -116 1862 -103 ct 
p ef
2000 -173 m  2000 -154 2002 -136 2006 -119 ct 2010 -103 2016 -89 2025 -77 ct 
2033 -65 2044 -56 2057 -49 ct 2070 -43 2086 -40 2104 -40 ct 2131 -40 2153 -45 2169 -56 ct 
2185 -67 2196 -80 2202 -97 ct 2256 -81 l  2252 -71 2247 -61 2240 -50 ct 2233 -40 2224 -30 2212 -22 ct 
2200 -13 2185 -7 2168 -1 ct 2150 4 2129 7 2104 7 ct 2049 7 2007 -9 1978 -42 ct 
1949 -75 1935 -124 1935 -189 ct 1935 -224 1939 -253 1948 -278 ct 1957 -302 1969 -322 1984 -337 ct 
1999 -352 2017 -363 2037 -370 ct 2057 -376 2079 -380 2102 -380 ct 2133 -380 2159 -375 2180 -365 ct 
2201 -355 2218 -341 2231 -323 ct 2244 -305 2253 -284 2258 -260 ct 2264 -236 2266 -210 2266 -182 ct 
2266 -173 l  2000 -173 l  p
2202 -221 m  2199 -260 2189 -289 2172 -307 ct 2156 -325 2132 -334 2101 -334 ct 
2090 -334 2080 -332 2068 -329 ct 2057 -326 2046 -320 2037 -311 ct 2027 -303 2019 -291 2012 -277 ct 
2006 -262 2002 -244 2001 -221 ct 2202 -221 l  p ef
2493 -2 m  2484 0 2474 2 2464 4 ct 2454 5 2443 6 2430 6 ct 2381 6 2356 -22 2356 -79 ct 
2356 -328 l  2313 -328 l  2313 -373 l  2358 -373 l  2376 -456 l  2418 -456 l 
2418 -373 l  2487 -373 l  2487 -328 l  2418 -328 l  2418 -92 l  2418 -74 2421 -61 2427 -54 ct 
2432 -47 2443 -43 2457 -43 ct 2463 -43 2469 -44 2475 -45 ct 2480 -46 2486 -47 2493 -48 ct 
2493 -2 l  p ef
2789 -302 m  2789 -373 l  2857 -373 l  2857 -302 l  2789 -302 l  p
2789 0 m  2789 -71 l  2857 -71 l  2857 0 l  2789 0 l  p ef
3588 -134 m  3588 -114 3584 -95 3576 -77 ct 3568 -60 3555 -45 3539 -33 ct 3522 -20 3501 -11 3476 -4 ct 
3451 3 3421 7 3387 7 ct 3326 7 3279 -4 3246 -25 ct 3212 -46 3190 -76 3181 -116 ct 
3245 -129 l  3248 -117 3253 -105 3260 -95 ct 3266 -84 3275 -75 3287 -68 ct 3298 -61 3312 -55 3329 -51 ct 
3346 -46 3366 -44 3389 -44 ct 3409 -44 3427 -46 3443 -49 ct 3459 -53 3473 -58 3485 -65 ct 
3497 -72 3506 -81 3513 -91 ct 3519 -102 3522 -115 3522 -131 ct 3522 -146 3519 -159 3511 -169 ct 
3504 -179 3494 -187 3481 -194 ct 3468 -200 3452 -206 3434 -210 ct 3416 -214 3396 -219 3374 -224 ct 
3360 -227 3347 -230 3333 -234 ct 3319 -237 3306 -242 3294 -247 ct 3281 -252 3269 -257 3258 -264 ct 
3247 -271 3238 -279 3230 -288 ct 3222 -297 3215 -308 3211 -320 ct 3206 -333 3204 -347 3204 -363 ct 
3204 -386 3208 -406 3218 -422 ct 3227 -439 3240 -452 3257 -463 ct 3273 -473 3293 -481 3315 -486 ct 
3338 -491 3362 -493 3388 -493 ct 3418 -493 3444 -491 3465 -486 ct 3487 -481 3505 -474 3520 -465 ct 
3534 -455 3546 -444 3555 -430 ct 3564 -416 3571 -400 3576 -381 ct 3511 -370 l 
3508 -382 3503 -392 3497 -401 ct 3491 -410 3483 -418 3473 -424 ct 3464 -431 3452 -435 3437 -439 ct 
3423 -442 3407 -443 3388 -443 ct 3365 -443 3346 -441 3331 -437 ct 3316 -433 3303 -428 3294 -421 ct 
3285 -414 3278 -406 3274 -397 ct 3270 -387 3268 -377 3268 -366 ct 3268 -352 3272 -340 3279 -331 ct 
3286 -321 3296 -314 3308 -307 ct 3321 -301 3335 -296 3351 -292 ct 3368 -288 3385 -284 3403 -280 ct 
3418 -276 3433 -273 3448 -269 ct 3463 -265 3477 -261 3491 -256 ct 3504 -251 3517 -246 3529 -239 ct 
3541 -232 3551 -224 3560 -214 ct 3568 -205 3575 -193 3580 -180 ct 3585 -167 3588 -152 3588 -134 ct 
p ef
3987 -134 m  3987 -112 3983 -92 3976 -74 ct 3969 -57 3958 -42 3944 -30 ct 3930 -18 3913 -9 3892 -2 ct 
3872 4 3848 7 3822 7 ct 3792 7 3766 3 3746 -4 ct 3725 -12 3708 -22 3695 -34 ct 
3682 -46 3672 -60 3665 -76 ct 3658 -92 3654 -108 3652 -125 ct 3716 -131 l  3718 -118 3721 -106 3726 -95 ct 
3731 -85 3738 -76 3746 -68 ct 3755 -61 3765 -55 3778 -51 ct 3790 -46 3805 -44 3822 -44 ct 
3853 -44 3878 -52 3895 -67 ct 3913 -83 3922 -106 3922 -136 ct 3922 -154 3918 -168 3910 -179 ct 
3902 -190 3892 -199 3881 -205 ct 3869 -211 3856 -215 3842 -217 ct 3828 -219 3815 -220 3804 -220 ct 
3768 -220 l  3768 -274 l  3802 -274 l  3814 -274 3826 -275 3839 -278 ct 3851 -280 3863 -284 3873 -291 ct 
3884 -297 3892 -306 3899 -316 ct 3906 -327 3909 -341 3909 -358 ct 3909 -384 3902 -404 3886 -419 ct 
3871 -434 3849 -442 3818 -442 ct 3791 -442 3769 -435 3752 -421 ct 3735 -407 3725 -387 3723 -362 ct 
3660 -366 l  3663 -388 3669 -406 3678 -422 ct 3687 -438 3699 -451 3713 -462 ct 
3727 -472 3743 -480 3761 -485 ct 3779 -490 3799 -493 3819 -493 ct 3846 -493 3870 -490 3889 -483 ct 
3909 -476 3925 -467 3937 -455 ct 3949 -444 3959 -430 3964 -414 ct 3970 -399 3973 -382 3973 -364 ct 
3973 -350 3971 -337 3967 -324 ct 3963 -312 3957 -301 3949 -291 ct 3941 -281 3930 -273 3918 -265 ct 
3905 -258 3889 -253 3871 -249 ct 3871 -248 l  3891 -246 3908 -241 3923 -235 ct 
3937 -228 3949 -219 3958 -209 ct 3968 -199 3975 -188 3980 -175 ct 3984 -162 3987 -148 3987 -134 ct 
p ef
pom
pum
4670 20988 t
477 -373 m  477 -350 473 -328 465 -308 ct 457 -288 446 -271 431 -256 ct 415 -241 396 -229 373 -221 ct 
350 -212 323 -208 293 -208 ct 136 -208 l  136 0 l  64 0 l  64 -534 l  288 -534 l 
320 -534 347 -530 371 -522 ct 394 -515 414 -504 430 -490 ct 445 -476 457 -459 465 -439 ct 
473 -419 477 -397 477 -373 ct p
404 -373 m  404 -406 394 -432 373 -450 ct 352 -467 321 -476 280 -476 ct 136 -476 l 
136 -265 l  283 -265 l  324 -265 355 -275 375 -293 ct 394 -311 404 -338 404 -373 ct 
p ef
660 8 m  619 8 588 -3 567 -25 ct 546 -47 536 -77 536 -115 ct 536 -142 541 -164 551 -182 ct 
562 -199 575 -213 591 -223 ct 608 -232 627 -239 648 -243 ct 669 -247 691 -249 713 -249 ct 
805 -249 l  805 -271 l  805 -289 803 -303 800 -315 ct 796 -327 791 -337 783 -344 ct 
776 -352 767 -357 756 -361 ct 745 -364 732 -366 717 -366 ct 704 -366 692 -365 681 -363 ct 
671 -361 662 -358 654 -353 ct 646 -348 640 -341 635 -333 ct 630 -324 627 -313 625 -301 ct 
554 -307 l  557 -323 561 -338 569 -352 ct 576 -365 586 -377 599 -387 ct 612 -397 628 -404 648 -410 ct 
667 -415 691 -418 719 -418 ct 770 -418 809 -406 835 -382 ct 861 -359 874 -325 874 -280 ct 
874 -103 l  874 -83 877 -68 882 -57 ct 887 -47 897 -42 912 -42 ct 916 -42 920 -42 924 -43 ct 
927 -43 931 -44 935 -45 ct 935 -2 l  926 0 917 1 909 2 ct 901 3 892 4 882 4 ct 
869 4 858 2 849 -1 ct 840 -5 832 -10 826 -17 ct 820 -24 816 -32 813 -42 ct 810 -53 808 -64 807 -78 ct 
805 -78 l  798 -65 790 -53 781 -42 ct 772 -32 762 -23 750 -15 ct 739 -8 726 -2 711 2 ct 
696 6 679 8 660 8 ct p
675 -43 m  697 -43 716 -47 732 -55 ct 749 -63 762 -73 773 -85 ct 784 -98 792 -111 797 -126 ct 
802 -140 805 -154 805 -168 ct 805 -201 l  730 -201 l  714 -201 698 -200 683 -198 ct 
668 -196 655 -191 643 -185 ct 632 -179 623 -170 616 -158 ct 609 -147 606 -132 606 -113 ct 
606 -91 612 -74 624 -62 ct 636 -49 653 -43 675 -43 ct p ef
980 0 m  980 -315 l  980 -323 980 -332 980 -341 ct 979 -350 979 -359 979 -367 ct 
979 -376 979 -383 978 -391 ct 978 -398 978 -405 978 -410 ct 1042 -410 l  1042 -405 1043 -398 1043 -390 ct 
1043 -383 1044 -375 1044 -368 ct 1044 -360 1045 -352 1045 -345 ct 1045 -338 1045 -332 1045 -327 ct 
1047 -327 l  1051 -342 1056 -356 1062 -367 ct 1067 -379 1074 -388 1081 -396 ct 
1088 -403 1097 -409 1107 -413 ct 1117 -416 1129 -418 1144 -418 ct 1149 -418 1155 -418 1160 -417 ct 
1165 -416 1169 -415 1172 -414 ct 1172 -352 l  1167 -353 1162 -354 1156 -354 ct 
1150 -355 1143 -355 1135 -355 ct 1120 -355 1106 -352 1095 -345 ct 1084 -338 1075 -328 1068 -315 ct 
1061 -303 1056 -288 1053 -271 ct 1050 -253 1048 -234 1048 -214 ct 1048 0 l  980 0 l 
p ef
1401 -3 m  1391 0 1380 2 1369 4 ct 1359 5 1346 6 1332 6 ct 1277 6 1250 -25 1250 -87 ct 
1250 -361 l  1203 -361 l  1203 -411 l  1253 -411 l  1273 -503 l  1318 -503 l 
1318 -411 l  1394 -411 l  1394 -361 l  1318 -361 l  1318 -102 l  1318 -82 1322 -68 1328 -60 ct 
1334 -52 1346 -48 1362 -48 ct 1368 -48 1374 -49 1381 -50 ct 1387 -51 1394 -52 1401 -54 ct 
1401 -3 l  p ef
1454 -498 m  1454 -563 l  1522 -563 l  1522 -498 l  1454 -498 l  p
1454 0 m  1454 -410 l  1522 -410 l  1522 0 l  1454 0 l  p ef
1665 -207 m  1665 -183 1667 -162 1670 -142 ct 1674 -122 1679 -105 1688 -91 ct 
1696 -77 1706 -65 1720 -58 ct 1733 -50 1749 -46 1769 -46 ct 1793 -46 1813 -52 1829 -65 ct 
1846 -78 1856 -97 1860 -124 ct 1929 -124 l  1926 -107 1921 -90 1914 -74 ct 1906 -58 1896 -44 1883 -32 ct 
1870 -20 1854 -10 1835 -3 ct 1817 4 1795 8 1771 8 ct 1738 8 1711 3 1689 -8 ct 1666 -19 1648 -34 1634 -53 ct 
1620 -72 1610 -95 1603 -121 ct 1597 -147 1594 -175 1594 -205 ct 1594 -233 1596 -257 1601 -278 ct 
1605 -299 1612 -318 1620 -333 ct 1628 -349 1638 -363 1649 -373 ct 1660 -384 1672 -393 1685 -399 ct 
1698 -406 1712 -410 1726 -413 ct 1741 -416 1755 -417 1770 -417 ct 1793 -417 1813 -414 1831 -408 ct 
1849 -402 1865 -393 1878 -382 ct 1891 -371 1901 -358 1909 -343 ct 1917 -328 1923 -312 1926 -295 ct 
1856 -290 l  1853 -312 1844 -331 1829 -344 ct 1815 -357 1794 -364 1768 -364 ct 
1748 -364 1732 -361 1719 -354 ct 1706 -348 1696 -338 1688 -325 ct 1679 -312 1674 -296 1670 -276 ct 
1667 -256 1665 -233 1665 -207 ct p ef
2010 -498 m  2010 -563 l  2078 -563 l  2078 -498 l  2010 -498 l  p
2010 0 m  2010 -410 l  2078 -410 l  2078 0 l  2010 0 l  p ef
2516 -207 m  2516 -176 2513 -147 2508 -121 ct 2503 -95 2495 -72 2483 -53 ct 
2471 -34 2456 -19 2437 -9 ct 2417 2 2393 7 2365 7 ct 2336 7 2310 2 2288 -9 ct 2266 -20 2249 -39 2238 -64 ct 
2236 -64 l  2236 -63 2236 -61 2237 -57 ct 2237 -53 2237 -48 2237 -42 ct 2237 -36 2237 -29 2237 -22 ct 
2237 -14 2238 -7 2238 1 ct 2238 161 l  2169 161 l  2169 -328 l  2169 -338 2169 -347 2169 -357 ct 
2169 -366 2169 -374 2169 -381 ct 2168 -389 2168 -395 2168 -401 ct 2168 -406 2167 -409 2167 -409 ct 
2233 -409 l  2233 -408 2234 -405 2234 -401 ct 2234 -396 2235 -391 2235 -385 ct 
2235 -379 2236 -372 2236 -365 ct 2237 -358 2237 -351 2237 -345 ct 2238 -345 l 
2245 -358 2252 -369 2260 -378 ct 2268 -387 2277 -395 2288 -401 ct 2298 -407 2309 -411 2322 -414 ct 
2335 -416 2349 -418 2365 -418 ct 2393 -418 2417 -413 2437 -403 ct 2456 -392 2471 -378 2483 -360 ct 
2495 -342 2503 -319 2508 -294 ct 2513 -268 2516 -239 2516 -207 ct p
2444 -206 m  2444 -231 2443 -254 2440 -273 ct 2437 -293 2432 -310 2424 -323 ct 
2417 -337 2407 -347 2394 -354 ct 2382 -361 2366 -365 2348 -365 ct 2333 -365 2318 -363 2305 -359 ct 
2292 -354 2280 -346 2270 -334 ct 2260 -322 2252 -305 2246 -284 ct 2240 -262 2238 -235 2238 -200 ct 
2238 -171 2240 -147 2245 -127 ct 2249 -107 2257 -90 2266 -78 ct 2275 -66 2286 -57 2300 -51 ct 
2314 -46 2329 -43 2347 -43 ct 2366 -43 2382 -47 2394 -54 ct 2407 -61 2417 -72 2424 -86 ct 
2432 -100 2437 -117 2440 -137 ct 2443 -157 2444 -180 2444 -206 ct p ef
2697 8 m  2656 8 2625 -3 2604 -25 ct 2583 -47 2573 -77 2573 -115 ct 2573 -142 2578 -164 2588 -182 ct 
2599 -199 2612 -213 2628 -223 ct 2645 -232 2664 -239 2685 -243 ct 2706 -247 2728 -249 2750 -249 ct 
2842 -249 l  2842 -271 l  2842 -289 2840 -303 2837 -315 ct 2833 -327 2828 -337 2820 -344 ct 
2813 -352 2804 -357 2793 -361 ct 2782 -364 2769 -366 2754 -366 ct 2741 -366 2729 -365 2718 -363 ct 
2708 -361 2699 -358 2691 -353 ct 2683 -348 2677 -341 2672 -333 ct 2667 -324 2664 -313 2662 -301 ct 
2591 -307 l  2594 -323 2598 -338 2606 -352 ct 2613 -365 2623 -377 2636 -387 ct 
2649 -397 2665 -404 2685 -410 ct 2704 -415 2728 -418 2756 -418 ct 2807 -418 2846 -406 2872 -382 ct 
2898 -359 2911 -325 2911 -280 ct 2911 -103 l  2911 -83 2914 -68 2919 -57 ct 
2924 -47 2934 -42 2949 -42 ct 2953 -42 2957 -42 2961 -43 ct 2964 -43 2968 -44 2972 -45 ct 
2972 -2 l  2963 0 2954 1 2946 2 ct 2938 3 2929 4 2919 4 ct 2906 4 2895 2 2886 -1 ct 
2877 -5 2869 -10 2863 -17 ct 2857 -24 2853 -32 2850 -42 ct 2847 -53 2845 -64 2844 -78 ct 
2842 -78 l  2835 -65 2827 -53 2818 -42 ct 2809 -32 2799 -23 2787 -15 ct 2776 -8 2763 -2 2748 2 ct 
2733 6 2716 8 2697 8 ct p
2712 -43 m  2734 -43 2753 -47 2769 -55 ct 2786 -63 2799 -73 2810 -85 ct 2821 -98 2829 -111 2834 -126 ct 
2839 -140 2842 -154 2842 -168 ct 2842 -201 l  2767 -201 l  2751 -201 2735 -200 2720 -198 ct 
2705 -196 2692 -191 2680 -185 ct 2669 -179 2660 -170 2653 -158 ct 2646 -147 2643 -132 2643 -113 ct 
2643 -91 2649 -74 2661 -62 ct 2673 -49 2690 -43 2712 -43 ct p ef
3173 -3 m  3163 0 3152 2 3141 4 ct 3131 5 3118 6 3104 6 ct 3049 6 3022 -25 3022 -87 ct 
3022 -361 l  2975 -361 l  2975 -411 l  3025 -411 l  3045 -503 l  3090 -503 l 
3090 -411 l  3166 -411 l  3166 -361 l  3090 -361 l  3090 -102 l  3090 -82 3094 -68 3100 -60 ct 
3106 -52 3118 -48 3134 -48 ct 3140 -48 3146 -49 3153 -50 ct 3159 -51 3166 -52 3173 -54 ct 
3173 -3 l  p ef
3227 -498 m  3227 -563 l  3295 -563 l  3295 -498 l  3227 -498 l  p
3227 0 m  3227 -410 l  3295 -410 l  3295 0 l  3227 0 l  p ef
3733 -205 m  3733 -133 3717 -80 3686 -45 ct 3654 -10 3608 8 3548 8 ct 3520 8 3494 4 3472 -5 ct 
3449 -13 3430 -27 3415 -44 ct 3399 -62 3387 -84 3379 -111 ct 3371 -138 3367 -169 3367 -205 ct 
3367 -347 3428 -417 3550 -417 ct 3582 -417 3610 -413 3633 -404 ct 3656 -395 3675 -382 3690 -364 ct 
3704 -347 3715 -325 3722 -298 ct 3729 -271 3733 -240 3733 -205 ct p
3661 -205 m  3661 -237 3659 -263 3654 -284 ct 3649 -305 3642 -321 3632 -334 ct 
3623 -346 3611 -355 3598 -360 ct 3584 -365 3569 -367 3552 -367 ct 3534 -367 3518 -364 3504 -359 ct 
3490 -354 3478 -345 3469 -333 ct 3459 -320 3451 -304 3446 -283 ct 3441 -262 3438 -236 3438 -205 ct 
3438 -173 3441 -147 3447 -126 ct 3452 -105 3460 -89 3469 -76 ct 3479 -64 3491 -55 3504 -50 ct 
3517 -45 3532 -42 3547 -42 ct 3565 -42 3581 -45 3595 -50 ct 3609 -55 3621 -63 3631 -76 ct 
3641 -88 3648 -105 3653 -126 ct 3659 -147 3661 -173 3661 -205 ct p ef
4070 0 m  4070 -260 l  4070 -280 4068 -297 4065 -310 ct 4062 -324 4058 -335 4051 -343 ct 
4044 -351 4036 -357 4025 -360 ct 4014 -364 4001 -365 3985 -365 ct 3969 -365 3954 -362 3941 -357 ct 
3928 -351 3917 -343 3908 -332 ct 3899 -321 3892 -308 3887 -292 ct 3882 -276 3879 -258 3879 -238 ct 
3879 0 l  3811 0 l  3811 -324 l  3811 -332 3811 -341 3811 -351 ct 3810 -360 3810 -369 3810 -378 ct 
3810 -386 3810 -394 3809 -400 ct 3809 -406 3809 -409 3809 -409 ct 3873 -409 l 
3873 -408 3873 -404 3874 -399 ct 3874 -393 3874 -387 3875 -380 ct 3875 -373 3875 -366 3876 -359 ct 
3876 -351 3876 -345 3876 -340 ct 3877 -340 l  3884 -352 3891 -363 3899 -372 ct 
3907 -382 3916 -390 3926 -397 ct 3936 -404 3948 -409 3962 -413 ct 3975 -416 3991 -418 4008 -418 ct 
4031 -418 4051 -415 4067 -410 ct 4083 -404 4097 -396 4107 -384 ct 4118 -372 4126 -357 4131 -339 ct 
4136 -321 4138 -299 4138 -274 ct 4138 0 l  4070 0 l  p ef
4464 0 m  4464 -535 l  4536 -535 l  4536 0 l  4464 0 l  p ef
4917 0 m  4917 -260 l  4917 -280 4915 -297 4912 -310 ct 4909 -324 4905 -335 4898 -343 ct 
4891 -351 4883 -357 4872 -360 ct 4861 -364 4848 -365 4832 -365 ct 4816 -365 4801 -362 4788 -357 ct 
4775 -351 4764 -343 4755 -332 ct 4746 -321 4739 -308 4734 -292 ct 4729 -276 4726 -258 4726 -238 ct 
4726 0 l  4658 0 l  4658 -324 l  4658 -332 4658 -341 4658 -351 ct 4657 -360 4657 -369 4657 -378 ct 
4657 -386 4657 -394 4656 -400 ct 4656 -406 4656 -409 4656 -409 ct 4720 -409 l 
4720 -408 4720 -404 4721 -399 ct 4721 -393 4721 -387 4722 -380 ct 4722 -373 4722 -366 4723 -359 ct 
4723 -351 4723 -345 4723 -340 ct 4724 -340 l  4731 -352 4738 -363 4746 -372 ct 
4754 -382 4763 -390 4773 -397 ct 4783 -404 4795 -409 4809 -413 ct 4822 -416 4838 -418 4855 -418 ct 
4878 -418 4898 -415 4914 -410 ct 4930 -404 4944 -396 4954 -384 ct 4965 -372 4973 -357 4978 -339 ct 
4983 -321 4985 -299 4985 -274 ct 4985 0 l  4917 0 l  p ef
5338 -66 m  5325 -40 5309 -21 5288 -9 ct 5267 2 5241 8 5210 8 ct 5159 8 5121 -10 5096 -45 ct 
5072 -80 5060 -132 5060 -203 ct 5060 -346 5110 -418 5210 -418 ct 5241 -418 5267 -412 5288 -401 ct 
5309 -390 5325 -371 5338 -347 ct 5339 -347 l  5339 -349 5339 -353 5339 -359 ct 
5339 -364 5338 -370 5338 -376 ct 5338 -382 5338 -387 5338 -393 ct 5338 -398 5338 -402 5338 -404 ct 
5338 -563 l  5406 -563 l  5406 -83 l  5406 -73 5406 -63 5406 -54 ct 5407 -45 5407 -37 5407 -29 ct 
5407 -22 5408 -15 5408 -10 ct 5408 -4 5408 -1 5409 -1 ct 5343 -1 l  5343 -4 5342 -7 5342 -12 ct 
5342 -17 5341 -22 5341 -28 ct 5341 -34 5340 -40 5340 -46 ct 5340 -53 5340 -59 5340 -66 ct 
5338 -66 l  p
5131 -206 m  5131 -177 5133 -153 5137 -133 ct 5140 -112 5146 -96 5154 -83 ct 
5161 -70 5171 -60 5183 -54 ct 5196 -48 5210 -45 5228 -45 ct 5246 -45 5262 -48 5275 -54 ct 
5289 -60 5301 -69 5310 -82 ct 5319 -95 5326 -112 5331 -133 ct 5336 -154 5338 -180 5338 -210 ct 
5338 -239 5336 -264 5331 -284 ct 5326 -304 5319 -320 5310 -333 ct 5300 -345 5289 -354 5275 -359 ct 
5262 -365 5246 -368 5229 -368 ct 5212 -368 5198 -365 5185 -359 ct 5173 -353 5163 -344 5155 -331 ct 
5147 -318 5141 -301 5137 -280 ct 5133 -260 5131 -235 5131 -206 ct p ef
5555 -191 m  5555 -169 5557 -149 5561 -131 ct 5566 -113 5572 -97 5582 -84 ct 
5591 -71 5603 -61 5617 -54 ct 5632 -47 5649 -43 5669 -43 ct 5699 -43 5722 -49 5740 -61 ct 
5758 -73 5770 -88 5776 -106 ct 5836 -89 l  5832 -78 5826 -66 5818 -55 ct 5810 -43 5800 -33 5787 -24 ct 
5774 -14 5758 -7 5739 -1 ct 5720 5 5696 8 5669 8 ct 5608 8 5562 -10 5531 -46 ct 
5499 -82 5483 -136 5483 -207 ct 5483 -246 5488 -278 5497 -305 ct 5507 -332 5520 -353 5537 -370 ct 
5553 -387 5573 -399 5595 -406 ct 5617 -414 5641 -417 5666 -417 ct 5701 -417 5729 -412 5753 -401 ct 
5776 -390 5794 -374 5808 -355 ct 5822 -335 5832 -312 5838 -286 ct 5844 -259 5847 -231 5847 -200 ct 
5847 -191 l  5555 -191 l  p
5777 -243 m  5773 -286 5762 -318 5744 -337 ct 5725 -357 5699 -367 5665 -367 ct 
5654 -367 5642 -365 5629 -362 ct 5617 -358 5605 -351 5595 -342 ct 5584 -333 5575 -320 5568 -304 ct 
5561 -288 5556 -268 5555 -243 ct 5777 -243 l  p ef
6178 0 m  6067 -168 l  5956 0 l  5883 0 l  6029 -211 l  5890 -410 l  5965 -410 l 
6067 -251 l  6169 -410 l  6245 -410 l  6106 -212 l  6254 0 l  6178 0 l 
p ef
6729 -475 m  6729 1 l  6657 1 l  6657 -475 l  6473 -475 l  6473 -534 l 
6912 -534 l  6912 -475 l  6729 -475 l  p ef
7052 -340 m  7060 -354 7068 -366 7077 -376 ct 7086 -385 7095 -393 7106 -400 ct 
7117 -406 7128 -411 7141 -414 ct 7153 -417 7168 -418 7183 -418 ct 7209 -418 7231 -414 7248 -407 ct 
7265 -400 7278 -390 7288 -378 ct 7297 -365 7304 -350 7308 -332 ct 7311 -314 7313 -295 7313 -274 ct 
7313 0 l  7245 0 l  7245 -260 l  7245 -278 7244 -293 7241 -306 ct 7239 -319 7235 -330 7229 -339 ct 
7223 -348 7214 -354 7203 -359 ct 7192 -363 7178 -365 7160 -365 ct 7144 -365 7129 -362 7116 -357 ct 
7103 -351 7092 -343 7083 -332 ct 7074 -321 7067 -308 7062 -293 ct 7057 -278 7054 -261 7054 -242 ct 
7054 0 l  6986 0 l  6986 -563 l  7054 -563 l  7054 -416 l  7054 -408 7054 -400 7054 -391 ct 
7053 -383 7053 -375 7053 -368 ct 7052 -361 7052 -355 7052 -350 ct 7051 -345 7051 -342 7051 -340 ct 
7052 -340 l  p ef
7409 0 m  7409 -315 l  7409 -323 7409 -332 7409 -341 ct 7408 -350 7408 -359 7408 -367 ct 
7408 -376 7408 -383 7407 -391 ct 7407 -398 7407 -405 7407 -410 ct 7471 -410 l 
7471 -405 7472 -398 7472 -390 ct 7472 -383 7473 -375 7473 -368 ct 7473 -360 7474 -352 7474 -345 ct 
7474 -338 7474 -332 7474 -327 ct 7476 -327 l  7480 -342 7485 -356 7491 -367 ct 
7496 -379 7503 -388 7510 -396 ct 7517 -403 7526 -409 7536 -413 ct 7546 -416 7558 -418 7573 -418 ct 
7578 -418 7584 -418 7589 -417 ct 7594 -416 7598 -415 7601 -414 ct 7601 -352 l 
7596 -353 7591 -354 7585 -354 ct 7579 -355 7572 -355 7564 -355 ct 7549 -355 7535 -352 7524 -345 ct 
7513 -338 7504 -328 7497 -315 ct 7490 -303 7485 -288 7482 -271 ct 7479 -253 7477 -234 7477 -214 ct 
7477 0 l  7409 0 l  p ef
7725 -191 m  7725 -169 7727 -149 7731 -131 ct 7736 -113 7742 -97 7752 -84 ct 
7761 -71 7773 -61 7787 -54 ct 7802 -47 7819 -43 7839 -43 ct 7869 -43 7892 -49 7910 -61 ct 
7928 -73 7940 -88 7946 -106 ct 8006 -89 l  8002 -78 7996 -66 7988 -55 ct 7980 -43 7970 -33 7957 -24 ct 
7944 -14 7928 -7 7909 -1 ct 7890 5 7866 8 7839 8 ct 7778 8 7732 -10 7701 -46 ct 
7669 -82 7653 -136 7653 -207 ct 7653 -246 7658 -278 7667 -305 ct 7677 -332 7690 -353 7707 -370 ct 
7723 -387 7743 -399 7765 -406 ct 7787 -414 7811 -417 7836 -417 ct 7871 -417 7899 -412 7923 -401 ct 
7946 -390 7964 -374 7978 -355 ct 7992 -335 8002 -312 8008 -286 ct 8014 -259 8017 -231 8017 -200 ct 
8017 -191 l  7725 -191 l  p
7947 -243 m  7943 -286 7932 -318 7914 -337 ct 7895 -357 7869 -367 7835 -367 ct 
7824 -367 7812 -365 7799 -362 ct 7787 -358 7775 -351 7765 -342 ct 7754 -333 7745 -320 7738 -304 ct 
7731 -288 7726 -268 7725 -243 ct 7947 -243 l  p ef
8402 -113 m  8402 -94 8398 -77 8391 -62 ct 8383 -47 8373 -34 8358 -24 ct 8344 -13 8327 -6 8306 0 ct 
8286 5 8262 8 8236 8 ct 8212 8 8190 6 8171 3 ct 8152 -1 8136 -7 8121 -15 ct 8107 -23 8095 -34 8085 -47 ct 
8075 -60 8068 -77 8064 -96 ct 8124 -108 l  8130 -86 8142 -70 8160 -59 ct 8178 -49 8203 -44 8236 -44 ct 
8250 -44 8264 -45 8276 -47 ct 8288 -49 8299 -53 8308 -57 ct 8316 -62 8323 -69 8328 -77 ct 
8333 -85 8336 -96 8336 -108 ct 8336 -120 8333 -130 8327 -138 ct 8321 -146 8313 -153 8303 -158 ct 
8292 -164 8280 -168 8265 -172 ct 8250 -176 8234 -180 8216 -185 ct 8200 -189 8184 -194 8167 -200 ct 
8151 -205 8137 -212 8124 -221 ct 8111 -229 8100 -240 8092 -253 ct 8084 -266 8080 -282 8080 -302 ct 
8080 -339 8093 -368 8120 -387 ct 8147 -407 8185 -417 8236 -417 ct 8282 -417 8318 -409 8344 -393 ct 
8371 -377 8388 -351 8395 -316 ct 8333 -308 l  8331 -319 8327 -328 8321 -335 ct 
8315 -342 8307 -348 8299 -353 ct 8290 -357 8281 -360 8270 -362 ct 8259 -364 8248 -365 8236 -365 ct 
8206 -365 8183 -360 8168 -351 ct 8154 -342 8146 -327 8146 -308 ct 8146 -297 8149 -288 8154 -281 ct 
8160 -274 8167 -268 8177 -263 ct 8187 -258 8198 -254 8212 -250 ct 8226 -246 8241 -242 8257 -238 ct 
8268 -235 8279 -233 8291 -229 ct 8302 -226 8313 -222 8324 -218 ct 8334 -214 8345 -208 8354 -202 ct 
8364 -196 8372 -189 8379 -181 ct 8386 -173 8392 -163 8396 -152 ct 8400 -141 8402 -128 8402 -113 ct 
p ef
8559 -340 m  8567 -354 8575 -366 8584 -376 ct 8593 -385 8602 -393 8613 -400 ct 
8624 -406 8635 -411 8648 -414 ct 8660 -417 8675 -418 8690 -418 ct 8716 -418 8738 -414 8755 -407 ct 
8772 -400 8785 -390 8795 -378 ct 8804 -365 8811 -350 8815 -332 ct 8818 -314 8820 -295 8820 -274 ct 
8820 0 l  8752 0 l  8752 -260 l  8752 -278 8751 -293 8748 -306 ct 8746 -319 8742 -330 8736 -339 ct 
8730 -348 8721 -354 8710 -359 ct 8699 -363 8685 -365 8667 -365 ct 8651 -365 8636 -362 8623 -357 ct 
8610 -351 8599 -343 8590 -332 ct 8581 -321 8574 -308 8569 -293 ct 8564 -278 8561 -261 8561 -242 ct 
8561 0 l  8493 0 l  8493 -563 l  8561 -563 l  8561 -416 l  8561 -408 8561 -400 8561 -391 ct 
8560 -383 8560 -375 8560 -368 ct 8559 -361 8559 -355 8559 -350 ct 8558 -345 8558 -342 8558 -340 ct 
8559 -340 l  p ef
9262 -205 m  9262 -133 9246 -80 9215 -45 ct 9183 -10 9137 8 9077 8 ct 9049 8 9023 4 9001 -5 ct 
8978 -13 8959 -27 8944 -44 ct 8928 -62 8916 -84 8908 -111 ct 8900 -138 8896 -169 8896 -205 ct 
8896 -347 8957 -417 9079 -417 ct 9111 -417 9139 -413 9162 -404 ct 9185 -395 9204 -382 9219 -364 ct 
9233 -347 9244 -325 9251 -298 ct 9258 -271 9262 -240 9262 -205 ct p
9190 -205 m  9190 -237 9188 -263 9183 -284 ct 9178 -305 9171 -321 9161 -334 ct 
9152 -346 9140 -355 9127 -360 ct 9113 -365 9098 -367 9081 -367 ct 9063 -367 9047 -364 9033 -359 ct 
9019 -354 9007 -345 8998 -333 ct 8988 -320 8980 -304 8975 -283 ct 8970 -262 8967 -236 8967 -205 ct 
8967 -173 8970 -147 8976 -126 ct 8981 -105 8989 -89 8998 -76 ct 9008 -64 9020 -55 9033 -50 ct 
9046 -45 9061 -42 9076 -42 ct 9094 -42 9110 -45 9124 -50 ct 9138 -55 9150 -63 9160 -76 ct 
9170 -88 9177 -105 9182 -126 ct 9188 -147 9190 -173 9190 -205 ct p ef
9338 0 m  9338 -563 l  9407 -563 l  9407 0 l  9338 0 l  p ef
9756 -66 m  9743 -40 9727 -21 9706 -9 ct 9685 2 9659 8 9628 8 ct 9577 8 9539 -10 9514 -45 ct 
9490 -80 9478 -132 9478 -203 ct 9478 -346 9528 -418 9628 -418 ct 9659 -418 9685 -412 9706 -401 ct 
9727 -390 9743 -371 9756 -347 ct 9757 -347 l  9757 -349 9757 -353 9757 -359 ct 
9757 -364 9756 -370 9756 -376 ct 9756 -382 9756 -387 9756 -393 ct 9756 -398 9756 -402 9756 -404 ct 
9756 -563 l  9824 -563 l  9824 -83 l  9824 -73 9824 -63 9824 -54 ct 9825 -45 9825 -37 9825 -29 ct 
9825 -22 9826 -15 9826 -10 ct 9826 -4 9826 -1 9827 -1 ct 9761 -1 l  9761 -4 9760 -7 9760 -12 ct 
9760 -17 9759 -22 9759 -28 ct 9759 -34 9758 -40 9758 -46 ct 9758 -53 9758 -59 9758 -66 ct 
9756 -66 l  p
9549 -206 m  9549 -177 9551 -153 9555 -133 ct 9558 -112 9564 -96 9572 -83 ct 
9579 -70 9589 -60 9601 -54 ct 9614 -48 9628 -45 9646 -45 ct 9664 -45 9680 -48 9693 -54 ct 
9707 -60 9719 -69 9728 -82 ct 9737 -95 9744 -112 9749 -133 ct 9754 -154 9756 -180 9756 -210 ct 
9756 -239 9754 -264 9749 -284 ct 9744 -304 9737 -320 9728 -333 ct 9718 -345 9707 -354 9693 -359 ct 
9680 -365 9664 -368 9647 -368 ct 9630 -368 9616 -365 9603 -359 ct 9591 -353 9581 -344 9573 -331 ct 
9565 -318 9559 -301 9555 -280 ct 9551 -260 9549 -235 9549 -206 ct p ef
pom
pum
1672 19091 t
89.9 r 410 0 m  124 -455 l  125 -443 125 -431 126 -418 ct 127 -408 127 -397 128 -386 ct 
128 -374 128 -364 128 -355 ct 128 0 l  64 0 l  64 -535 l  148 -535 l  437 -76 l 
436 -89 435 -101 434 -113 ct 434 -124 433 -136 433 -148 ct 432 -161 432 -173 432 -184 ct 
432 -535 l  497 -535 l  497 0 l  410 0 l  p ef
675 -410 m  675 -150 l  675 -130 676 -113 679 -100 ct 682 -86 687 -76 694 -67 ct 
700 -59 709 -53 720 -50 ct 730 -46 744 -45 759 -45 ct 776 -45 790 -48 803 -53 ct 
816 -59 827 -67 837 -78 ct 846 -89 853 -102 858 -118 ct 863 -134 866 -152 866 -172 ct 
866 -410 l  934 -410 l  934 -86 l  934 -77 934 -68 934 -59 ct 934 -49 934 -40 935 -32 ct 
935 -23 935 -16 935 -10 ct 936 -4 936 -1 936 -1 ct 872 -1 l  871 -2 871 -5 871 -11 ct 
871 -16 870 -23 870 -30 ct 870 -37 869 -44 869 -51 ct 869 -59 869 -65 869 -70 ct 
867 -70 l  861 -58 854 -47 846 -38 ct 838 -28 829 -20 819 -13 ct 808 -6 796 -1 783 3 ct 
770 6 754 8 736 8 ct 714 8 694 5 678 0 ct 661 -6 648 -15 637 -26 ct 626 -38 619 -53 614 -71 ct 
609 -89 606 -111 606 -137 ct 606 -410 l  675 -410 l  p ef
1270 0 m  1270 -260 l  1270 -280 1269 -297 1266 -310 ct 1264 -324 1259 -335 1254 -343 ct 
1248 -351 1240 -357 1230 -360 ct 1221 -364 1209 -365 1195 -365 ct 1181 -365 1168 -362 1156 -357 ct 
1144 -351 1134 -343 1126 -332 ct 1118 -321 1112 -308 1107 -292 ct 1103 -276 1101 -258 1101 -238 ct 
1101 0 l  1033 0 l  1033 -324 l  1033 -332 1033 -341 1033 -351 ct 1032 -360 1032 -369 1032 -378 ct 
1032 -386 1032 -394 1031 -400 ct 1031 -406 1031 -409 1031 -409 ct 1095 -409 l 
1095 -408 1095 -404 1096 -399 ct 1096 -393 1096 -387 1097 -380 ct 1097 -373 1097 -366 1098 -359 ct 
1098 -351 1098 -345 1098 -340 ct 1099 -340 l  1105 -352 1112 -363 1119 -372 ct 
1126 -382 1134 -390 1144 -397 ct 1153 -404 1164 -409 1176 -413 ct 1188 -416 1203 -418 1219 -418 ct 
1250 -418 1274 -412 1293 -399 ct 1311 -387 1323 -367 1330 -340 ct 1331 -340 l 
1337 -352 1344 -363 1352 -372 ct 1359 -382 1368 -390 1378 -397 ct 1388 -404 1400 -409 1412 -413 ct 
1425 -416 1440 -418 1456 -418 ct 1476 -418 1494 -415 1509 -410 ct 1524 -404 1537 -396 1546 -384 ct 
1556 -372 1563 -357 1567 -339 ct 1572 -321 1574 -299 1574 -274 ct 1574 0 l  1507 0 l 
1507 -260 l  1507 -280 1506 -297 1503 -310 ct 1501 -324 1496 -335 1490 -343 ct 
1484 -351 1477 -357 1467 -360 ct 1457 -364 1446 -365 1432 -365 ct 1417 -365 1404 -363 1393 -357 ct 
1381 -352 1371 -344 1363 -333 ct 1355 -322 1349 -309 1344 -293 ct 1340 -277 1337 -259 1337 -238 ct 
1337 0 l  1270 0 l  p ef
2013 -207 m  2013 -64 1963 7 1862 7 ct 1831 7 1805 2 1785 -9 ct 1764 -21 1747 -39 1735 -64 ct 
1734 -64 l  1734 -57 1734 -50 1733 -43 ct 1733 -36 1732 -29 1732 -23 ct 1732 -17 1731 -12 1731 -7 ct 
1731 -3 1730 -1 1730 -1 ct 1664 -1 l  1664 -3 1665 -7 1665 -12 ct 1665 -18 1665 -24 1666 -32 ct 
1666 -40 1666 -48 1666 -57 ct 1666 -66 1666 -76 1666 -85 ct 1666 -563 l  1735 -563 l 
1735 -402 l  1735 -395 1734 -388 1734 -381 ct 1734 -374 1734 -368 1734 -362 ct 
1733 -356 1733 -350 1733 -344 ct 1735 -344 l  1747 -371 1764 -390 1785 -401 ct 
1806 -412 1831 -418 1862 -418 ct 1914 -418 1952 -401 1976 -366 ct 2001 -331 2013 -278 2013 -207 ct 
p
1941 -205 m  1941 -233 1940 -257 1936 -278 ct 1933 -298 1927 -315 1919 -328 ct 
1911 -341 1901 -350 1889 -356 ct 1877 -362 1862 -365 1845 -365 ct 1827 -365 1811 -362 1797 -357 ct 
1783 -351 1772 -341 1763 -329 ct 1754 -316 1746 -299 1742 -278 ct 1737 -257 1735 -231 1735 -201 ct 
1735 -171 1737 -147 1742 -127 ct 1746 -107 1754 -91 1763 -78 ct 1772 -66 1783 -57 1797 -51 ct 
1811 -46 1826 -43 1844 -43 ct 1861 -43 1875 -46 1887 -52 ct 1899 -58 1909 -67 1918 -80 ct 
1926 -93 1932 -109 1936 -130 ct 1939 -151 1941 -176 1941 -205 ct p ef
2142 -191 m  2142 -169 2144 -149 2148 -131 ct 2153 -113 2159 -97 2169 -84 ct 
2178 -71 2190 -61 2204 -54 ct 2219 -47 2236 -43 2256 -43 ct 2286 -43 2309 -49 2327 -61 ct 
2345 -73 2357 -88 2363 -106 ct 2423 -89 l  2419 -78 2413 -66 2405 -55 ct 2397 -43 2387 -33 2374 -24 ct 
2361 -14 2345 -7 2326 -1 ct 2307 5 2283 8 2256 8 ct 2195 8 2149 -10 2118 -46 ct 
2086 -82 2070 -136 2070 -207 ct 2070 -246 2075 -278 2084 -305 ct 2094 -332 2107 -353 2124 -370 ct 
2140 -387 2160 -399 2182 -406 ct 2204 -414 2228 -417 2253 -417 ct 2288 -417 2316 -412 2340 -401 ct 
2363 -390 2381 -374 2395 -355 ct 2409 -335 2419 -312 2425 -286 ct 2431 -259 2434 -231 2434 -200 ct 
2434 -191 l  2142 -191 l  p
2364 -243 m  2360 -286 2349 -318 2331 -337 ct 2312 -357 2286 -367 2252 -367 ct 
2241 -367 2229 -365 2216 -362 ct 2204 -358 2192 -351 2182 -342 ct 2171 -333 2162 -320 2155 -304 ct 
2148 -288 2143 -268 2142 -243 ct 2364 -243 l  p ef
2515 0 m  2515 -315 l  2515 -323 2515 -332 2515 -341 ct 2514 -350 2514 -359 2514 -367 ct 
2514 -376 2514 -383 2513 -391 ct 2513 -398 2513 -405 2513 -410 ct 2577 -410 l 
2577 -405 2578 -398 2578 -390 ct 2578 -383 2579 -375 2579 -368 ct 2579 -360 2580 -352 2580 -345 ct 
2580 -338 2580 -332 2580 -327 ct 2582 -327 l  2586 -342 2591 -356 2597 -367 ct 
2602 -379 2609 -388 2616 -396 ct 2623 -403 2632 -409 2642 -413 ct 2652 -416 2664 -418 2679 -418 ct 
2684 -418 2690 -418 2695 -417 ct 2700 -416 2704 -415 2707 -414 ct 2707 -352 l 
2702 -353 2697 -354 2691 -354 ct 2685 -355 2678 -355 2670 -355 ct 2655 -355 2641 -352 2630 -345 ct 
2619 -338 2610 -328 2603 -315 ct 2596 -303 2591 -288 2588 -271 ct 2585 -253 2583 -234 2583 -214 ct 
2583 0 l  2515 0 l  p ef
3336 -205 m  3336 -133 3320 -80 3289 -45 ct 3257 -10 3211 8 3151 8 ct 3123 8 3097 4 3075 -5 ct 
3052 -13 3033 -27 3018 -44 ct 3002 -62 2990 -84 2982 -111 ct 2974 -138 2970 -169 2970 -205 ct 
2970 -347 3031 -417 3153 -417 ct 3185 -417 3213 -413 3236 -404 ct 3259 -395 3278 -382 3293 -364 ct 
3307 -347 3318 -325 3325 -298 ct 3332 -271 3336 -240 3336 -205 ct p
3264 -205 m  3264 -237 3262 -263 3257 -284 ct 3252 -305 3245 -321 3235 -334 ct 
3226 -346 3214 -355 3201 -360 ct 3187 -365 3172 -367 3155 -367 ct 3137 -367 3121 -364 3107 -359 ct 
3093 -354 3081 -345 3072 -333 ct 3062 -320 3054 -304 3049 -283 ct 3044 -262 3041 -236 3041 -205 ct 
3041 -173 3044 -147 3050 -126 ct 3055 -105 3063 -89 3072 -76 ct 3082 -64 3094 -55 3107 -50 ct 
3120 -45 3135 -42 3150 -42 ct 3168 -42 3184 -45 3198 -50 ct 3212 -55 3224 -63 3234 -76 ct 
3244 -88 3251 -105 3256 -126 ct 3262 -147 3264 -173 3264 -205 ct p ef
3497 -361 m  3497 -1 l  3429 -1 l  3429 -361 l  3371 -361 l  3371 -411 l 
3429 -411 l  3429 -457 l  3429 -472 3430 -486 3433 -499 ct 3436 -512 3441 -523 3448 -532 ct 
3456 -542 3466 -549 3479 -555 ct 3491 -560 3508 -563 3529 -563 ct 3537 -563 3545 -563 3554 -562 ct 
3563 -561 3570 -560 3577 -558 ct 3577 -506 l  3572 -507 3567 -508 3562 -509 ct 
3556 -509 3551 -510 3546 -510 ct 3536 -510 3528 -508 3522 -505 ct 3515 -503 3510 -499 3506 -493 ct 
3503 -488 3500 -482 3499 -474 ct 3497 -467 3497 -458 3497 -448 ct 3497 -411 l 
3577 -411 l  3577 -361 l  3497 -361 l  p ef
pom
pum
2519 20546 t
89.9 r 173 8 m  130 8 95 -3 67 -26 ct 39 -48 21 -84 12 -132 ct 83 -144 l  86 -128 90 -114 95 -102 ct 
101 -90 108 -80 116 -73 ct 124 -65 133 -60 143 -56 ct 153 -53 163 -51 174 -51 ct 
200 -51 221 -60 236 -78 ct 251 -96 258 -122 258 -157 ct 258 -475 l  156 -475 l 
156 -534 l  330 -534 l  330 -159 l  330 -133 327 -110 320 -90 ct 313 -69 302 -52 289 -37 ct 
275 -23 259 -12 239 -4 ct 220 4 198 8 173 8 ct p ef
554 8 m  513 8 482 -3 461 -25 ct 440 -47 430 -77 430 -115 ct 430 -142 435 -164 445 -182 ct 
456 -199 469 -213 485 -223 ct 502 -232 521 -239 542 -243 ct 563 -247 585 -249 607 -249 ct 
699 -249 l  699 -271 l  699 -289 697 -303 694 -315 ct 690 -327 685 -337 677 -344 ct 
670 -352 661 -357 650 -361 ct 639 -364 626 -366 611 -366 ct 598 -366 586 -365 575 -363 ct 
565 -361 556 -358 548 -353 ct 540 -348 534 -341 529 -333 ct 524 -324 521 -313 519 -301 ct 
448 -307 l  451 -323 455 -338 463 -352 ct 470 -365 480 -377 493 -387 ct 506 -397 522 -404 542 -410 ct 
561 -415 585 -418 613 -418 ct 664 -418 703 -406 729 -382 ct 755 -359 768 -325 768 -280 ct 
768 -103 l  768 -83 771 -68 776 -57 ct 781 -47 791 -42 806 -42 ct 810 -42 814 -42 818 -43 ct 
821 -43 825 -44 829 -45 ct 829 -2 l  820 0 811 1 803 2 ct 795 3 786 4 776 4 ct 
763 4 752 2 743 -1 ct 734 -5 726 -10 720 -17 ct 714 -24 710 -32 707 -42 ct 704 -53 702 -64 701 -78 ct 
699 -78 l  692 -65 684 -53 675 -42 ct 666 -32 656 -23 644 -15 ct 633 -8 620 -2 605 2 ct 
590 6 573 8 554 8 ct p
569 -43 m  591 -43 610 -47 626 -55 ct 643 -63 656 -73 667 -85 ct 678 -98 686 -111 691 -126 ct 
696 -140 699 -154 699 -168 ct 699 -201 l  624 -201 l  608 -201 592 -200 577 -198 ct 
562 -196 549 -191 537 -185 ct 526 -179 517 -170 510 -158 ct 503 -147 500 -132 500 -113 ct 
500 -91 506 -74 518 -62 ct 530 -49 547 -43 569 -43 ct p ef
924 -207 m  924 -183 926 -162 929 -142 ct 933 -122 938 -105 947 -91 ct 955 -77 965 -65 979 -58 ct 
992 -50 1008 -46 1028 -46 ct 1052 -46 1072 -52 1088 -65 ct 1105 -78 1115 -97 1119 -124 ct 
1188 -124 l  1185 -107 1180 -90 1173 -74 ct 1165 -58 1155 -44 1142 -32 ct 1129 -20 1113 -10 1094 -3 ct 
1076 4 1054 8 1030 8 ct 997 8 970 3 948 -8 ct 925 -19 907 -34 893 -53 ct 879 -72 869 -95 862 -121 ct 
856 -147 853 -175 853 -205 ct 853 -233 855 -257 860 -278 ct 864 -299 871 -318 879 -333 ct 
887 -349 897 -363 908 -373 ct 919 -384 931 -393 944 -399 ct 957 -406 971 -410 985 -413 ct 
1000 -416 1014 -417 1029 -417 ct 1052 -417 1072 -414 1090 -408 ct 1108 -402 1124 -393 1137 -382 ct 
1150 -371 1160 -358 1168 -343 ct 1176 -328 1182 -312 1185 -295 ct 1115 -290 l 
1112 -312 1103 -331 1088 -344 ct 1074 -357 1053 -364 1027 -364 ct 1007 -364 991 -361 978 -354 ct 
965 -348 955 -338 947 -325 ct 938 -312 933 -296 929 -276 ct 926 -256 924 -233 924 -207 ct 
p ef
1321 -207 m  1321 -183 1323 -162 1326 -142 ct 1330 -122 1335 -105 1344 -91 ct 
1352 -77 1362 -65 1376 -58 ct 1389 -50 1405 -46 1425 -46 ct 1449 -46 1469 -52 1485 -65 ct 
1502 -78 1512 -97 1516 -124 ct 1585 -124 l  1582 -107 1577 -90 1570 -74 ct 1562 -58 1552 -44 1539 -32 ct 
1526 -20 1510 -10 1491 -3 ct 1473 4 1451 8 1427 8 ct 1394 8 1367 3 1345 -8 ct 1322 -19 1304 -34 1290 -53 ct 
1276 -72 1266 -95 1259 -121 ct 1253 -147 1250 -175 1250 -205 ct 1250 -233 1252 -257 1257 -278 ct 
1261 -299 1268 -318 1276 -333 ct 1284 -349 1294 -363 1305 -373 ct 1316 -384 1328 -393 1341 -399 ct 
1354 -406 1368 -410 1382 -413 ct 1397 -416 1411 -417 1426 -417 ct 1449 -417 1469 -414 1487 -408 ct 
1505 -402 1521 -393 1534 -382 ct 1547 -371 1557 -358 1565 -343 ct 1573 -328 1579 -312 1582 -295 ct 
1512 -290 l  1509 -312 1500 -331 1485 -344 ct 1471 -357 1450 -364 1424 -364 ct 
1404 -364 1388 -361 1375 -354 ct 1362 -348 1352 -338 1344 -325 ct 1335 -312 1330 -296 1326 -276 ct 
1323 -256 1321 -233 1321 -207 ct p ef
1771 8 m  1730 8 1699 -3 1678 -25 ct 1657 -47 1647 -77 1647 -115 ct 1647 -142 1652 -164 1662 -182 ct 
1673 -199 1686 -213 1702 -223 ct 1719 -232 1738 -239 1759 -243 ct 1780 -247 1802 -249 1824 -249 ct 
1916 -249 l  1916 -271 l  1916 -289 1914 -303 1911 -315 ct 1907 -327 1902 -337 1894 -344 ct 
1887 -352 1878 -357 1867 -361 ct 1856 -364 1843 -366 1828 -366 ct 1815 -366 1803 -365 1792 -363 ct 
1782 -361 1773 -358 1765 -353 ct 1757 -348 1751 -341 1746 -333 ct 1741 -324 1738 -313 1736 -301 ct 
1665 -307 l  1668 -323 1672 -338 1680 -352 ct 1687 -365 1697 -377 1710 -387 ct 
1723 -397 1739 -404 1759 -410 ct 1778 -415 1802 -418 1830 -418 ct 1881 -418 1920 -406 1946 -382 ct 
1972 -359 1985 -325 1985 -280 ct 1985 -103 l  1985 -83 1988 -68 1993 -57 ct 
1998 -47 2008 -42 2023 -42 ct 2027 -42 2031 -42 2035 -43 ct 2038 -43 2042 -44 2046 -45 ct 
2046 -2 l  2037 0 2028 1 2020 2 ct 2012 3 2003 4 1993 4 ct 1980 4 1969 2 1960 -1 ct 
1951 -5 1943 -10 1937 -17 ct 1931 -24 1927 -32 1924 -42 ct 1921 -53 1919 -64 1918 -78 ct 
1916 -78 l  1909 -65 1901 -53 1892 -42 ct 1883 -32 1873 -23 1861 -15 ct 1850 -8 1837 -2 1822 2 ct 
1807 6 1790 8 1771 8 ct p
1786 -43 m  1808 -43 1827 -47 1843 -55 ct 1860 -63 1873 -73 1884 -85 ct 1895 -98 1903 -111 1908 -126 ct 
1913 -140 1916 -154 1916 -168 ct 1916 -201 l  1841 -201 l  1825 -201 1809 -200 1794 -198 ct 
1779 -196 1766 -191 1754 -185 ct 1743 -179 1734 -170 1727 -158 ct 1720 -147 1717 -132 1717 -113 ct 
1717 -91 1723 -74 1735 -62 ct 1747 -49 1764 -43 1786 -43 ct p ef
2091 0 m  2091 -315 l  2091 -323 2091 -332 2091 -341 ct 2090 -350 2090 -359 2090 -367 ct 
2090 -376 2090 -383 2089 -391 ct 2089 -398 2089 -405 2089 -410 ct 2153 -410 l 
2153 -405 2154 -398 2154 -390 ct 2154 -383 2155 -375 2155 -368 ct 2155 -360 2156 -352 2156 -345 ct 
2156 -338 2156 -332 2156 -327 ct 2158 -327 l  2162 -342 2167 -356 2173 -367 ct 
2178 -379 2185 -388 2192 -396 ct 2199 -403 2208 -409 2218 -413 ct 2228 -416 2240 -418 2255 -418 ct 
2260 -418 2266 -418 2271 -417 ct 2276 -416 2280 -415 2283 -414 ct 2283 -352 l 
2278 -353 2273 -354 2267 -354 ct 2261 -355 2254 -355 2246 -355 ct 2231 -355 2217 -352 2206 -345 ct 
2195 -338 2186 -328 2179 -315 ct 2172 -303 2167 -288 2164 -271 ct 2161 -253 2159 -234 2159 -214 ct 
2159 0 l  2091 0 l  p ef
2613 -66 m  2600 -40 2584 -21 2563 -9 ct 2542 2 2516 8 2485 8 ct 2434 8 2396 -10 2371 -45 ct 
2347 -80 2335 -132 2335 -203 ct 2335 -346 2385 -418 2485 -418 ct 2516 -418 2542 -412 2563 -401 ct 
2584 -390 2600 -371 2613 -347 ct 2614 -347 l  2614 -349 2614 -353 2614 -359 ct 
2614 -364 2613 -370 2613 -376 ct 2613 -382 2613 -387 2613 -393 ct 2613 -398 2613 -402 2613 -404 ct 
2613 -563 l  2681 -563 l  2681 -83 l  2681 -73 2681 -63 2681 -54 ct 2682 -45 2682 -37 2682 -29 ct 
2682 -22 2683 -15 2683 -10 ct 2683 -4 2683 -1 2684 -1 ct 2618 -1 l  2618 -4 2617 -7 2617 -12 ct 
2617 -17 2616 -22 2616 -28 ct 2616 -34 2615 -40 2615 -46 ct 2615 -53 2615 -59 2615 -66 ct 
2613 -66 l  p
2406 -206 m  2406 -177 2408 -153 2412 -133 ct 2415 -112 2421 -96 2429 -83 ct 
2436 -70 2446 -60 2458 -54 ct 2471 -48 2485 -45 2503 -45 ct 2521 -45 2537 -48 2550 -54 ct 
2564 -60 2576 -69 2585 -82 ct 2594 -95 2601 -112 2606 -133 ct 2611 -154 2613 -180 2613 -210 ct 
2613 -239 2611 -264 2606 -284 ct 2601 -304 2594 -320 2585 -333 ct 2575 -345 2564 -354 2550 -359 ct 
2537 -365 2521 -368 2504 -368 ct 2487 -368 2473 -365 2460 -359 ct 2448 -353 2438 -344 2430 -331 ct 
2422 -318 2416 -301 2412 -280 ct 2408 -260 2406 -235 2406 -206 ct p ef
3503 -269 m  3503 -228 3497 -190 3485 -155 ct 3473 -121 3456 -92 3433 -68 ct 
3411 -44 3383 -25 3350 -12 ct 3317 1 3280 8 3238 8 ct 3194 8 3156 1 3123 -13 ct 
3090 -26 3062 -46 3040 -70 ct 3018 -95 3002 -124 2990 -158 ct 2979 -192 2974 -229 2974 -269 ct 
2974 -311 2980 -349 2991 -382 ct 3003 -416 3020 -445 3042 -468 ct 3065 -492 3093 -510 3126 -523 ct 
3158 -536 3196 -542 3239 -542 ct 3281 -542 3319 -536 3352 -523 ct 3385 -510 3413 -491 3435 -468 ct 
3457 -444 3474 -415 3486 -382 ct 3498 -348 3503 -311 3503 -269 ct p
3430 -269 m  3430 -301 3425 -331 3417 -357 ct 3409 -383 3397 -406 3381 -424 ct 
3365 -443 3345 -458 3321 -468 ct 3297 -478 3270 -483 3239 -483 ct 3207 -483 3179 -478 3155 -468 ct 
3131 -458 3111 -443 3095 -424 ct 3079 -406 3067 -383 3059 -357 ct 3051 -331 3047 -301 3047 -269 ct 
3047 -237 3051 -208 3060 -181 ct 3068 -154 3080 -131 3096 -112 ct 3112 -93 3132 -78 3156 -67 ct 
3180 -56 3207 -51 3238 -51 ct 3272 -51 3300 -56 3324 -67 ct 3349 -78 3368 -93 3384 -112 ct 
3399 -132 3411 -155 3418 -182 ct 3426 -208 3430 -238 3430 -269 ct p ef
3944 -207 m  3944 -176 3941 -147 3936 -121 ct 3931 -95 3923 -72 3911 -53 ct 
3899 -34 3884 -19 3865 -9 ct 3845 2 3821 7 3793 7 ct 3764 7 3738 2 3716 -9 ct 3694 -20 3677 -39 3666 -64 ct 
3664 -64 l  3664 -63 3664 -61 3665 -57 ct 3665 -53 3665 -48 3665 -42 ct 3665 -36 3665 -29 3665 -22 ct 
3665 -14 3666 -7 3666 1 ct 3666 161 l  3597 161 l  3597 -328 l  3597 -338 3597 -347 3597 -357 ct 
3597 -366 3597 -374 3597 -381 ct 3596 -389 3596 -395 3596 -401 ct 3596 -406 3595 -409 3595 -409 ct 
3661 -409 l  3661 -408 3662 -405 3662 -401 ct 3662 -396 3663 -391 3663 -385 ct 
3663 -379 3664 -372 3664 -365 ct 3665 -358 3665 -351 3665 -345 ct 3666 -345 l 
3673 -358 3680 -369 3688 -378 ct 3696 -387 3705 -395 3716 -401 ct 3726 -407 3737 -411 3750 -414 ct 
3763 -416 3777 -418 3793 -418 ct 3821 -418 3845 -413 3865 -403 ct 3884 -392 3899 -378 3911 -360 ct 
3923 -342 3931 -319 3936 -294 ct 3941 -268 3944 -239 3944 -207 ct p
3872 -206 m  3872 -231 3871 -254 3868 -273 ct 3865 -293 3860 -310 3852 -323 ct 
3845 -337 3835 -347 3822 -354 ct 3810 -361 3794 -365 3776 -365 ct 3761 -365 3746 -363 3733 -359 ct 
3720 -354 3708 -346 3698 -334 ct 3688 -322 3680 -305 3674 -284 ct 3668 -262 3666 -235 3666 -200 ct 
3666 -171 3668 -147 3673 -127 ct 3677 -107 3685 -90 3694 -78 ct 3703 -66 3714 -57 3728 -51 ct 
3742 -46 3757 -43 3775 -43 ct 3794 -43 3810 -47 3822 -54 ct 3835 -61 3845 -72 3852 -86 ct 
3860 -100 3865 -117 3868 -137 ct 3871 -157 3872 -180 3872 -206 ct p ef
4074 -191 m  4074 -169 4076 -149 4080 -131 ct 4085 -113 4091 -97 4101 -84 ct 
4110 -71 4122 -61 4136 -54 ct 4151 -47 4168 -43 4188 -43 ct 4218 -43 4241 -49 4259 -61 ct 
4277 -73 4289 -88 4295 -106 ct 4355 -89 l  4351 -78 4345 -66 4337 -55 ct 4329 -43 4319 -33 4306 -24 ct 
4293 -14 4277 -7 4258 -1 ct 4239 5 4215 8 4188 8 ct 4127 8 4081 -10 4050 -46 ct 
4018 -82 4002 -136 4002 -207 ct 4002 -246 4007 -278 4016 -305 ct 4026 -332 4039 -353 4056 -370 ct 
4072 -387 4092 -399 4114 -406 ct 4136 -414 4160 -417 4185 -417 ct 4220 -417 4248 -412 4272 -401 ct 
4295 -390 4313 -374 4327 -355 ct 4341 -335 4351 -312 4357 -286 ct 4363 -259 4366 -231 4366 -200 ct 
4366 -191 l  4074 -191 l  p
4296 -243 m  4292 -286 4281 -318 4263 -337 ct 4244 -357 4218 -367 4184 -367 ct 
4173 -367 4161 -365 4148 -362 ct 4136 -358 4124 -351 4114 -342 ct 4103 -333 4094 -320 4087 -304 ct 
4080 -288 4075 -268 4074 -243 ct 4296 -243 l  p ef
4446 0 m  4446 -315 l  4446 -323 4446 -332 4446 -341 ct 4445 -350 4445 -359 4445 -367 ct 
4445 -376 4445 -383 4444 -391 ct 4444 -398 4444 -405 4444 -410 ct 4508 -410 l 
4508 -405 4509 -398 4509 -390 ct 4509 -383 4510 -375 4510 -368 ct 4510 -360 4511 -352 4511 -345 ct 
4511 -338 4511 -332 4511 -327 ct 4513 -327 l  4517 -342 4522 -356 4528 -367 ct 
4533 -379 4540 -388 4547 -396 ct 4554 -403 4563 -409 4573 -413 ct 4583 -416 4595 -418 4610 -418 ct 
4615 -418 4621 -418 4626 -417 ct 4631 -416 4635 -415 4638 -414 ct 4638 -352 l 
4633 -353 4628 -354 4622 -354 ct 4616 -355 4609 -355 4601 -355 ct 4586 -355 4572 -352 4561 -345 ct 
4550 -338 4541 -328 4534 -315 ct 4527 -303 4522 -288 4519 -271 ct 4516 -253 4514 -234 4514 -214 ct 
4514 0 l  4446 0 l  p ef
4814 8 m  4773 8 4742 -3 4721 -25 ct 4700 -47 4690 -77 4690 -115 ct 4690 -142 4695 -164 4705 -182 ct 
4716 -199 4729 -213 4745 -223 ct 4762 -232 4781 -239 4802 -243 ct 4823 -247 4845 -249 4867 -249 ct 
4959 -249 l  4959 -271 l  4959 -289 4957 -303 4954 -315 ct 4950 -327 4945 -337 4937 -344 ct 
4930 -352 4921 -357 4910 -361 ct 4899 -364 4886 -366 4871 -366 ct 4858 -366 4846 -365 4835 -363 ct 
4825 -361 4816 -358 4808 -353 ct 4800 -348 4794 -341 4789 -333 ct 4784 -324 4781 -313 4779 -301 ct 
4708 -307 l  4711 -323 4715 -338 4723 -352 ct 4730 -365 4740 -377 4753 -387 ct 
4766 -397 4782 -404 4802 -410 ct 4821 -415 4845 -418 4873 -418 ct 4924 -418 4963 -406 4989 -382 ct 
5015 -359 5028 -325 5028 -280 ct 5028 -103 l  5028 -83 5031 -68 5036 -57 ct 
5041 -47 5051 -42 5066 -42 ct 5070 -42 5074 -42 5078 -43 ct 5081 -43 5085 -44 5089 -45 ct 
5089 -2 l  5080 0 5071 1 5063 2 ct 5055 3 5046 4 5036 4 ct 5023 4 5012 2 5003 -1 ct 
4994 -5 4986 -10 4980 -17 ct 4974 -24 4970 -32 4967 -42 ct 4964 -53 4962 -64 4961 -78 ct 
4959 -78 l  4952 -65 4944 -53 4935 -42 ct 4926 -32 4916 -23 4904 -15 ct 4893 -8 4880 -2 4865 2 ct 
4850 6 4833 8 4814 8 ct p
4829 -43 m  4851 -43 4870 -47 4886 -55 ct 4903 -63 4916 -73 4927 -85 ct 4938 -98 4946 -111 4951 -126 ct 
4956 -140 4959 -154 4959 -168 ct 4959 -201 l  4884 -201 l  4868 -201 4852 -200 4837 -198 ct 
4822 -196 4809 -191 4797 -185 ct 4786 -179 4777 -170 4770 -158 ct 4763 -147 4760 -132 4760 -113 ct 
4760 -91 4766 -74 4778 -62 ct 4790 -49 4807 -43 4829 -43 ct p ef
5290 -3 m  5280 0 5269 2 5258 4 ct 5248 5 5235 6 5221 6 ct 5166 6 5139 -25 5139 -87 ct 
5139 -361 l  5092 -361 l  5092 -411 l  5142 -411 l  5162 -503 l  5207 -503 l 
5207 -411 l  5283 -411 l  5283 -361 l  5207 -361 l  5207 -102 l  5207 -82 5211 -68 5217 -60 ct 
5223 -52 5235 -48 5251 -48 ct 5257 -48 5263 -49 5270 -50 ct 5276 -51 5283 -52 5290 -54 ct 
5290 -3 l  p ef
5344 -498 m  5344 -563 l  5412 -563 l  5412 -498 l  5344 -498 l  p
5344 0 m  5344 -410 l  5412 -410 l  5412 0 l  5344 0 l  p ef
5849 -205 m  5849 -133 5833 -80 5802 -45 ct 5770 -10 5724 8 5664 8 ct 5636 8 5610 4 5588 -5 ct 
5565 -13 5546 -27 5531 -44 ct 5515 -62 5503 -84 5495 -111 ct 5487 -138 5483 -169 5483 -205 ct 
5483 -347 5544 -417 5666 -417 ct 5698 -417 5726 -413 5749 -404 ct 5772 -395 5791 -382 5806 -364 ct 
5820 -347 5831 -325 5838 -298 ct 5845 -271 5849 -240 5849 -205 ct p
5777 -205 m  5777 -237 5775 -263 5770 -284 ct 5765 -305 5758 -321 5748 -334 ct 
5739 -346 5727 -355 5714 -360 ct 5700 -365 5685 -367 5668 -367 ct 5650 -367 5634 -364 5620 -359 ct 
5606 -354 5594 -345 5585 -333 ct 5575 -320 5567 -304 5562 -283 ct 5557 -262 5554 -236 5554 -205 ct 
5554 -173 5557 -147 5563 -126 ct 5568 -105 5576 -89 5585 -76 ct 5595 -64 5607 -55 5620 -50 ct 
5633 -45 5648 -42 5663 -42 ct 5681 -42 5697 -45 5711 -50 ct 5725 -55 5737 -63 5747 -76 ct 
5757 -88 5764 -105 5769 -126 ct 5775 -147 5777 -173 5777 -205 ct p ef
6187 0 m  6187 -260 l  6187 -280 6185 -297 6182 -310 ct 6179 -324 6175 -335 6168 -343 ct 
6161 -351 6153 -357 6142 -360 ct 6131 -364 6118 -365 6102 -365 ct 6086 -365 6071 -362 6058 -357 ct 
6045 -351 6034 -343 6025 -332 ct 6016 -321 6009 -308 6004 -292 ct 5999 -276 5996 -258 5996 -238 ct 
5996 0 l  5928 0 l  5928 -324 l  5928 -332 5928 -341 5928 -351 ct 5927 -360 5927 -369 5927 -378 ct 
5927 -386 5927 -394 5926 -400 ct 5926 -406 5926 -409 5926 -409 ct 5990 -409 l 
5990 -408 5990 -404 5991 -399 ct 5991 -393 5991 -387 5992 -380 ct 5992 -373 5992 -366 5993 -359 ct 
5993 -351 5993 -345 5993 -340 ct 5994 -340 l  6001 -352 6008 -363 6016 -372 ct 
6024 -382 6033 -390 6043 -397 ct 6053 -404 6065 -409 6079 -413 ct 6092 -416 6108 -418 6125 -418 ct 
6148 -418 6168 -415 6184 -410 ct 6200 -404 6214 -396 6224 -384 ct 6235 -372 6243 -357 6248 -339 ct 
6253 -321 6255 -299 6255 -274 ct 6255 0 l  6187 0 l  p ef
6657 -113 m  6657 -94 6653 -77 6646 -62 ct 6638 -47 6628 -34 6613 -24 ct 6599 -13 6582 -6 6561 0 ct 
6541 5 6517 8 6491 8 ct 6467 8 6445 6 6426 3 ct 6407 -1 6391 -7 6376 -15 ct 6362 -23 6350 -34 6340 -47 ct 
6330 -60 6323 -77 6319 -96 ct 6379 -108 l  6385 -86 6397 -70 6415 -59 ct 6433 -49 6458 -44 6491 -44 ct 
6505 -44 6519 -45 6531 -47 ct 6543 -49 6554 -53 6563 -57 ct 6571 -62 6578 -69 6583 -77 ct 
6588 -85 6591 -96 6591 -108 ct 6591 -120 6588 -130 6582 -138 ct 6576 -146 6568 -153 6558 -158 ct 
6547 -164 6535 -168 6520 -172 ct 6505 -176 6489 -180 6471 -185 ct 6455 -189 6439 -194 6422 -200 ct 
6406 -205 6392 -212 6379 -221 ct 6366 -229 6355 -240 6347 -253 ct 6339 -266 6335 -282 6335 -302 ct 
6335 -339 6348 -368 6375 -387 ct 6402 -407 6440 -417 6491 -417 ct 6537 -417 6573 -409 6599 -393 ct 
6626 -377 6643 -351 6650 -316 ct 6588 -308 l  6586 -319 6582 -328 6576 -335 ct 
6570 -342 6562 -348 6554 -353 ct 6545 -357 6536 -360 6525 -362 ct 6514 -364 6503 -365 6491 -365 ct 
6461 -365 6438 -360 6423 -351 ct 6409 -342 6401 -327 6401 -308 ct 6401 -297 6404 -288 6409 -281 ct 
6415 -274 6422 -268 6432 -263 ct 6442 -258 6453 -254 6467 -250 ct 6481 -246 6496 -242 6512 -238 ct 
6523 -235 6534 -233 6546 -229 ct 6557 -226 6568 -222 6579 -218 ct 6589 -214 6600 -208 6609 -202 ct 
6619 -196 6627 -189 6634 -181 ct 6641 -173 6647 -163 6651 -152 ct 6655 -141 6657 -128 6657 -113 ct 
p ef
pom
0 9000 t 
pom
count op_count sub {pop} repeat countdictstack dict_count sub {end} repeat b4_inc_state restore
%%PageTrailer
%%Trailer
%%EOF
