%!PS-Adobe-3.0 EPSF-3.0 
%%BoundingBox: 0 0 454 255
%%Pages: 0
%%Creator: LibreOffice 5.1
%%Title: none
%%CreationDate: none
%%LanguageLevel: 2
%%EndComments
%%BeginProlog
%%BeginResource: procset SDRes-Prolog 1.0 0
/b4_inc_state save def
/dict_count countdictstack def
/op_count count 1 sub def
userdict begin
0 setgray 0 setlinecap 1 setlinewidth 0 setlinejoin 10 setmiterlimit[] 0 setdash newpath
/languagelevel where {pop languagelevel 1 ne {false setstrokeadjust false setoverprint} if} if
/bdef {bind def} bind def
/c {setrgbcolor} bdef
/l {neg lineto} bdef
/rl {neg rlineto} bdef
/lc {setlinecap} bdef
/lj {setlinejoin} bdef
/lw {setlinewidth} bdef
/ml {setmiterlimit} bdef
/ld {setdash} bdef
/m {neg moveto} bdef
/ct {6 2 roll neg 6 2 roll neg 6 2 roll neg curveto} bdef
/r {rotate} bdef
/t {neg translate} bdef
/s {scale} bdef
/sw {show} bdef
/gs {gsave} bdef
/gr {grestore} bdef
/f {findfont dup length dict begin
{1 index /FID ne {def} {pop pop} ifelse} forall /Encoding ISOLatin1Encoding def
currentdict end /NFont exch definefont pop /NFont findfont} bdef
/p {closepath} bdef
/sf {scalefont setfont} bdef
/ef {eofill}bdef
/pc {closepath stroke}bdef
/ps {stroke}bdef
/pum {matrix currentmatrix}bdef
/pom {setmatrix}bdef
/bs {/aString exch def /nXOfs exch def /nWidth exch def currentpoint nXOfs 0 rmoveto pum nWidth aString stringwidth pop div 1 scale aString show pom moveto} bdef
%%EndResource
%%EndProlog
%%BeginSetup
%%EndSetup
%%Page: 1 1
%%BeginPageSetup
%%EndPageSetup
pum
0.02837 0.02833 s 
0 -9000 t
/tm matrix currentmatrix def
tm setmatrix
-300 -21100 t 
1 1 s 
1.000 1.000 1.000 c 8300 30122 m  300 30122 l  300 21124 l  16299 21124 l 
16299 30122 l  8300 30122 l  p ef
0 lw 1 lj 0.703 0.703 0.703 c 9902 28113 m  3977 28113 l  3977 23234 l 
15827 23234 l  15827 28113 l  9902 28113 l  pc
15827 28112 m  3977 28112 l  ps
15827 26892 m  3977 26892 l  ps
15827 25672 m  3977 25672 l  ps
15827 24452 m  3977 24452 l  ps
15827 23233 m  3977 23233 l  ps
3977 28262 m  3977 28112 l  ps
3977 28262 m  3977 28112 l  ps
6939 28262 m  6939 28112 l  ps
6939 28262 m  6939 28112 l  ps
9901 28262 m  9901 28112 l  ps
9901 28262 m  9901 28112 l  ps
12864 28262 m  12864 28112 l  ps
12864 28262 m  12864 28112 l  ps
15827 28262 m  15827 28112 l  ps
15827 28262 m  15827 28112 l  ps
3977 28112 m  15827 28112 l  ps
3827 28112 m  3977 28112 l  ps
3827 28112 m  3977 28112 l  ps
3827 26892 m  3977 26892 l  ps
3827 26892 m  3977 26892 l  ps
3827 25672 m  3977 25672 l  ps
3827 25672 m  3977 25672 l  ps
3827 24452 m  3977 24452 l  ps
3827 24452 m  3977 24452 l  ps
3827 23233 m  3977 23233 l  ps
3827 23233 m  3977 23233 l  ps
3977 28112 m  3977 23233 l  ps
gs
1 lw 0.003 0.003 0.003 c 13358 24550 m  13456 24452 l  ps
13358 24700 m  13606 24452 l  ps
13358 24850 m  13756 24452 l  ps
13358 25000 m  13906 24452 l  ps
13358 25150 m  14056 24452 l  ps
13358 25300 m  14206 24452 l  ps
13358 25450 m  14345 24463 l  ps
13358 25600 m  14345 24613 l  ps
13358 25750 m  14345 24763 l  ps
13358 25900 m  14345 24913 l  ps
13358 26050 m  14345 25063 l  ps
13358 26200 m  14345 25213 l  ps
13358 26350 m  14345 25363 l  ps
13358 26500 m  14345 25513 l  ps
13358 26650 m  14345 25663 l  ps
13358 26800 m  14345 25813 l  ps
13358 26950 m  14345 25963 l  ps
13358 27100 m  14345 26113 l  ps
13358 27250 m  14345 26263 l  ps
13358 27400 m  14345 26413 l  ps
13358 27550 m  14345 26563 l  ps
13358 27700 m  14345 26713 l  ps
13358 27850 m  14345 26863 l  ps
13358 28000 m  14345 27013 l  ps
13396 28112 m  14345 27163 l  ps
13546 28112 m  14345 27313 l  ps
13696 28112 m  14345 27463 l  ps
13846 28112 m  14345 27613 l  ps
13996 28112 m  14345 27763 l  ps
14146 28112 m  14345 27913 l  ps
14296 28112 m  14345 28063 l  ps
gr
50.99681 lw 0.003 0.003 0.003 c 13358 28112 m  14345 28112 l  14345 24452 l 
13358 24452 l  13358 28112 l  pc
gs
1 lw 10395 24550 m  10493 24452 l  ps
10395 24700 m  10643 24452 l  ps
10395 24850 m  10793 24452 l  ps
10395 25000 m  10943 24452 l  ps
10395 25150 m  11093 24452 l  ps
10395 25300 m  11243 24452 l  ps
10395 25450 m  11382 24463 l  ps
10395 25600 m  11382 24613 l  ps
10395 25750 m  11382 24763 l  ps
10395 25900 m  11382 24913 l  ps
10395 26050 m  11382 25063 l  ps
10395 26200 m  11382 25213 l  ps
10395 26350 m  11382 25363 l  ps
10395 26500 m  11382 25513 l  ps
10395 26650 m  11382 25663 l  ps
10395 26800 m  11382 25813 l  ps
10395 26950 m  11382 25963 l  ps
10395 27100 m  11382 26113 l  ps
10395 27250 m  11382 26263 l  ps
10395 27400 m  11382 26413 l  ps
10395 27550 m  11382 26563 l  ps
10395 27700 m  11382 26713 l  ps
10395 27850 m  11382 26863 l  ps
10395 28000 m  11382 27013 l  ps
10433 28112 m  11382 27163 l  ps
10583 28112 m  11382 27313 l  ps
10733 28112 m  11382 27463 l  ps
10883 28112 m  11382 27613 l  ps
11033 28112 m  11382 27763 l  ps
11183 28112 m  11382 27913 l  ps
11333 28112 m  11382 28063 l  ps
gr
10395 28112 m  11382 28112 l  11382 24452 l  10395 24452 l  10395 28112 l 
pc
gs
1 lw 7433 24306 m  7531 24208 l  ps
7433 24456 m  7681 24208 l  ps
7433 24606 m  7831 24208 l  ps
7433 24756 m  7981 24208 l  ps
7433 24906 m  8131 24208 l  ps
7433 25056 m  8281 24208 l  ps
7433 25206 m  8420 24219 l  ps
7433 25356 m  8420 24369 l  ps
7433 25506 m  8420 24519 l  ps
7433 25656 m  8420 24669 l  ps
7433 25806 m  8420 24819 l  ps
7433 25956 m  8420 24969 l  ps
7433 26106 m  8420 25119 l  ps
7433 26256 m  8420 25269 l  ps
7433 26406 m  8420 25419 l  ps
7433 26556 m  8420 25569 l  ps
7433 26706 m  8420 25719 l  ps
7433 26856 m  8420 25869 l  ps
7433 27006 m  8420 26019 l  ps
7433 27156 m  8420 26169 l  ps
7433 27306 m  8420 26319 l  ps
7433 27456 m  8420 26469 l  ps
7433 27606 m  8420 26619 l  ps
7433 27756 m  8420 26769 l  ps
7433 27906 m  8420 26919 l  ps
7433 28056 m  8420 27069 l  ps
7527 28112 m  8420 27219 l  ps
7677 28112 m  8420 27369 l  ps
7827 28112 m  8420 27519 l  ps
7977 28112 m  8420 27669 l  ps
8127 28112 m  8420 27819 l  ps
8277 28112 m  8420 27969 l  ps
gr
7433 28112 m  8420 28112 l  8420 24208 l  7433 24208 l  7433 28112 l  pc
gs
1 lw 4470 24306 m  4568 24208 l  ps
4470 24456 m  4718 24208 l  ps
4470 24606 m  4868 24208 l  ps
4470 24756 m  5018 24208 l  ps
4470 24906 m  5168 24208 l  ps
4470 25056 m  5318 24208 l  ps
4470 25206 m  5458 24218 l  ps
4470 25356 m  5458 24368 l  ps
4470 25506 m  5458 24518 l  ps
4470 25656 m  5458 24668 l  ps
4470 25806 m  5458 24818 l  ps
4470 25956 m  5458 24968 l  ps
4470 26106 m  5458 25118 l  ps
4470 26256 m  5458 25268 l  ps
4470 26406 m  5458 25418 l  ps
4470 26556 m  5458 25568 l  ps
4470 26706 m  5458 25718 l  ps
4470 26856 m  5458 25868 l  ps
4470 27006 m  5458 26018 l  ps
4470 27156 m  5458 26168 l  ps
4470 27306 m  5458 26318 l  ps
4470 27456 m  5458 26468 l  ps
4470 27606 m  5458 26618 l  ps
4470 27756 m  5458 26768 l  ps
4470 27906 m  5458 26918 l  ps
4470 28056 m  5458 27068 l  ps
4564 28112 m  5458 27218 l  ps
4714 28112 m  5458 27368 l  ps
4864 28112 m  5458 27518 l  ps
5014 28112 m  5458 27668 l  ps
5164 28112 m  5458 27818 l  ps
5314 28112 m  5458 27968 l  ps
gr
4470 28112 m  5458 28112 l  5458 24208 l  4470 24208 l  4470 28112 l  pc
gs
1 lw 0.503 0.003 0.003 c 14345 27684 m  14405 27624 l  ps
14345 27796 m  14517 27624 l  ps
14345 27908 m  14629 27624 l  ps
14345 28020 m  14741 27624 l  ps
14365 28112 m  14853 27624 l  ps
14477 28112 m  14965 27624 l  ps
14589 28112 m  15077 27624 l  ps
14701 28112 m  15189 27624 l  ps
14813 28112 m  15301 27624 l  ps
14925 28112 m  15333 27704 l  ps
15037 28112 m  15333 27816 l  ps
15149 28112 m  15333 27928 l  ps
15261 28112 m  15333 28040 l  ps
15241 27624 m  15333 27716 l  ps
15129 27624 m  15333 27828 l  ps
15017 27624 m  15333 27940 l  ps
14905 27624 m  15333 28052 l  ps
14793 27624 m  15281 28112 l  ps
14681 27624 m  15169 28112 l  ps
14569 27624 m  15057 28112 l  ps
14457 27624 m  14945 28112 l  ps
14345 27624 m  14833 28112 l  ps
14345 27736 m  14721 28112 l  ps
14345 27848 m  14609 28112 l  ps
14345 27960 m  14497 28112 l  ps
14345 28072 m  14385 28112 l  ps
gr
14345 28112 m  15333 28112 l  15333 27624 l  14345 27624 l  14345 28112 l 
pc
gs
1 lw 0.503 0.003 0.003 c 11382 27196 m  11442 27136 l  ps
11382 27308 m  11554 27136 l  ps
11382 27420 m  11666 27136 l  ps
11382 27532 m  11778 27136 l  ps
11382 27644 m  11890 27136 l  ps
11382 27756 m  12002 27136 l  ps
11382 27868 m  12114 27136 l  ps
11382 27980 m  12226 27136 l  ps
11382 28092 m  12338 27136 l  ps
11474 28112 m  12370 27216 l  ps
11586 28112 m  12370 27328 l  ps
11698 28112 m  12370 27440 l  ps
11810 28112 m  12370 27552 l  ps
11922 28112 m  12370 27664 l  ps
12034 28112 m  12370 27776 l  ps
12146 28112 m  12370 27888 l  ps
12258 28112 m  12370 28000 l  ps
12278 27136 m  12370 27228 l  ps
12166 27136 m  12370 27340 l  ps
12054 27136 m  12370 27452 l  ps
11942 27136 m  12370 27564 l  ps
11830 27136 m  12370 27676 l  ps
11718 27136 m  12370 27788 l  ps
11606 27136 m  12370 27900 l  ps
11494 27136 m  12370 28012 l  ps
11382 27136 m  12358 28112 l  ps
11382 27248 m  12246 28112 l  ps
11382 27360 m  12134 28112 l  ps
11382 27472 m  12022 28112 l  ps
11382 27584 m  11910 28112 l  ps
11382 27696 m  11798 28112 l  ps
11382 27808 m  11686 28112 l  ps
11382 27920 m  11574 28112 l  ps
11382 28032 m  11462 28112 l  ps
gr
11382 28112 m  12370 28112 l  12370 27136 l  11382 27136 l  11382 28112 l 
pc
gs
1 lw 0.503 0.003 0.003 c 8420 26220 m  8480 26160 l  ps
8420 26332 m  8592 26160 l  ps
8420 26444 m  8704 26160 l  ps
8420 26556 m  8816 26160 l  ps
8420 26668 m  8928 26160 l  ps
8420 26780 m  9040 26160 l  ps
8420 26892 m  9152 26160 l  ps
8420 27004 m  9264 26160 l  ps
8420 27116 m  9376 26160 l  ps
8420 27228 m  9407 26241 l  ps
8420 27340 m  9407 26353 l  ps
8420 27452 m  9407 26465 l  ps
8420 27564 m  9407 26577 l  ps
8420 27676 m  9407 26689 l  ps
8420 27788 m  9407 26801 l  ps
8420 27900 m  9407 26913 l  ps
8420 28012 m  9407 27025 l  ps
8432 28112 m  9407 27137 l  ps
8544 28112 m  9407 27249 l  ps
8656 28112 m  9407 27361 l  ps
8768 28112 m  9407 27473 l  ps
8880 28112 m  9407 27585 l  ps
8992 28112 m  9407 27697 l  ps
9104 28112 m  9407 27809 l  ps
9216 28112 m  9407 27921 l  ps
9328 28112 m  9407 28033 l  ps
9316 26160 m  9407 26251 l  ps
9204 26160 m  9407 26363 l  ps
9092 26160 m  9407 26475 l  ps
8980 26160 m  9407 26587 l  ps
8868 26160 m  9407 26699 l  ps
8756 26160 m  9407 26811 l  ps
8644 26160 m  9407 26923 l  ps
8532 26160 m  9407 27035 l  ps
8420 26160 m  9407 27147 l  ps
8420 26272 m  9407 27259 l  ps
8420 26384 m  9407 27371 l  ps
8420 26496 m  9407 27483 l  ps
8420 26608 m  9407 27595 l  ps
8420 26720 m  9407 27707 l  ps
8420 26832 m  9407 27819 l  ps
8420 26944 m  9407 27931 l  ps
8420 27056 m  9407 28043 l  ps
8420 27168 m  9364 28112 l  ps
8420 27280 m  9252 28112 l  ps
8420 27392 m  9140 28112 l  ps
8420 27504 m  9028 28112 l  ps
8420 27616 m  8916 28112 l  ps
8420 27728 m  8804 28112 l  ps
8420 27840 m  8692 28112 l  ps
8420 27952 m  8580 28112 l  ps
8420 28064 m  8468 28112 l  ps
gr
8420 28112 m  9407 28112 l  9407 26160 l  8420 26160 l  8420 28112 l  pc
gs
1 lw 0.503 0.003 0.003 c 5458 25000 m  5518 24940 l  ps
5458 25112 m  5630 24940 l  ps
5458 25224 m  5742 24940 l  ps
5458 25336 m  5854 24940 l  ps
5458 25448 m  5966 24940 l  ps
5458 25560 m  6078 24940 l  ps
5458 25672 m  6190 24940 l  ps
5458 25784 m  6302 24940 l  ps
5458 25896 m  6414 24940 l  ps
5458 26008 m  6445 25021 l  ps
5458 26120 m  6445 25133 l  ps
5458 26232 m  6445 25245 l  ps
5458 26344 m  6445 25357 l  ps
5458 26456 m  6445 25469 l  ps
5458 26568 m  6445 25581 l  ps
5458 26680 m  6445 25693 l  ps
5458 26792 m  6445 25805 l  ps
5458 26904 m  6445 25917 l  ps
5458 27016 m  6445 26029 l  ps
5458 27128 m  6445 26141 l  ps
5458 27240 m  6445 26253 l  ps
5458 27352 m  6445 26365 l  ps
5458 27464 m  6445 26477 l  ps
5458 27576 m  6445 26589 l  ps
5458 27688 m  6445 26701 l  ps
5458 27800 m  6445 26813 l  ps
5458 27912 m  6445 26925 l  ps
5458 28024 m  6445 27037 l  ps
5482 28112 m  6445 27149 l  ps
5594 28112 m  6445 27261 l  ps
5706 28112 m  6445 27373 l  ps
5818 28112 m  6445 27485 l  ps
5930 28112 m  6445 27597 l  ps
6042 28112 m  6445 27709 l  ps
6154 28112 m  6445 27821 l  ps
6266 28112 m  6445 27933 l  ps
6378 28112 m  6445 28045 l  ps
6354 24940 m  6445 25031 l  ps
6242 24940 m  6445 25143 l  ps
6130 24940 m  6445 25255 l  ps
6018 24940 m  6445 25367 l  ps
5906 24940 m  6445 25479 l  ps
5794 24940 m  6445 25591 l  ps
5682 24940 m  6445 25703 l  ps
5570 24940 m  6445 25815 l  ps
5458 24940 m  6445 25927 l  ps
5458 25052 m  6445 26039 l  ps
5458 25164 m  6445 26151 l  ps
5458 25276 m  6445 26263 l  ps
5458 25388 m  6445 26375 l  ps
5458 25500 m  6445 26487 l  ps
5458 25612 m  6445 26599 l  ps
5458 25724 m  6445 26711 l  ps
5458 25836 m  6445 26823 l  ps
5458 25948 m  6445 26935 l  ps
5458 26060 m  6445 27047 l  ps
5458 26172 m  6445 27159 l  ps
5458 26284 m  6445 27271 l  ps
5458 26396 m  6445 27383 l  ps
5458 26508 m  6445 27495 l  ps
5458 26620 m  6445 27607 l  ps
5458 26732 m  6445 27719 l  ps
5458 26844 m  6445 27831 l  ps
5458 26956 m  6445 27943 l  ps
5458 27068 m  6445 28055 l  ps
5458 27180 m  6390 28112 l  ps
5458 27292 m  6278 28112 l  ps
5458 27404 m  6166 28112 l  ps
5458 27516 m  6054 28112 l  ps
5458 27628 m  5942 28112 l  ps
5458 27740 m  5830 28112 l  ps
5458 27852 m  5718 28112 l  ps
5458 27964 m  5606 28112 l  ps
5458 28076 m  5494 28112 l  ps
gr
5458 28112 m  6445 28112 l  6445 24940 l  5458 24940 l  5458 28112 l  pc
pum
4757 28997 t
365 -243 m  365 -196 361 -157 352 -125 ct 343 -93 331 -68 316 -48 ct 300 -28 282 -14 262 -6 ct 
241 3 219 7 195 7 ct 172 7 150 3 129 -6 ct 109 -14 91 -28 76 -48 ct 61 -67 49 -93 41 -125 ct 
32 -157 28 -196 28 -243 ct 28 -292 32 -332 41 -365 ct 49 -397 61 -422 76 -441 ct 
91 -460 109 -474 130 -481 ct 151 -489 173 -493 198 -493 ct 221 -493 243 -489 263 -481 ct 
283 -474 301 -460 316 -441 ct 331 -422 343 -397 352 -365 ct 361 -332 365 -292 365 -243 ct 
p
302 -243 m  302 -282 300 -314 295 -339 ct 290 -365 284 -385 275 -401 ct 266 -416 255 -427 242 -433 ct 
229 -440 214 -443 198 -443 ct 180 -443 165 -439 151 -433 ct 138 -427 127 -416 118 -400 ct 
109 -385 102 -365 97 -339 ct 93 -313 90 -281 90 -243 ct 90 -206 93 -174 97 -149 ct 
102 -123 109 -103 118 -87 ct 127 -72 138 -61 151 -54 ct 164 -47 179 -44 196 -44 ct 
212 -44 227 -47 240 -54 ct 253 -61 264 -72 274 -87 ct 283 -103 290 -123 295 -149 ct 
300 -174 302 -206 302 -243 ct p ef
461 0 m  461 -76 l  529 -76 l  529 0 l  461 0 l  p ef
974 -243 m  974 -196 970 -157 961 -125 ct 952 -93 940 -68 925 -48 ct 909 -28 891 -14 871 -6 ct 
850 3 828 7 804 7 ct 781 7 759 3 738 -6 ct 718 -14 700 -28 685 -48 ct 670 -67 658 -93 650 -125 ct 
641 -157 637 -196 637 -243 ct 637 -292 641 -332 650 -365 ct 658 -397 670 -422 685 -441 ct 
700 -460 718 -474 739 -481 ct 760 -489 782 -493 807 -493 ct 830 -493 852 -489 872 -481 ct 
892 -474 910 -460 925 -441 ct 940 -422 952 -397 961 -365 ct 970 -332 974 -292 974 -243 ct 
p
911 -243 m  911 -282 909 -314 904 -339 ct 899 -365 893 -385 884 -401 ct 875 -416 864 -427 851 -433 ct 
838 -440 823 -443 807 -443 ct 789 -443 774 -439 760 -433 ct 747 -427 736 -416 727 -400 ct 
718 -385 711 -365 706 -339 ct 702 -313 699 -281 699 -243 ct 699 -206 702 -174 706 -149 ct 
711 -123 718 -103 727 -87 ct 736 -72 747 -61 760 -54 ct 773 -47 788 -44 805 -44 ct 
821 -44 836 -47 849 -54 ct 862 -61 873 -72 883 -87 ct 892 -103 899 -123 904 -149 ct 
909 -174 911 -206 911 -243 ct p ef
1368 -158 m  1368 -134 1364 -112 1357 -91 ct 1350 -71 1339 -54 1324 -39 ct 1310 -24 1292 -13 1270 -5 ct 
1249 3 1224 7 1196 7 ct 1170 7 1148 4 1129 -2 ct 1110 -8 1094 -16 1081 -27 ct 1068 -37 1057 -49 1050 -63 ct 
1042 -77 1036 -92 1033 -109 ct 1096 -116 l  1099 -107 1102 -98 1107 -89 ct 1111 -80 1118 -73 1125 -66 ct 
1133 -59 1143 -54 1155 -50 ct 1166 -46 1180 -44 1197 -44 ct 1213 -44 1228 -46 1241 -51 ct 
1254 -56 1265 -63 1274 -73 ct 1284 -83 1291 -95 1296 -109 ct 1301 -123 1304 -139 1304 -157 ct 
1304 -172 1301 -186 1296 -198 ct 1291 -211 1285 -221 1276 -231 ct 1267 -240 1256 -247 1243 -252 ct 
1230 -257 1215 -259 1198 -259 ct 1188 -259 1179 -258 1170 -257 ct 1161 -255 1153 -252 1145 -249 ct 
1138 -246 1131 -242 1125 -238 ct 1119 -233 1113 -229 1108 -224 ct 1047 -224 l 
1064 -486 l  1340 -486 l  1340 -433 l  1120 -433 l  1111 -279 l  1122 -287 1136 -295 1152 -301 ct 
1169 -307 1188 -310 1211 -310 ct 1235 -310 1257 -306 1276 -299 ct 1296 -292 1312 -281 1326 -268 ct 
1339 -254 1350 -238 1357 -220 ct 1364 -201 1368 -181 1368 -158 ct p ef
pom
pum
7918 28997 t
365 -243 m  365 -196 361 -157 352 -125 ct 343 -93 331 -68 316 -48 ct 300 -28 282 -14 262 -6 ct 
241 3 219 7 195 7 ct 172 7 150 3 129 -6 ct 109 -14 91 -28 76 -48 ct 61 -67 49 -93 41 -125 ct 
32 -157 28 -196 28 -243 ct 28 -292 32 -332 41 -365 ct 49 -397 61 -422 76 -441 ct 
91 -460 109 -474 130 -481 ct 151 -489 173 -493 198 -493 ct 221 -493 243 -489 263 -481 ct 
283 -474 301 -460 316 -441 ct 331 -422 343 -397 352 -365 ct 361 -332 365 -292 365 -243 ct 
p
302 -243 m  302 -282 300 -314 295 -339 ct 290 -365 284 -385 275 -401 ct 266 -416 255 -427 242 -433 ct 
229 -440 214 -443 198 -443 ct 180 -443 165 -439 151 -433 ct 138 -427 127 -416 118 -400 ct 
109 -385 102 -365 97 -339 ct 93 -313 90 -281 90 -243 ct 90 -206 93 -174 97 -149 ct 
102 -123 109 -103 118 -87 ct 127 -72 138 -61 151 -54 ct 164 -47 179 -44 196 -44 ct 
212 -44 227 -47 240 -54 ct 253 -61 264 -72 274 -87 ct 283 -103 290 -123 295 -149 ct 
300 -174 302 -206 302 -243 ct p ef
461 0 m  461 -76 l  529 -76 l  529 0 l  461 0 l  p ef
663 0 m  663 -53 l  787 -53 l  787 -427 l  677 -348 l  677 -407 l  792 -486 l 
849 -486 l  849 -53 l  967 -53 l  967 0 l  663 0 l  p ef
pom
pum
10682 28997 t
365 -243 m  365 -196 361 -157 352 -125 ct 343 -93 331 -68 316 -48 ct 300 -28 282 -14 262 -6 ct 
241 3 219 7 195 7 ct 172 7 150 3 129 -6 ct 109 -14 91 -28 76 -48 ct 61 -67 49 -93 41 -125 ct 
32 -157 28 -196 28 -243 ct 28 -292 32 -332 41 -365 ct 49 -397 61 -422 76 -441 ct 
91 -460 109 -474 130 -481 ct 151 -489 173 -493 198 -493 ct 221 -493 243 -489 263 -481 ct 
283 -474 301 -460 316 -441 ct 331 -422 343 -397 352 -365 ct 361 -332 365 -292 365 -243 ct 
p
302 -243 m  302 -282 300 -314 295 -339 ct 290 -365 284 -385 275 -401 ct 266 -416 255 -427 242 -433 ct 
229 -440 214 -443 198 -443 ct 180 -443 165 -439 151 -433 ct 138 -427 127 -416 118 -400 ct 
109 -385 102 -365 97 -339 ct 93 -313 90 -281 90 -243 ct 90 -206 93 -174 97 -149 ct 
102 -123 109 -103 118 -87 ct 127 -72 138 -61 151 -54 ct 164 -47 179 -44 196 -44 ct 
212 -44 227 -47 240 -54 ct 253 -61 264 -72 274 -87 ct 283 -103 290 -123 295 -149 ct 
300 -174 302 -206 302 -243 ct p ef
461 0 m  461 -76 l  529 -76 l  529 0 l  461 0 l  p ef
663 0 m  663 -53 l  787 -53 l  787 -427 l  677 -348 l  677 -407 l  792 -486 l 
849 -486 l  849 -53 l  967 -53 l  967 0 l  663 0 l  p ef
1368 -158 m  1368 -134 1364 -112 1357 -91 ct 1350 -71 1339 -54 1324 -39 ct 1310 -24 1292 -13 1270 -5 ct 
1249 3 1224 7 1196 7 ct 1170 7 1148 4 1129 -2 ct 1110 -8 1094 -16 1081 -27 ct 1068 -37 1057 -49 1050 -63 ct 
1042 -77 1036 -92 1033 -109 ct 1096 -116 l  1099 -107 1102 -98 1107 -89 ct 1111 -80 1118 -73 1125 -66 ct 
1133 -59 1143 -54 1155 -50 ct 1166 -46 1180 -44 1197 -44 ct 1213 -44 1228 -46 1241 -51 ct 
1254 -56 1265 -63 1274 -73 ct 1284 -83 1291 -95 1296 -109 ct 1301 -123 1304 -139 1304 -157 ct 
1304 -172 1301 -186 1296 -198 ct 1291 -211 1285 -221 1276 -231 ct 1267 -240 1256 -247 1243 -252 ct 
1230 -257 1215 -259 1198 -259 ct 1188 -259 1179 -258 1170 -257 ct 1161 -255 1153 -252 1145 -249 ct 
1138 -246 1131 -242 1125 -238 ct 1119 -233 1113 -229 1108 -224 ct 1047 -224 l 
1064 -486 l  1340 -486 l  1340 -433 l  1120 -433 l  1111 -279 l  1122 -287 1136 -295 1152 -301 ct 
1169 -307 1188 -310 1211 -310 ct 1235 -310 1257 -306 1276 -299 ct 1296 -292 1312 -281 1326 -268 ct 
1339 -254 1350 -238 1357 -220 ct 1364 -201 1368 -181 1368 -158 ct p ef
pom
pum
13843 28997 t
365 -243 m  365 -196 361 -157 352 -125 ct 343 -93 331 -68 316 -48 ct 300 -28 282 -14 262 -6 ct 
241 3 219 7 195 7 ct 172 7 150 3 129 -6 ct 109 -14 91 -28 76 -48 ct 61 -67 49 -93 41 -125 ct 
32 -157 28 -196 28 -243 ct 28 -292 32 -332 41 -365 ct 49 -397 61 -422 76 -441 ct 
91 -460 109 -474 130 -481 ct 151 -489 173 -493 198 -493 ct 221 -493 243 -489 263 -481 ct 
283 -474 301 -460 316 -441 ct 331 -422 343 -397 352 -365 ct 361 -332 365 -292 365 -243 ct 
p
302 -243 m  302 -282 300 -314 295 -339 ct 290 -365 284 -385 275 -401 ct 266 -416 255 -427 242 -433 ct 
229 -440 214 -443 198 -443 ct 180 -443 165 -439 151 -433 ct 138 -427 127 -416 118 -400 ct 
109 -385 102 -365 97 -339 ct 93 -313 90 -281 90 -243 ct 90 -206 93 -174 97 -149 ct 
102 -123 109 -103 118 -87 ct 127 -72 138 -61 151 -54 ct 164 -47 179 -44 196 -44 ct 
212 -44 227 -47 240 -54 ct 253 -61 264 -72 274 -87 ct 283 -103 290 -123 295 -149 ct 
300 -174 302 -206 302 -243 ct p ef
461 0 m  461 -76 l  529 -76 l  529 0 l  461 0 l  p ef
645 0 m  645 -44 l  656 -71 671 -94 687 -115 ct 704 -136 722 -154 741 -171 ct 
759 -188 778 -203 796 -217 ct 814 -231 831 -246 845 -260 ct 860 -274 872 -289 881 -305 ct 
890 -320 895 -338 895 -358 ct 895 -372 893 -384 889 -394 ct 884 -405 878 -414 871 -421 ct 
863 -428 853 -433 843 -437 ct 832 -440 820 -442 806 -442 ct 794 -442 782 -440 771 -437 ct 
760 -433 751 -428 742 -421 ct 734 -414 727 -406 721 -396 ct 716 -385 712 -374 711 -360 ct 
647 -366 l  649 -383 654 -400 662 -415 ct 669 -431 680 -444 693 -456 ct 706 -467 722 -476 741 -483 ct 
760 -490 782 -493 806 -493 ct 830 -493 852 -490 871 -484 ct 890 -479 905 -470 918 -459 ct 
931 -448 941 -434 948 -417 ct 955 -401 959 -382 959 -360 ct 959 -344 956 -328 950 -313 ct 
944 -299 936 -285 926 -271 ct 917 -258 905 -245 892 -233 ct 880 -220 866 -208 852 -196 ct 
838 -185 824 -173 810 -161 ct 795 -150 782 -138 769 -126 ct 757 -114 746 -103 736 -91 ct 
726 -78 718 -66 713 -53 ct 966 -53 l  966 0 l  645 0 l  p ef
pom
pum
3330 28351 t
365 -243 m  365 -196 361 -157 352 -125 ct 343 -93 331 -68 316 -48 ct 300 -28 282 -14 262 -6 ct 
241 3 219 7 195 7 ct 172 7 150 3 129 -6 ct 109 -14 91 -28 76 -48 ct 61 -67 49 -93 41 -125 ct 
32 -157 28 -196 28 -243 ct 28 -292 32 -332 41 -365 ct 49 -397 61 -422 76 -441 ct 
91 -460 109 -474 130 -481 ct 151 -489 173 -493 198 -493 ct 221 -493 243 -489 263 -481 ct 
283 -474 301 -460 316 -441 ct 331 -422 343 -397 352 -365 ct 361 -332 365 -292 365 -243 ct 
p
302 -243 m  302 -282 300 -314 295 -339 ct 290 -365 284 -385 275 -401 ct 266 -416 255 -427 242 -433 ct 
229 -440 214 -443 198 -443 ct 180 -443 165 -439 151 -433 ct 138 -427 127 -416 118 -400 ct 
109 -385 102 -365 97 -339 ct 93 -313 90 -281 90 -243 ct 90 -206 93 -174 97 -149 ct 
102 -123 109 -103 118 -87 ct 127 -72 138 -61 151 -54 ct 164 -47 179 -44 196 -44 ct 
212 -44 227 -47 240 -54 ct 253 -61 264 -72 274 -87 ct 283 -103 290 -123 295 -149 ct 
300 -174 302 -206 302 -243 ct p ef
pom
pum
3330 27130 t
363 -158 m  363 -134 359 -112 352 -91 ct 345 -71 334 -54 319 -39 ct 305 -24 287 -13 265 -5 ct 
244 3 219 7 191 7 ct 165 7 143 4 124 -2 ct 105 -8 89 -16 76 -27 ct 63 -37 52 -49 45 -63 ct 
37 -77 31 -92 28 -109 ct 91 -116 l  94 -107 97 -98 102 -89 ct 106 -80 113 -73 120 -66 ct 
128 -59 138 -54 150 -50 ct 161 -46 175 -44 192 -44 ct 208 -44 223 -46 236 -51 ct 
249 -56 260 -63 269 -73 ct 279 -83 286 -95 291 -109 ct 296 -123 299 -139 299 -157 ct 
299 -172 296 -186 291 -198 ct 286 -211 280 -221 271 -231 ct 262 -240 251 -247 238 -252 ct 
225 -257 210 -259 193 -259 ct 183 -259 174 -258 165 -257 ct 156 -255 148 -252 140 -249 ct 
133 -246 126 -242 120 -238 ct 114 -233 108 -229 103 -224 ct 42 -224 l  59 -486 l 
335 -486 l  335 -433 l  115 -433 l  106 -279 l  117 -287 131 -295 147 -301 ct 
164 -307 183 -310 206 -310 ct 230 -310 252 -306 271 -299 ct 291 -292 307 -281 321 -268 ct 
334 -254 345 -238 352 -220 ct 359 -201 363 -181 363 -158 ct p ef
pom
pum
2933 25910 t
54 0 m  54 -53 l  178 -53 l  178 -427 l  68 -348 l  68 -407 l  183 -486 l 
240 -486 l  240 -53 l  358 -53 l  358 0 l  54 0 l  p ef
762 -243 m  762 -196 758 -157 749 -125 ct 740 -93 728 -68 713 -48 ct 697 -28 679 -14 659 -6 ct 
638 3 616 7 592 7 ct 569 7 547 3 526 -6 ct 506 -14 488 -28 473 -48 ct 458 -67 446 -93 438 -125 ct 
429 -157 425 -196 425 -243 ct 425 -292 429 -332 438 -365 ct 446 -397 458 -422 473 -441 ct 
488 -460 506 -474 527 -481 ct 548 -489 570 -493 595 -493 ct 618 -493 640 -489 660 -481 ct 
680 -474 698 -460 713 -441 ct 728 -422 740 -397 749 -365 ct 758 -332 762 -292 762 -243 ct 
p
699 -243 m  699 -282 697 -314 692 -339 ct 687 -365 681 -385 672 -401 ct 663 -416 652 -427 639 -433 ct 
626 -440 611 -443 595 -443 ct 577 -443 562 -439 548 -433 ct 535 -427 524 -416 515 -400 ct 
506 -385 499 -365 494 -339 ct 490 -313 487 -281 487 -243 ct 487 -206 490 -174 494 -149 ct 
499 -123 506 -103 515 -87 ct 524 -72 535 -61 548 -54 ct 561 -47 576 -44 593 -44 ct 
609 -44 624 -47 637 -54 ct 650 -61 661 -72 671 -87 ct 680 -103 687 -123 692 -149 ct 
697 -174 699 -206 699 -243 ct p ef
pom
pum
2933 24691 t
54 0 m  54 -53 l  178 -53 l  178 -427 l  68 -348 l  68 -407 l  183 -486 l 
240 -486 l  240 -53 l  358 -53 l  358 0 l  54 0 l  p ef
760 -158 m  760 -134 756 -112 749 -91 ct 742 -71 731 -54 716 -39 ct 702 -24 684 -13 662 -5 ct 
641 3 616 7 588 7 ct 562 7 540 4 521 -2 ct 502 -8 486 -16 473 -27 ct 460 -37 449 -49 442 -63 ct 
434 -77 428 -92 425 -109 ct 488 -116 l  491 -107 494 -98 499 -89 ct 503 -80 510 -73 517 -66 ct 
525 -59 535 -54 547 -50 ct 558 -46 572 -44 589 -44 ct 605 -44 620 -46 633 -51 ct 
646 -56 657 -63 666 -73 ct 676 -83 683 -95 688 -109 ct 693 -123 696 -139 696 -157 ct 
696 -172 693 -186 688 -198 ct 683 -211 677 -221 668 -231 ct 659 -240 648 -247 635 -252 ct 
622 -257 607 -259 590 -259 ct 580 -259 571 -258 562 -257 ct 553 -255 545 -252 537 -249 ct 
530 -246 523 -242 517 -238 ct 511 -233 505 -229 500 -224 ct 439 -224 l  456 -486 l 
732 -486 l  732 -433 l  512 -433 l  503 -279 l  514 -287 528 -295 544 -301 ct 
561 -307 580 -310 603 -310 ct 627 -310 649 -306 668 -299 ct 688 -292 704 -281 718 -268 ct 
731 -254 742 -238 749 -220 ct 756 -201 760 -181 760 -158 ct p ef
pom
pum
2933 23471 t
36 0 m  36 -44 l  47 -71 62 -94 78 -115 ct 95 -136 113 -154 132 -171 ct 150 -188 169 -203 187 -217 ct 
205 -231 222 -246 236 -260 ct 251 -274 263 -289 272 -305 ct 281 -320 286 -338 286 -358 ct 
286 -372 284 -384 280 -394 ct 275 -405 269 -414 262 -421 ct 254 -428 244 -433 234 -437 ct 
223 -440 211 -442 197 -442 ct 185 -442 173 -440 162 -437 ct 151 -433 142 -428 133 -421 ct 
125 -414 118 -406 112 -396 ct 107 -385 103 -374 102 -360 ct 38 -366 l  40 -383 45 -400 53 -415 ct 
60 -431 71 -444 84 -456 ct 97 -467 113 -476 132 -483 ct 151 -490 173 -493 197 -493 ct 
221 -493 243 -490 262 -484 ct 281 -479 296 -470 309 -459 ct 322 -448 332 -434 339 -417 ct 
346 -401 350 -382 350 -360 ct 350 -344 347 -328 341 -313 ct 335 -299 327 -285 317 -271 ct 
308 -258 296 -245 283 -233 ct 271 -220 257 -208 243 -196 ct 229 -185 215 -173 201 -161 ct 
186 -150 173 -138 160 -126 ct 148 -114 137 -103 127 -91 ct 117 -78 109 -66 104 -53 ct 
357 -53 l  357 0 l  36 0 l  p ef
762 -243 m  762 -196 758 -157 749 -125 ct 740 -93 728 -68 713 -48 ct 697 -28 679 -14 659 -6 ct 
638 3 616 7 592 7 ct 569 7 547 3 526 -6 ct 506 -14 488 -28 473 -48 ct 458 -67 446 -93 438 -125 ct 
429 -157 425 -196 425 -243 ct 425 -292 429 -332 438 -365 ct 446 -397 458 -422 473 -441 ct 
488 -460 506 -474 527 -481 ct 548 -489 570 -493 595 -493 ct 618 -493 640 -489 660 -481 ct 
680 -474 698 -460 713 -441 ct 728 -422 740 -397 749 -365 ct 758 -332 762 -292 762 -243 ct 
p
699 -243 m  699 -282 697 -314 692 -339 ct 687 -365 681 -385 672 -401 ct 663 -416 652 -427 639 -433 ct 
626 -440 611 -443 595 -443 ct 577 -443 562 -439 548 -433 ct 535 -427 524 -416 515 -400 ct 
506 -385 499 -365 494 -339 ct 490 -313 487 -281 487 -243 ct 487 -206 490 -174 494 -149 ct 
499 -123 506 -103 515 -87 ct 524 -72 535 -61 548 -54 ct 561 -47 576 -44 593 -44 ct 
609 -44 624 -47 637 -54 ct 650 -61 661 -72 671 -87 ct 680 -103 687 -123 692 -149 ct 
697 -174 699 -206 699 -243 ct p ef
pom
pum
6090 22286 t
476 -248 m  476 -207 470 -172 458 -141 ct 446 -110 429 -84 408 -63 ct 387 -42 362 -27 333 -16 ct 
304 -5 273 0 240 0 ct 58 0 l  58 -486 l  219 -486 l  256 -486 291 -481 322 -472 ct 
354 -462 381 -448 404 -429 ct 426 -409 444 -385 457 -355 ct 470 -325 476 -289 476 -248 ct 
p
410 -248 m  410 -281 405 -309 396 -332 ct 386 -355 373 -375 356 -390 ct 339 -405 319 -415 295 -422 ct 
271 -430 245 -433 217 -433 ct 124 -433 l  124 -53 l  232 -53 l  258 -53 281 -57 303 -65 ct 
325 -73 343 -86 359 -102 ct 375 -118 387 -139 396 -163 ct 405 -187 410 -216 410 -248 ct 
p ef
672 7 m  634 7 606 -3 587 -23 ct 568 -43 559 -70 559 -105 ct 559 -129 564 -149 573 -165 ct 
582 -181 594 -194 610 -203 ct 625 -212 642 -218 661 -221 ct 680 -225 700 -226 720 -226 ct 
804 -226 l  804 -247 l  804 -263 802 -276 799 -287 ct 796 -298 791 -307 784 -313 ct 
777 -320 769 -325 759 -328 ct 749 -331 737 -333 724 -333 ct 712 -333 701 -332 691 -330 ct 
682 -328 673 -325 666 -321 ct 659 -316 653 -310 649 -303 ct 645 -295 642 -285 640 -273 ct 
576 -279 l  578 -294 582 -307 589 -320 ct 595 -332 604 -343 616 -352 ct 628 -361 643 -368 661 -373 ct 
678 -378 700 -380 725 -380 ct 772 -380 807 -369 831 -348 ct 855 -326 866 -295 866 -254 ct 
866 -94 l  866 -75 869 -61 874 -52 ct 879 -43 888 -38 901 -38 ct 905 -38 908 -38 912 -39 ct 
915 -39 918 -40 922 -40 ct 922 -2 l  914 0 906 1 898 2 ct 891 3 882 4 874 4 ct 
862 4 852 2 844 -1 ct 835 -4 828 -9 823 -15 ct 818 -21 814 -29 811 -39 ct 808 -48 807 -59 806 -71 ct 
804 -71 l  797 -59 790 -49 782 -39 ct 774 -29 765 -21 754 -14 ct 744 -7 732 -2 718 1 ct 
705 5 689 7 672 7 ct p
686 -40 m  706 -40 723 -43 738 -50 ct 753 -58 765 -67 775 -78 ct 784 -89 792 -101 797 -115 ct 
801 -128 804 -140 804 -153 ct 804 -183 l  736 -183 l  721 -183 706 -182 693 -180 ct 
679 -178 667 -174 657 -168 ct 646 -163 638 -155 632 -144 ct 626 -134 623 -120 623 -103 ct 
623 -83 628 -67 639 -56 ct 650 -45 666 -40 686 -40 ct p ef
1117 -2 m  1108 0 1098 2 1088 4 ct 1078 5 1067 6 1054 6 ct 1005 6 980 -22 980 -79 ct 
980 -328 l  937 -328 l  937 -373 l  982 -373 l  1000 -456 l  1042 -456 l 
1042 -373 l  1111 -373 l  1111 -328 l  1042 -328 l  1042 -92 l  1042 -74 1045 -61 1051 -54 ct 
1056 -47 1067 -43 1081 -43 ct 1087 -43 1093 -44 1099 -45 ct 1104 -46 1110 -47 1117 -48 ct 
1117 -2 l  p ef
1281 7 m  1243 7 1215 -3 1196 -23 ct 1177 -43 1168 -70 1168 -105 ct 1168 -129 1173 -149 1182 -165 ct 
1191 -181 1203 -194 1219 -203 ct 1234 -212 1251 -218 1270 -221 ct 1289 -225 1309 -226 1329 -226 ct 
1413 -226 l  1413 -247 l  1413 -263 1411 -276 1408 -287 ct 1405 -298 1400 -307 1393 -313 ct 
1386 -320 1378 -325 1368 -328 ct 1358 -331 1346 -333 1333 -333 ct 1321 -333 1310 -332 1300 -330 ct 
1291 -328 1282 -325 1275 -321 ct 1268 -316 1262 -310 1258 -303 ct 1254 -295 1251 -285 1249 -273 ct 
1185 -279 l  1187 -294 1191 -307 1198 -320 ct 1204 -332 1213 -343 1225 -352 ct 
1237 -361 1252 -368 1270 -373 ct 1287 -378 1309 -380 1334 -380 ct 1381 -380 1416 -369 1440 -348 ct 
1464 -326 1475 -295 1475 -254 ct 1475 -94 l  1475 -75 1478 -61 1483 -52 ct 1488 -43 1497 -38 1510 -38 ct 
1514 -38 1517 -38 1521 -39 ct 1524 -39 1527 -40 1531 -40 ct 1531 -2 l  1523 0 1515 1 1507 2 ct 
1500 3 1491 4 1483 4 ct 1471 4 1461 2 1453 -1 ct 1444 -4 1437 -9 1432 -15 ct 1427 -21 1423 -29 1420 -39 ct 
1417 -48 1416 -59 1415 -71 ct 1413 -71 l  1406 -59 1399 -49 1391 -39 ct 1383 -29 1374 -21 1363 -14 ct 
1353 -7 1341 -2 1327 1 ct 1314 5 1298 7 1281 7 ct p
1295 -40 m  1315 -40 1332 -43 1347 -50 ct 1362 -58 1374 -67 1384 -78 ct 1393 -89 1401 -101 1406 -115 ct 
1410 -128 1413 -140 1413 -153 ct 1413 -183 l  1345 -183 l  1330 -183 1315 -182 1302 -180 ct 
1288 -178 1276 -174 1266 -168 ct 1255 -163 1247 -155 1241 -144 ct 1235 -134 1232 -120 1232 -103 ct 
1232 -83 1237 -67 1248 -56 ct 1259 -45 1275 -40 1295 -40 ct p ef
1862 -103 m  1862 -86 1859 -70 1852 -56 ct 1846 -43 1836 -31 1823 -22 ct 1810 -12 1794 -5 1775 0 ct 
1757 5 1735 7 1711 7 ct 1690 7 1670 5 1653 2 ct 1635 -1 1620 -7 1607 -14 ct 1594 -21 1583 -31 1574 -43 ct 
1565 -55 1559 -70 1555 -87 ct 1609 -98 l  1615 -78 1626 -64 1642 -54 ct 1659 -45 1682 -40 1711 -40 ct 
1724 -40 1737 -41 1748 -43 ct 1759 -45 1769 -48 1777 -52 ct 1785 -57 1791 -63 1795 -70 ct 
1800 -78 1802 -87 1802 -98 ct 1802 -109 1800 -119 1794 -126 ct 1789 -133 1782 -139 1772 -144 ct 
1763 -149 1751 -153 1738 -157 ct 1724 -160 1710 -164 1694 -169 ct 1679 -172 1664 -177 1649 -182 ct 
1634 -186 1621 -193 1609 -201 ct 1597 -209 1588 -219 1581 -230 ct 1573 -242 1569 -257 1569 -274 ct 
1569 -308 1582 -334 1606 -352 ct 1630 -370 1665 -379 1712 -379 ct 1753 -379 1786 -372 1810 -357 ct 
1834 -343 1850 -319 1856 -288 ct 1800 -281 l  1798 -290 1794 -298 1789 -305 ct 
1783 -311 1777 -317 1769 -321 ct 1761 -325 1752 -328 1742 -329 ct 1733 -331 1722 -332 1712 -332 ct 
1684 -332 1663 -328 1650 -319 ct 1636 -311 1630 -298 1630 -281 ct 1630 -271 1632 -262 1637 -256 ct 
1642 -249 1649 -244 1658 -239 ct 1667 -235 1677 -231 1690 -227 ct 1702 -224 1716 -220 1731 -217 ct 
1741 -214 1751 -212 1761 -209 ct 1771 -206 1782 -202 1791 -198 ct 1801 -194 1810 -190 1819 -184 ct 
1828 -179 1835 -172 1841 -165 ct 1848 -157 1853 -148 1857 -138 ct 1861 -128 1862 -116 1862 -103 ct 
p ef
2000 -173 m  2000 -154 2002 -136 2006 -119 ct 2010 -103 2016 -89 2025 -77 ct 
2033 -65 2044 -56 2057 -49 ct 2070 -43 2086 -40 2104 -40 ct 2131 -40 2153 -45 2169 -56 ct 
2185 -67 2196 -80 2202 -97 ct 2256 -81 l  2252 -71 2247 -61 2240 -50 ct 2233 -40 2224 -30 2212 -22 ct 
2200 -13 2185 -7 2168 -1 ct 2150 4 2129 7 2104 7 ct 2049 7 2007 -9 1978 -42 ct 
1949 -75 1935 -124 1935 -189 ct 1935 -224 1939 -253 1948 -278 ct 1957 -302 1969 -322 1984 -337 ct 
1999 -352 2017 -363 2037 -370 ct 2057 -376 2079 -380 2102 -380 ct 2133 -380 2159 -375 2180 -365 ct 
2201 -355 2218 -341 2231 -323 ct 2244 -305 2253 -284 2258 -260 ct 2264 -236 2266 -210 2266 -182 ct 
2266 -173 l  2000 -173 l  p
2202 -221 m  2199 -260 2189 -289 2172 -307 ct 2156 -325 2132 -334 2101 -334 ct 
2090 -334 2080 -332 2068 -329 ct 2057 -326 2046 -320 2037 -311 ct 2027 -303 2019 -291 2012 -277 ct 
2006 -262 2002 -244 2001 -221 ct 2202 -221 l  p ef
2493 -2 m  2484 0 2474 2 2464 4 ct 2454 5 2443 6 2430 6 ct 2381 6 2356 -22 2356 -79 ct 
2356 -328 l  2313 -328 l  2313 -373 l  2358 -373 l  2376 -456 l  2418 -456 l 
2418 -373 l  2487 -373 l  2487 -328 l  2418 -328 l  2418 -92 l  2418 -74 2421 -61 2427 -54 ct 
2432 -47 2443 -43 2457 -43 ct 2463 -43 2469 -44 2475 -45 ct 2480 -46 2486 -47 2493 -48 ct 
2493 -2 l  p ef
2789 -302 m  2789 -373 l  2857 -373 l  2857 -302 l  2789 -302 l  p
2789 0 m  2789 -71 l  2857 -71 l  2857 0 l  2789 0 l  p ef
3588 -134 m  3588 -114 3584 -95 3576 -77 ct 3568 -60 3555 -45 3539 -33 ct 3522 -20 3501 -11 3476 -4 ct 
3451 3 3421 7 3387 7 ct 3326 7 3279 -4 3246 -25 ct 3212 -46 3190 -76 3181 -116 ct 
3245 -129 l  3248 -117 3253 -105 3260 -95 ct 3266 -84 3275 -75 3287 -68 ct 3298 -61 3312 -55 3329 -51 ct 
3346 -46 3366 -44 3389 -44 ct 3409 -44 3427 -46 3443 -49 ct 3459 -53 3473 -58 3485 -65 ct 
3497 -72 3506 -81 3513 -91 ct 3519 -102 3522 -115 3522 -131 ct 3522 -146 3519 -159 3511 -169 ct 
3504 -179 3494 -187 3481 -194 ct 3468 -200 3452 -206 3434 -210 ct 3416 -214 3396 -219 3374 -224 ct 
3360 -227 3347 -230 3333 -234 ct 3319 -237 3306 -242 3294 -247 ct 3281 -252 3269 -257 3258 -264 ct 
3247 -271 3238 -279 3230 -288 ct 3222 -297 3215 -308 3211 -320 ct 3206 -333 3204 -347 3204 -363 ct 
3204 -386 3208 -406 3218 -422 ct 3227 -439 3240 -452 3257 -463 ct 3273 -473 3293 -481 3315 -486 ct 
3338 -491 3362 -493 3388 -493 ct 3418 -493 3444 -491 3465 -486 ct 3487 -481 3505 -474 3520 -465 ct 
3534 -455 3546 -444 3555 -430 ct 3564 -416 3571 -400 3576 -381 ct 3511 -370 l 
3508 -382 3503 -392 3497 -401 ct 3491 -410 3483 -418 3473 -424 ct 3464 -431 3452 -435 3437 -439 ct 
3423 -442 3407 -443 3388 -443 ct 3365 -443 3346 -441 3331 -437 ct 3316 -433 3303 -428 3294 -421 ct 
3285 -414 3278 -406 3274 -397 ct 3270 -387 3268 -377 3268 -366 ct 3268 -352 3272 -340 3279 -331 ct 
3286 -321 3296 -314 3308 -307 ct 3321 -301 3335 -296 3351 -292 ct 3368 -288 3385 -284 3403 -280 ct 
3418 -276 3433 -273 3448 -269 ct 3463 -265 3477 -261 3491 -256 ct 3504 -251 3517 -246 3529 -239 ct 
3541 -232 3551 -224 3560 -214 ct 3568 -205 3575 -193 3580 -180 ct 3585 -167 3588 -152 3588 -134 ct 
p ef
3679 0 m  3679 -53 l  3803 -53 l  3803 -427 l  3693 -348 l  3693 -407 l 
3808 -486 l  3865 -486 l  3865 -53 l  3983 -53 l  3983 0 l  3679 0 l  p ef
4058 0 m  4058 -44 l  4069 -71 4084 -94 4100 -115 ct 4117 -136 4135 -154 4154 -171 ct 
4172 -188 4191 -203 4209 -217 ct 4227 -231 4244 -246 4258 -260 ct 4273 -274 4285 -289 4294 -305 ct 
4303 -320 4308 -338 4308 -358 ct 4308 -372 4306 -384 4302 -394 ct 4297 -405 4291 -414 4284 -421 ct 
4276 -428 4266 -433 4256 -437 ct 4245 -440 4233 -442 4219 -442 ct 4207 -442 4195 -440 4184 -437 ct 
4173 -433 4164 -428 4155 -421 ct 4147 -414 4140 -406 4134 -396 ct 4129 -385 4125 -374 4124 -360 ct 
4060 -366 l  4062 -383 4067 -400 4075 -415 ct 4082 -431 4093 -444 4106 -456 ct 
4119 -467 4135 -476 4154 -483 ct 4173 -490 4195 -493 4219 -493 ct 4243 -493 4265 -490 4284 -484 ct 
4303 -479 4318 -470 4331 -459 ct 4344 -448 4354 -434 4361 -417 ct 4368 -401 4372 -382 4372 -360 ct 
4372 -344 4369 -328 4363 -313 ct 4357 -299 4349 -285 4339 -271 ct 4330 -258 4318 -245 4305 -233 ct 
4293 -220 4279 -208 4265 -196 ct 4251 -185 4237 -173 4223 -161 ct 4208 -150 4195 -138 4182 -126 ct 
4170 -114 4159 -103 4149 -91 ct 4139 -78 4131 -66 4126 -53 ct 4379 -53 l  4379 0 l 
4058 0 l  p ef
pom
pum
4445 29731 t
477 -373 m  477 -350 473 -328 465 -308 ct 457 -288 446 -271 431 -256 ct 415 -241 396 -229 373 -221 ct 
350 -212 323 -208 293 -208 ct 136 -208 l  136 0 l  64 0 l  64 -534 l  288 -534 l 
320 -534 347 -530 371 -522 ct 394 -515 414 -504 430 -490 ct 445 -476 457 -459 465 -439 ct 
473 -419 477 -397 477 -373 ct p
404 -373 m  404 -406 394 -432 373 -450 ct 352 -467 321 -476 280 -476 ct 136 -476 l 
136 -265 l  283 -265 l  324 -265 355 -275 375 -293 ct 394 -311 404 -338 404 -373 ct 
p ef
660 8 m  619 8 588 -3 567 -25 ct 546 -47 536 -77 536 -115 ct 536 -142 541 -164 551 -182 ct 
562 -199 575 -213 591 -223 ct 608 -232 627 -239 648 -243 ct 669 -247 691 -249 713 -249 ct 
805 -249 l  805 -271 l  805 -289 803 -303 800 -315 ct 796 -327 791 -337 783 -344 ct 
776 -352 767 -357 756 -361 ct 745 -364 732 -366 717 -366 ct 704 -366 692 -365 681 -363 ct 
671 -361 662 -358 654 -353 ct 646 -348 640 -341 635 -333 ct 630 -324 627 -313 625 -301 ct 
554 -307 l  557 -323 561 -338 569 -352 ct 576 -365 586 -377 599 -387 ct 612 -397 628 -404 648 -410 ct 
667 -415 691 -418 719 -418 ct 770 -418 809 -406 835 -382 ct 861 -359 874 -325 874 -280 ct 
874 -103 l  874 -83 877 -68 882 -57 ct 887 -47 897 -42 912 -42 ct 916 -42 920 -42 924 -43 ct 
927 -43 931 -44 935 -45 ct 935 -2 l  926 0 917 1 909 2 ct 901 3 892 4 882 4 ct 
869 4 858 2 849 -1 ct 840 -5 832 -10 826 -17 ct 820 -24 816 -32 813 -42 ct 810 -53 808 -64 807 -78 ct 
805 -78 l  798 -65 790 -53 781 -42 ct 772 -32 762 -23 750 -15 ct 739 -8 726 -2 711 2 ct 
696 6 679 8 660 8 ct p
675 -43 m  697 -43 716 -47 732 -55 ct 749 -63 762 -73 773 -85 ct 784 -98 792 -111 797 -126 ct 
802 -140 805 -154 805 -168 ct 805 -201 l  730 -201 l  714 -201 698 -200 683 -198 ct 
668 -196 655 -191 643 -185 ct 632 -179 623 -170 616 -158 ct 609 -147 606 -132 606 -113 ct 
606 -91 612 -74 624 -62 ct 636 -49 653 -43 675 -43 ct p ef
980 0 m  980 -315 l  980 -323 980 -332 980 -341 ct 979 -350 979 -359 979 -367 ct 
979 -376 979 -383 978 -391 ct 978 -398 978 -405 978 -410 ct 1042 -410 l  1042 -405 1043 -398 1043 -390 ct 
1043 -383 1044 -375 1044 -368 ct 1044 -360 1045 -352 1045 -345 ct 1045 -338 1045 -332 1045 -327 ct 
1047 -327 l  1051 -342 1056 -356 1062 -367 ct 1067 -379 1074 -388 1081 -396 ct 
1088 -403 1097 -409 1107 -413 ct 1117 -416 1129 -418 1144 -418 ct 1149 -418 1155 -418 1160 -417 ct 
1165 -416 1169 -415 1172 -414 ct 1172 -352 l  1167 -353 1162 -354 1156 -354 ct 
1150 -355 1143 -355 1135 -355 ct 1120 -355 1106 -352 1095 -345 ct 1084 -338 1075 -328 1068 -315 ct 
1061 -303 1056 -288 1053 -271 ct 1050 -253 1048 -234 1048 -214 ct 1048 0 l  980 0 l 
p ef
1401 -3 m  1391 0 1380 2 1369 4 ct 1359 5 1346 6 1332 6 ct 1277 6 1250 -25 1250 -87 ct 
1250 -361 l  1203 -361 l  1203 -411 l  1253 -411 l  1273 -503 l  1318 -503 l 
1318 -411 l  1394 -411 l  1394 -361 l  1318 -361 l  1318 -102 l  1318 -82 1322 -68 1328 -60 ct 
1334 -52 1346 -48 1362 -48 ct 1368 -48 1374 -49 1381 -50 ct 1387 -51 1394 -52 1401 -54 ct 
1401 -3 l  p ef
1454 -498 m  1454 -563 l  1522 -563 l  1522 -498 l  1454 -498 l  p
1454 0 m  1454 -410 l  1522 -410 l  1522 0 l  1454 0 l  p ef
1665 -207 m  1665 -183 1667 -162 1670 -142 ct 1674 -122 1679 -105 1688 -91 ct 
1696 -77 1706 -65 1720 -58 ct 1733 -50 1749 -46 1769 -46 ct 1793 -46 1813 -52 1829 -65 ct 
1846 -78 1856 -97 1860 -124 ct 1929 -124 l  1926 -107 1921 -90 1914 -74 ct 1906 -58 1896 -44 1883 -32 ct 
1870 -20 1854 -10 1835 -3 ct 1817 4 1795 8 1771 8 ct 1738 8 1711 3 1689 -8 ct 1666 -19 1648 -34 1634 -53 ct 
1620 -72 1610 -95 1603 -121 ct 1597 -147 1594 -175 1594 -205 ct 1594 -233 1596 -257 1601 -278 ct 
1605 -299 1612 -318 1620 -333 ct 1628 -349 1638 -363 1649 -373 ct 1660 -384 1672 -393 1685 -399 ct 
1698 -406 1712 -410 1726 -413 ct 1741 -416 1755 -417 1770 -417 ct 1793 -417 1813 -414 1831 -408 ct 
1849 -402 1865 -393 1878 -382 ct 1891 -371 1901 -358 1909 -343 ct 1917 -328 1923 -312 1926 -295 ct 
1856 -290 l  1853 -312 1844 -331 1829 -344 ct 1815 -357 1794 -364 1768 -364 ct 
1748 -364 1732 -361 1719 -354 ct 1706 -348 1696 -338 1688 -325 ct 1679 -312 1674 -296 1670 -276 ct 
1667 -256 1665 -233 1665 -207 ct p ef
2010 -498 m  2010 -563 l  2078 -563 l  2078 -498 l  2010 -498 l  p
2010 0 m  2010 -410 l  2078 -410 l  2078 0 l  2010 0 l  p ef
2516 -207 m  2516 -176 2513 -147 2508 -121 ct 2503 -95 2495 -72 2483 -53 ct 
2471 -34 2456 -19 2437 -9 ct 2417 2 2393 7 2365 7 ct 2336 7 2310 2 2288 -9 ct 2266 -20 2249 -39 2238 -64 ct 
2236 -64 l  2236 -63 2236 -61 2237 -57 ct 2237 -53 2237 -48 2237 -42 ct 2237 -36 2237 -29 2237 -22 ct 
2237 -14 2238 -7 2238 1 ct 2238 161 l  2169 161 l  2169 -328 l  2169 -338 2169 -347 2169 -357 ct 
2169 -366 2169 -374 2169 -381 ct 2168 -389 2168 -395 2168 -401 ct 2168 -406 2167 -409 2167 -409 ct 
2233 -409 l  2233 -408 2234 -405 2234 -401 ct 2234 -396 2235 -391 2235 -385 ct 
2235 -379 2236 -372 2236 -365 ct 2237 -358 2237 -351 2237 -345 ct 2238 -345 l 
2245 -358 2252 -369 2260 -378 ct 2268 -387 2277 -395 2288 -401 ct 2298 -407 2309 -411 2322 -414 ct 
2335 -416 2349 -418 2365 -418 ct 2393 -418 2417 -413 2437 -403 ct 2456 -392 2471 -378 2483 -360 ct 
2495 -342 2503 -319 2508 -294 ct 2513 -268 2516 -239 2516 -207 ct p
2444 -206 m  2444 -231 2443 -254 2440 -273 ct 2437 -293 2432 -310 2424 -323 ct 
2417 -337 2407 -347 2394 -354 ct 2382 -361 2366 -365 2348 -365 ct 2333 -365 2318 -363 2305 -359 ct 
2292 -354 2280 -346 2270 -334 ct 2260 -322 2252 -305 2246 -284 ct 2240 -262 2238 -235 2238 -200 ct 
2238 -171 2240 -147 2245 -127 ct 2249 -107 2257 -90 2266 -78 ct 2275 -66 2286 -57 2300 -51 ct 
2314 -46 2329 -43 2347 -43 ct 2366 -43 2382 -47 2394 -54 ct 2407 -61 2417 -72 2424 -86 ct 
2432 -100 2437 -117 2440 -137 ct 2443 -157 2444 -180 2444 -206 ct p ef
2697 8 m  2656 8 2625 -3 2604 -25 ct 2583 -47 2573 -77 2573 -115 ct 2573 -142 2578 -164 2588 -182 ct 
2599 -199 2612 -213 2628 -223 ct 2645 -232 2664 -239 2685 -243 ct 2706 -247 2728 -249 2750 -249 ct 
2842 -249 l  2842 -271 l  2842 -289 2840 -303 2837 -315 ct 2833 -327 2828 -337 2820 -344 ct 
2813 -352 2804 -357 2793 -361 ct 2782 -364 2769 -366 2754 -366 ct 2741 -366 2729 -365 2718 -363 ct 
2708 -361 2699 -358 2691 -353 ct 2683 -348 2677 -341 2672 -333 ct 2667 -324 2664 -313 2662 -301 ct 
2591 -307 l  2594 -323 2598 -338 2606 -352 ct 2613 -365 2623 -377 2636 -387 ct 
2649 -397 2665 -404 2685 -410 ct 2704 -415 2728 -418 2756 -418 ct 2807 -418 2846 -406 2872 -382 ct 
2898 -359 2911 -325 2911 -280 ct 2911 -103 l  2911 -83 2914 -68 2919 -57 ct 
2924 -47 2934 -42 2949 -42 ct 2953 -42 2957 -42 2961 -43 ct 2964 -43 2968 -44 2972 -45 ct 
2972 -2 l  2963 0 2954 1 2946 2 ct 2938 3 2929 4 2919 4 ct 2906 4 2895 2 2886 -1 ct 
2877 -5 2869 -10 2863 -17 ct 2857 -24 2853 -32 2850 -42 ct 2847 -53 2845 -64 2844 -78 ct 
2842 -78 l  2835 -65 2827 -53 2818 -42 ct 2809 -32 2799 -23 2787 -15 ct 2776 -8 2763 -2 2748 2 ct 
2733 6 2716 8 2697 8 ct p
2712 -43 m  2734 -43 2753 -47 2769 -55 ct 2786 -63 2799 -73 2810 -85 ct 2821 -98 2829 -111 2834 -126 ct 
2839 -140 2842 -154 2842 -168 ct 2842 -201 l  2767 -201 l  2751 -201 2735 -200 2720 -198 ct 
2705 -196 2692 -191 2680 -185 ct 2669 -179 2660 -170 2653 -158 ct 2646 -147 2643 -132 2643 -113 ct 
2643 -91 2649 -74 2661 -62 ct 2673 -49 2690 -43 2712 -43 ct p ef
3173 -3 m  3163 0 3152 2 3141 4 ct 3131 5 3118 6 3104 6 ct 3049 6 3022 -25 3022 -87 ct 
3022 -361 l  2975 -361 l  2975 -411 l  3025 -411 l  3045 -503 l  3090 -503 l 
3090 -411 l  3166 -411 l  3166 -361 l  3090 -361 l  3090 -102 l  3090 -82 3094 -68 3100 -60 ct 
3106 -52 3118 -48 3134 -48 ct 3140 -48 3146 -49 3153 -50 ct 3159 -51 3166 -52 3173 -54 ct 
3173 -3 l  p ef
3227 -498 m  3227 -563 l  3295 -563 l  3295 -498 l  3227 -498 l  p
3227 0 m  3227 -410 l  3295 -410 l  3295 0 l  3227 0 l  p ef
3733 -205 m  3733 -133 3717 -80 3686 -45 ct 3654 -10 3608 8 3548 8 ct 3520 8 3494 4 3472 -5 ct 
3449 -13 3430 -27 3415 -44 ct 3399 -62 3387 -84 3379 -111 ct 3371 -138 3367 -169 3367 -205 ct 
3367 -347 3428 -417 3550 -417 ct 3582 -417 3610 -413 3633 -404 ct 3656 -395 3675 -382 3690 -364 ct 
3704 -347 3715 -325 3722 -298 ct 3729 -271 3733 -240 3733 -205 ct p
3661 -205 m  3661 -237 3659 -263 3654 -284 ct 3649 -305 3642 -321 3632 -334 ct 
3623 -346 3611 -355 3598 -360 ct 3584 -365 3569 -367 3552 -367 ct 3534 -367 3518 -364 3504 -359 ct 
3490 -354 3478 -345 3469 -333 ct 3459 -320 3451 -304 3446 -283 ct 3441 -262 3438 -236 3438 -205 ct 
3438 -173 3441 -147 3447 -126 ct 3452 -105 3460 -89 3469 -76 ct 3479 -64 3491 -55 3504 -50 ct 
3517 -45 3532 -42 3547 -42 ct 3565 -42 3581 -45 3595 -50 ct 3609 -55 3621 -63 3631 -76 ct 
3641 -88 3648 -105 3653 -126 ct 3659 -147 3661 -173 3661 -205 ct p ef
4070 0 m  4070 -260 l  4070 -280 4068 -297 4065 -310 ct 4062 -324 4058 -335 4051 -343 ct 
4044 -351 4036 -357 4025 -360 ct 4014 -364 4001 -365 3985 -365 ct 3969 -365 3954 -362 3941 -357 ct 
3928 -351 3917 -343 3908 -332 ct 3899 -321 3892 -308 3887 -292 ct 3882 -276 3879 -258 3879 -238 ct 
3879 0 l  3811 0 l  3811 -324 l  3811 -332 3811 -341 3811 -351 ct 3810 -360 3810 -369 3810 -378 ct 
3810 -386 3810 -394 3809 -400 ct 3809 -406 3809 -409 3809 -409 ct 3873 -409 l 
3873 -408 3873 -404 3874 -399 ct 3874 -393 3874 -387 3875 -380 ct 3875 -373 3875 -366 3876 -359 ct 
3876 -351 3876 -345 3876 -340 ct 3877 -340 l  3884 -352 3891 -363 3899 -372 ct 
3907 -382 3916 -390 3926 -397 ct 3936 -404 3948 -409 3962 -413 ct 3975 -416 3991 -418 4008 -418 ct 
4031 -418 4051 -415 4067 -410 ct 4083 -404 4097 -396 4107 -384 ct 4118 -372 4126 -357 4131 -339 ct 
4136 -321 4138 -299 4138 -274 ct 4138 0 l  4070 0 l  p ef
4464 0 m  4464 -535 l  4536 -535 l  4536 0 l  4464 0 l  p ef
4917 0 m  4917 -260 l  4917 -280 4915 -297 4912 -310 ct 4909 -324 4905 -335 4898 -343 ct 
4891 -351 4883 -357 4872 -360 ct 4861 -364 4848 -365 4832 -365 ct 4816 -365 4801 -362 4788 -357 ct 
4775 -351 4764 -343 4755 -332 ct 4746 -321 4739 -308 4734 -292 ct 4729 -276 4726 -258 4726 -238 ct 
4726 0 l  4658 0 l  4658 -324 l  4658 -332 4658 -341 4658 -351 ct 4657 -360 4657 -369 4657 -378 ct 
4657 -386 4657 -394 4656 -400 ct 4656 -406 4656 -409 4656 -409 ct 4720 -409 l 
4720 -408 4720 -404 4721 -399 ct 4721 -393 4721 -387 4722 -380 ct 4722 -373 4722 -366 4723 -359 ct 
4723 -351 4723 -345 4723 -340 ct 4724 -340 l  4731 -352 4738 -363 4746 -372 ct 
4754 -382 4763 -390 4773 -397 ct 4783 -404 4795 -409 4809 -413 ct 4822 -416 4838 -418 4855 -418 ct 
4878 -418 4898 -415 4914 -410 ct 4930 -404 4944 -396 4954 -384 ct 4965 -372 4973 -357 4978 -339 ct 
4983 -321 4985 -299 4985 -274 ct 4985 0 l  4917 0 l  p ef
5338 -66 m  5325 -40 5309 -21 5288 -9 ct 5267 2 5241 8 5210 8 ct 5159 8 5121 -10 5096 -45 ct 
5072 -80 5060 -132 5060 -203 ct 5060 -346 5110 -418 5210 -418 ct 5241 -418 5267 -412 5288 -401 ct 
5309 -390 5325 -371 5338 -347 ct 5339 -347 l  5339 -349 5339 -353 5339 -359 ct 
5339 -364 5338 -370 5338 -376 ct 5338 -382 5338 -387 5338 -393 ct 5338 -398 5338 -402 5338 -404 ct 
5338 -563 l  5406 -563 l  5406 -83 l  5406 -73 5406 -63 5406 -54 ct 5407 -45 5407 -37 5407 -29 ct 
5407 -22 5408 -15 5408 -10 ct 5408 -4 5408 -1 5409 -1 ct 5343 -1 l  5343 -4 5342 -7 5342 -12 ct 
5342 -17 5341 -22 5341 -28 ct 5341 -34 5340 -40 5340 -46 ct 5340 -53 5340 -59 5340 -66 ct 
5338 -66 l  p
5131 -206 m  5131 -177 5133 -153 5137 -133 ct 5140 -112 5146 -96 5154 -83 ct 
5161 -70 5171 -60 5183 -54 ct 5196 -48 5210 -45 5228 -45 ct 5246 -45 5262 -48 5275 -54 ct 
5289 -60 5301 -69 5310 -82 ct 5319 -95 5326 -112 5331 -133 ct 5336 -154 5338 -180 5338 -210 ct 
5338 -239 5336 -264 5331 -284 ct 5326 -304 5319 -320 5310 -333 ct 5300 -345 5289 -354 5275 -359 ct 
5262 -365 5246 -368 5229 -368 ct 5212 -368 5198 -365 5185 -359 ct 5173 -353 5163 -344 5155 -331 ct 
5147 -318 5141 -301 5137 -280 ct 5133 -260 5131 -235 5131 -206 ct p ef
5555 -191 m  5555 -169 5557 -149 5561 -131 ct 5566 -113 5572 -97 5582 -84 ct 
5591 -71 5603 -61 5617 -54 ct 5632 -47 5649 -43 5669 -43 ct 5699 -43 5722 -49 5740 -61 ct 
5758 -73 5770 -88 5776 -106 ct 5836 -89 l  5832 -78 5826 -66 5818 -55 ct 5810 -43 5800 -33 5787 -24 ct 
5774 -14 5758 -7 5739 -1 ct 5720 5 5696 8 5669 8 ct 5608 8 5562 -10 5531 -46 ct 
5499 -82 5483 -136 5483 -207 ct 5483 -246 5488 -278 5497 -305 ct 5507 -332 5520 -353 5537 -370 ct 
5553 -387 5573 -399 5595 -406 ct 5617 -414 5641 -417 5666 -417 ct 5701 -417 5729 -412 5753 -401 ct 
5776 -390 5794 -374 5808 -355 ct 5822 -335 5832 -312 5838 -286 ct 5844 -259 5847 -231 5847 -200 ct 
5847 -191 l  5555 -191 l  p
5777 -243 m  5773 -286 5762 -318 5744 -337 ct 5725 -357 5699 -367 5665 -367 ct 
5654 -367 5642 -365 5629 -362 ct 5617 -358 5605 -351 5595 -342 ct 5584 -333 5575 -320 5568 -304 ct 
5561 -288 5556 -268 5555 -243 ct 5777 -243 l  p ef
6178 0 m  6067 -168 l  5956 0 l  5883 0 l  6029 -211 l  5890 -410 l  5965 -410 l 
6067 -251 l  6169 -410 l  6245 -410 l  6106 -212 l  6254 0 l  6178 0 l 
p ef
6729 -475 m  6729 1 l  6657 1 l  6657 -475 l  6473 -475 l  6473 -534 l 
6912 -534 l  6912 -475 l  6729 -475 l  p ef
7052 -340 m  7060 -354 7068 -366 7077 -376 ct 7086 -385 7095 -393 7106 -400 ct 
7117 -406 7128 -411 7141 -414 ct 7153 -417 7168 -418 7183 -418 ct 7209 -418 7231 -414 7248 -407 ct 
7265 -400 7278 -390 7288 -378 ct 7297 -365 7304 -350 7308 -332 ct 7311 -314 7313 -295 7313 -274 ct 
7313 0 l  7245 0 l  7245 -260 l  7245 -278 7244 -293 7241 -306 ct 7239 -319 7235 -330 7229 -339 ct 
7223 -348 7214 -354 7203 -359 ct 7192 -363 7178 -365 7160 -365 ct 7144 -365 7129 -362 7116 -357 ct 
7103 -351 7092 -343 7083 -332 ct 7074 -321 7067 -308 7062 -293 ct 7057 -278 7054 -261 7054 -242 ct 
7054 0 l  6986 0 l  6986 -563 l  7054 -563 l  7054 -416 l  7054 -408 7054 -400 7054 -391 ct 
7053 -383 7053 -375 7053 -368 ct 7052 -361 7052 -355 7052 -350 ct 7051 -345 7051 -342 7051 -340 ct 
7052 -340 l  p ef
7409 0 m  7409 -315 l  7409 -323 7409 -332 7409 -341 ct 7408 -350 7408 -359 7408 -367 ct 
7408 -376 7408 -383 7407 -391 ct 7407 -398 7407 -405 7407 -410 ct 7471 -410 l 
7471 -405 7472 -398 7472 -390 ct 7472 -383 7473 -375 7473 -368 ct 7473 -360 7474 -352 7474 -345 ct 
7474 -338 7474 -332 7474 -327 ct 7476 -327 l  7480 -342 7485 -356 7491 -367 ct 
7496 -379 7503 -388 7510 -396 ct 7517 -403 7526 -409 7536 -413 ct 7546 -416 7558 -418 7573 -418 ct 
7578 -418 7584 -418 7589 -417 ct 7594 -416 7598 -415 7601 -414 ct 7601 -352 l 
7596 -353 7591 -354 7585 -354 ct 7579 -355 7572 -355 7564 -355 ct 7549 -355 7535 -352 7524 -345 ct 
7513 -338 7504 -328 7497 -315 ct 7490 -303 7485 -288 7482 -271 ct 7479 -253 7477 -234 7477 -214 ct 
7477 0 l  7409 0 l  p ef
7725 -191 m  7725 -169 7727 -149 7731 -131 ct 7736 -113 7742 -97 7752 -84 ct 
7761 -71 7773 -61 7787 -54 ct 7802 -47 7819 -43 7839 -43 ct 7869 -43 7892 -49 7910 -61 ct 
7928 -73 7940 -88 7946 -106 ct 8006 -89 l  8002 -78 7996 -66 7988 -55 ct 7980 -43 7970 -33 7957 -24 ct 
7944 -14 7928 -7 7909 -1 ct 7890 5 7866 8 7839 8 ct 7778 8 7732 -10 7701 -46 ct 
7669 -82 7653 -136 7653 -207 ct 7653 -246 7658 -278 7667 -305 ct 7677 -332 7690 -353 7707 -370 ct 
7723 -387 7743 -399 7765 -406 ct 7787 -414 7811 -417 7836 -417 ct 7871 -417 7899 -412 7923 -401 ct 
7946 -390 7964 -374 7978 -355 ct 7992 -335 8002 -312 8008 -286 ct 8014 -259 8017 -231 8017 -200 ct 
8017 -191 l  7725 -191 l  p
7947 -243 m  7943 -286 7932 -318 7914 -337 ct 7895 -357 7869 -367 7835 -367 ct 
7824 -367 7812 -365 7799 -362 ct 7787 -358 7775 -351 7765 -342 ct 7754 -333 7745 -320 7738 -304 ct 
7731 -288 7726 -268 7725 -243 ct 7947 -243 l  p ef
8402 -113 m  8402 -94 8398 -77 8391 -62 ct 8383 -47 8373 -34 8358 -24 ct 8344 -13 8327 -6 8306 0 ct 
8286 5 8262 8 8236 8 ct 8212 8 8190 6 8171 3 ct 8152 -1 8136 -7 8121 -15 ct 8107 -23 8095 -34 8085 -47 ct 
8075 -60 8068 -77 8064 -96 ct 8124 -108 l  8130 -86 8142 -70 8160 -59 ct 8178 -49 8203 -44 8236 -44 ct 
8250 -44 8264 -45 8276 -47 ct 8288 -49 8299 -53 8308 -57 ct 8316 -62 8323 -69 8328 -77 ct 
8333 -85 8336 -96 8336 -108 ct 8336 -120 8333 -130 8327 -138 ct 8321 -146 8313 -153 8303 -158 ct 
8292 -164 8280 -168 8265 -172 ct 8250 -176 8234 -180 8216 -185 ct 8200 -189 8184 -194 8167 -200 ct 
8151 -205 8137 -212 8124 -221 ct 8111 -229 8100 -240 8092 -253 ct 8084 -266 8080 -282 8080 -302 ct 
8080 -339 8093 -368 8120 -387 ct 8147 -407 8185 -417 8236 -417 ct 8282 -417 8318 -409 8344 -393 ct 
8371 -377 8388 -351 8395 -316 ct 8333 -308 l  8331 -319 8327 -328 8321 -335 ct 
8315 -342 8307 -348 8299 -353 ct 8290 -357 8281 -360 8270 -362 ct 8259 -364 8248 -365 8236 -365 ct 
8206 -365 8183 -360 8168 -351 ct 8154 -342 8146 -327 8146 -308 ct 8146 -297 8149 -288 8154 -281 ct 
8160 -274 8167 -268 8177 -263 ct 8187 -258 8198 -254 8212 -250 ct 8226 -246 8241 -242 8257 -238 ct 
8268 -235 8279 -233 8291 -229 ct 8302 -226 8313 -222 8324 -218 ct 8334 -214 8345 -208 8354 -202 ct 
8364 -196 8372 -189 8379 -181 ct 8386 -173 8392 -163 8396 -152 ct 8400 -141 8402 -128 8402 -113 ct 
p ef
8559 -340 m  8567 -354 8575 -366 8584 -376 ct 8593 -385 8602 -393 8613 -400 ct 
8624 -406 8635 -411 8648 -414 ct 8660 -417 8675 -418 8690 -418 ct 8716 -418 8738 -414 8755 -407 ct 
8772 -400 8785 -390 8795 -378 ct 8804 -365 8811 -350 8815 -332 ct 8818 -314 8820 -295 8820 -274 ct 
8820 0 l  8752 0 l  8752 -260 l  8752 -278 8751 -293 8748 -306 ct 8746 -319 8742 -330 8736 -339 ct 
8730 -348 8721 -354 8710 -359 ct 8699 -363 8685 -365 8667 -365 ct 8651 -365 8636 -362 8623 -357 ct 
8610 -351 8599 -343 8590 -332 ct 8581 -321 8574 -308 8569 -293 ct 8564 -278 8561 -261 8561 -242 ct 
8561 0 l  8493 0 l  8493 -563 l  8561 -563 l  8561 -416 l  8561 -408 8561 -400 8561 -391 ct 
8560 -383 8560 -375 8560 -368 ct 8559 -361 8559 -355 8559 -350 ct 8558 -345 8558 -342 8558 -340 ct 
8559 -340 l  p ef
9262 -205 m  9262 -133 9246 -80 9215 -45 ct 9183 -10 9137 8 9077 8 ct 9049 8 9023 4 9001 -5 ct 
8978 -13 8959 -27 8944 -44 ct 8928 -62 8916 -84 8908 -111 ct 8900 -138 8896 -169 8896 -205 ct 
8896 -347 8957 -417 9079 -417 ct 9111 -417 9139 -413 9162 -404 ct 9185 -395 9204 -382 9219 -364 ct 
9233 -347 9244 -325 9251 -298 ct 9258 -271 9262 -240 9262 -205 ct p
9190 -205 m  9190 -237 9188 -263 9183 -284 ct 9178 -305 9171 -321 9161 -334 ct 
9152 -346 9140 -355 9127 -360 ct 9113 -365 9098 -367 9081 -367 ct 9063 -367 9047 -364 9033 -359 ct 
9019 -354 9007 -345 8998 -333 ct 8988 -320 8980 -304 8975 -283 ct 8970 -262 8967 -236 8967 -205 ct 
8967 -173 8970 -147 8976 -126 ct 8981 -105 8989 -89 8998 -76 ct 9008 -64 9020 -55 9033 -50 ct 
9046 -45 9061 -42 9076 -42 ct 9094 -42 9110 -45 9124 -50 ct 9138 -55 9150 -63 9160 -76 ct 
9170 -88 9177 -105 9182 -126 ct 9188 -147 9190 -173 9190 -205 ct p ef
9338 0 m  9338 -563 l  9407 -563 l  9407 0 l  9338 0 l  p ef
9756 -66 m  9743 -40 9727 -21 9706 -9 ct 9685 2 9659 8 9628 8 ct 9577 8 9539 -10 9514 -45 ct 
9490 -80 9478 -132 9478 -203 ct 9478 -346 9528 -418 9628 -418 ct 9659 -418 9685 -412 9706 -401 ct 
9727 -390 9743 -371 9756 -347 ct 9757 -347 l  9757 -349 9757 -353 9757 -359 ct 
9757 -364 9756 -370 9756 -376 ct 9756 -382 9756 -387 9756 -393 ct 9756 -398 9756 -402 9756 -404 ct 
9756 -563 l  9824 -563 l  9824 -83 l  9824 -73 9824 -63 9824 -54 ct 9825 -45 9825 -37 9825 -29 ct 
9825 -22 9826 -15 9826 -10 ct 9826 -4 9826 -1 9827 -1 ct 9761 -1 l  9761 -4 9760 -7 9760 -12 ct 
9760 -17 9759 -22 9759 -28 ct 9759 -34 9758 -40 9758 -46 ct 9758 -53 9758 -59 9758 -66 ct 
9756 -66 l  p
9549 -206 m  9549 -177 9551 -153 9555 -133 ct 9558 -112 9564 -96 9572 -83 ct 
9579 -70 9589 -60 9601 -54 ct 9614 -48 9628 -45 9646 -45 ct 9664 -45 9680 -48 9693 -54 ct 
9707 -60 9719 -69 9728 -82 ct 9737 -95 9744 -112 9749 -133 ct 9754 -154 9756 -180 9756 -210 ct 
9756 -239 9754 -264 9749 -284 ct 9744 -304 9737 -320 9728 -333 ct 9718 -345 9707 -354 9693 -359 ct 
9680 -365 9664 -368 9647 -368 ct 9630 -368 9616 -365 9603 -359 ct 9591 -353 9581 -344 9573 -331 ct 
9565 -318 9559 -301 9555 -280 ct 9551 -260 9549 -235 9549 -206 ct p ef
pom
pum
1373 28932 t
89.9 r 410 0 m  124 -455 l  125 -443 125 -431 126 -418 ct 127 -408 127 -397 128 -386 ct 
128 -374 128 -364 128 -355 ct 128 0 l  64 0 l  64 -535 l  148 -535 l  437 -76 l 
436 -89 435 -101 434 -113 ct 434 -124 433 -136 433 -148 ct 432 -161 432 -173 432 -184 ct 
432 -535 l  497 -535 l  497 0 l  410 0 l  p ef
675 -410 m  675 -150 l  675 -130 676 -113 679 -100 ct 682 -86 687 -76 694 -67 ct 
700 -59 709 -53 720 -50 ct 730 -46 744 -45 759 -45 ct 776 -45 790 -48 803 -53 ct 
816 -59 827 -67 837 -78 ct 846 -89 853 -102 858 -118 ct 863 -134 866 -152 866 -172 ct 
866 -410 l  934 -410 l  934 -86 l  934 -77 934 -68 934 -59 ct 934 -49 934 -40 935 -32 ct 
935 -23 935 -16 935 -10 ct 936 -4 936 -1 936 -1 ct 872 -1 l  871 -2 871 -5 871 -11 ct 
871 -16 870 -23 870 -30 ct 870 -37 869 -44 869 -51 ct 869 -59 869 -65 869 -70 ct 
867 -70 l  861 -58 854 -47 846 -38 ct 838 -28 829 -20 819 -13 ct 808 -6 796 -1 783 3 ct 
770 6 754 8 736 8 ct 714 8 694 5 678 0 ct 661 -6 648 -15 637 -26 ct 626 -38 619 -53 614 -71 ct 
609 -89 606 -111 606 -137 ct 606 -410 l  675 -410 l  p ef
1270 0 m  1270 -260 l  1270 -280 1269 -297 1266 -310 ct 1264 -324 1259 -335 1254 -343 ct 
1248 -351 1240 -357 1230 -360 ct 1221 -364 1209 -365 1195 -365 ct 1181 -365 1168 -362 1156 -357 ct 
1144 -351 1134 -343 1126 -332 ct 1118 -321 1112 -308 1107 -292 ct 1103 -276 1101 -258 1101 -238 ct 
1101 0 l  1033 0 l  1033 -324 l  1033 -332 1033 -341 1033 -351 ct 1032 -360 1032 -369 1032 -378 ct 
1032 -386 1032 -394 1031 -400 ct 1031 -406 1031 -409 1031 -409 ct 1095 -409 l 
1095 -408 1095 -404 1096 -399 ct 1096 -393 1096 -387 1097 -380 ct 1097 -373 1097 -366 1098 -359 ct 
1098 -351 1098 -345 1098 -340 ct 1099 -340 l  1105 -352 1112 -363 1119 -372 ct 
1126 -382 1134 -390 1144 -397 ct 1153 -404 1164 -409 1176 -413 ct 1188 -416 1203 -418 1219 -418 ct 
1250 -418 1274 -412 1293 -399 ct 1311 -387 1323 -367 1330 -340 ct 1331 -340 l 
1337 -352 1344 -363 1352 -372 ct 1359 -382 1368 -390 1378 -397 ct 1388 -404 1400 -409 1412 -413 ct 
1425 -416 1440 -418 1456 -418 ct 1476 -418 1494 -415 1509 -410 ct 1524 -404 1537 -396 1546 -384 ct 
1556 -372 1563 -357 1567 -339 ct 1572 -321 1574 -299 1574 -274 ct 1574 0 l  1507 0 l 
1507 -260 l  1507 -280 1506 -297 1503 -310 ct 1501 -324 1496 -335 1490 -343 ct 
1484 -351 1477 -357 1467 -360 ct 1457 -364 1446 -365 1432 -365 ct 1417 -365 1404 -363 1393 -357 ct 
1381 -352 1371 -344 1363 -333 ct 1355 -322 1349 -309 1344 -293 ct 1340 -277 1337 -259 1337 -238 ct 
1337 0 l  1270 0 l  p ef
2013 -207 m  2013 -64 1963 7 1862 7 ct 1831 7 1805 2 1785 -9 ct 1764 -21 1747 -39 1735 -64 ct 
1734 -64 l  1734 -57 1734 -50 1733 -43 ct 1733 -36 1732 -29 1732 -23 ct 1732 -17 1731 -12 1731 -7 ct 
1731 -3 1730 -1 1730 -1 ct 1664 -1 l  1664 -3 1665 -7 1665 -12 ct 1665 -18 1665 -24 1666 -32 ct 
1666 -40 1666 -48 1666 -57 ct 1666 -66 1666 -76 1666 -85 ct 1666 -563 l  1735 -563 l 
1735 -402 l  1735 -395 1734 -388 1734 -381 ct 1734 -374 1734 -368 1734 -362 ct 
1733 -356 1733 -350 1733 -344 ct 1735 -344 l  1747 -371 1764 -390 1785 -401 ct 
1806 -412 1831 -418 1862 -418 ct 1914 -418 1952 -401 1976 -366 ct 2001 -331 2013 -278 2013 -207 ct 
p
1941 -205 m  1941 -233 1940 -257 1936 -278 ct 1933 -298 1927 -315 1919 -328 ct 
1911 -341 1901 -350 1889 -356 ct 1877 -362 1862 -365 1845 -365 ct 1827 -365 1811 -362 1797 -357 ct 
1783 -351 1772 -341 1763 -329 ct 1754 -316 1746 -299 1742 -278 ct 1737 -257 1735 -231 1735 -201 ct 
1735 -171 1737 -147 1742 -127 ct 1746 -107 1754 -91 1763 -78 ct 1772 -66 1783 -57 1797 -51 ct 
1811 -46 1826 -43 1844 -43 ct 1861 -43 1875 -46 1887 -52 ct 1899 -58 1909 -67 1918 -80 ct 
1926 -93 1932 -109 1936 -130 ct 1939 -151 1941 -176 1941 -205 ct p ef
2142 -191 m  2142 -169 2144 -149 2148 -131 ct 2153 -113 2159 -97 2169 -84 ct 
2178 -71 2190 -61 2204 -54 ct 2219 -47 2236 -43 2256 -43 ct 2286 -43 2309 -49 2327 -61 ct 
2345 -73 2357 -88 2363 -106 ct 2423 -89 l  2419 -78 2413 -66 2405 -55 ct 2397 -43 2387 -33 2374 -24 ct 
2361 -14 2345 -7 2326 -1 ct 2307 5 2283 8 2256 8 ct 2195 8 2149 -10 2118 -46 ct 
2086 -82 2070 -136 2070 -207 ct 2070 -246 2075 -278 2084 -305 ct 2094 -332 2107 -353 2124 -370 ct 
2140 -387 2160 -399 2182 -406 ct 2204 -414 2228 -417 2253 -417 ct 2288 -417 2316 -412 2340 -401 ct 
2363 -390 2381 -374 2395 -355 ct 2409 -335 2419 -312 2425 -286 ct 2431 -259 2434 -231 2434 -200 ct 
2434 -191 l  2142 -191 l  p
2364 -243 m  2360 -286 2349 -318 2331 -337 ct 2312 -357 2286 -367 2252 -367 ct 
2241 -367 2229 -365 2216 -362 ct 2204 -358 2192 -351 2182 -342 ct 2171 -333 2162 -320 2155 -304 ct 
2148 -288 2143 -268 2142 -243 ct 2364 -243 l  p ef
2515 0 m  2515 -315 l  2515 -323 2515 -332 2515 -341 ct 2514 -350 2514 -359 2514 -367 ct 
2514 -376 2514 -383 2513 -391 ct 2513 -398 2513 -405 2513 -410 ct 2577 -410 l 
2577 -405 2578 -398 2578 -390 ct 2578 -383 2579 -375 2579 -368 ct 2579 -360 2580 -352 2580 -345 ct 
2580 -338 2580 -332 2580 -327 ct 2582 -327 l  2586 -342 2591 -356 2597 -367 ct 
2602 -379 2609 -388 2616 -396 ct 2623 -403 2632 -409 2642 -413 ct 2652 -416 2664 -418 2679 -418 ct 
2684 -418 2690 -418 2695 -417 ct 2700 -416 2704 -415 2707 -414 ct 2707 -352 l 
2702 -353 2697 -354 2691 -354 ct 2685 -355 2678 -355 2670 -355 ct 2655 -355 2641 -352 2630 -345 ct 
2619 -338 2610 -328 2603 -315 ct 2596 -303 2591 -288 2588 -271 ct 2585 -253 2583 -234 2583 -214 ct 
2583 0 l  2515 0 l  p ef
3336 -205 m  3336 -133 3320 -80 3289 -45 ct 3257 -10 3211 8 3151 8 ct 3123 8 3097 4 3075 -5 ct 
3052 -13 3033 -27 3018 -44 ct 3002 -62 2990 -84 2982 -111 ct 2974 -138 2970 -169 2970 -205 ct 
2970 -347 3031 -417 3153 -417 ct 3185 -417 3213 -413 3236 -404 ct 3259 -395 3278 -382 3293 -364 ct 
3307 -347 3318 -325 3325 -298 ct 3332 -271 3336 -240 3336 -205 ct p
3264 -205 m  3264 -237 3262 -263 3257 -284 ct 3252 -305 3245 -321 3235 -334 ct 
3226 -346 3214 -355 3201 -360 ct 3187 -365 3172 -367 3155 -367 ct 3137 -367 3121 -364 3107 -359 ct 
3093 -354 3081 -345 3072 -333 ct 3062 -320 3054 -304 3049 -283 ct 3044 -262 3041 -236 3041 -205 ct 
3041 -173 3044 -147 3050 -126 ct 3055 -105 3063 -89 3072 -76 ct 3082 -64 3094 -55 3107 -50 ct 
3120 -45 3135 -42 3150 -42 ct 3168 -42 3184 -45 3198 -50 ct 3212 -55 3224 -63 3234 -76 ct 
3244 -88 3251 -105 3256 -126 ct 3262 -147 3264 -173 3264 -205 ct p ef
3497 -361 m  3497 -1 l  3429 -1 l  3429 -361 l  3371 -361 l  3371 -411 l 
3429 -411 l  3429 -457 l  3429 -472 3430 -486 3433 -499 ct 3436 -512 3441 -523 3448 -532 ct 
3456 -542 3466 -549 3479 -555 ct 3491 -560 3508 -563 3529 -563 ct 3537 -563 3545 -563 3554 -562 ct 
3563 -561 3570 -560 3577 -558 ct 3577 -506 l  3572 -507 3567 -508 3562 -509 ct 
3556 -509 3551 -510 3546 -510 ct 3536 -510 3528 -508 3522 -505 ct 3515 -503 3510 -499 3506 -493 ct 
3503 -488 3500 -482 3499 -474 ct 3497 -467 3497 -458 3497 -448 ct 3497 -411 l 
3577 -411 l  3577 -361 l  3497 -361 l  p ef
4261 -373 m  4261 -350 4257 -328 4249 -308 ct 4241 -288 4230 -271 4215 -256 ct 
4199 -241 4180 -229 4157 -221 ct 4134 -212 4107 -208 4077 -208 ct 3920 -208 l 
3920 0 l  3848 0 l  3848 -534 l  4072 -534 l  4104 -534 4131 -530 4155 -522 ct 
4178 -515 4198 -504 4214 -490 ct 4229 -476 4241 -459 4249 -439 ct 4257 -419 4261 -397 4261 -373 ct 
p
4188 -373 m  4188 -406 4178 -432 4157 -450 ct 4136 -467 4105 -476 4064 -476 ct 
3920 -476 l  3920 -265 l  4067 -265 l  4108 -265 4139 -275 4159 -293 ct 4178 -311 4188 -338 4188 -373 ct 
p ef
4340 0 m  4340 -315 l  4340 -323 4340 -332 4340 -341 ct 4339 -350 4339 -359 4339 -367 ct 
4339 -376 4339 -383 4338 -391 ct 4338 -398 4338 -405 4338 -410 ct 4402 -410 l 
4402 -405 4403 -398 4403 -390 ct 4403 -383 4404 -375 4404 -368 ct 4404 -360 4405 -352 4405 -345 ct 
4405 -338 4405 -332 4405 -327 ct 4407 -327 l  4411 -342 4416 -356 4422 -367 ct 
4427 -379 4434 -388 4441 -396 ct 4448 -403 4457 -409 4467 -413 ct 4477 -416 4489 -418 4504 -418 ct 
4509 -418 4515 -418 4520 -417 ct 4525 -416 4529 -415 4532 -414 ct 4532 -352 l 
4527 -353 4522 -354 4516 -354 ct 4510 -355 4503 -355 4495 -355 ct 4480 -355 4466 -352 4455 -345 ct 
4444 -338 4435 -328 4428 -315 ct 4421 -303 4416 -288 4413 -271 ct 4410 -253 4408 -234 4408 -214 ct 
4408 0 l  4340 0 l  p ef
4950 -205 m  4950 -133 4934 -80 4903 -45 ct 4871 -10 4825 8 4765 8 ct 4737 8 4711 4 4689 -5 ct 
4666 -13 4647 -27 4632 -44 ct 4616 -62 4604 -84 4596 -111 ct 4588 -138 4584 -169 4584 -205 ct 
4584 -347 4645 -417 4767 -417 ct 4799 -417 4827 -413 4850 -404 ct 4873 -395 4892 -382 4907 -364 ct 
4921 -347 4932 -325 4939 -298 ct 4946 -271 4950 -240 4950 -205 ct p
4878 -205 m  4878 -237 4876 -263 4871 -284 ct 4866 -305 4859 -321 4849 -334 ct 
4840 -346 4828 -355 4815 -360 ct 4801 -365 4786 -367 4769 -367 ct 4751 -367 4735 -364 4721 -359 ct 
4707 -354 4695 -345 4686 -333 ct 4676 -320 4668 -304 4663 -283 ct 4658 -262 4655 -236 4655 -205 ct 
4655 -173 4658 -147 4664 -126 ct 4669 -105 4677 -89 4686 -76 ct 4696 -64 4708 -55 4721 -50 ct 
4734 -45 4749 -42 4764 -42 ct 4782 -42 4798 -45 4812 -50 ct 4826 -55 4838 -63 4848 -76 ct 
4858 -88 4865 -105 4870 -126 ct 4876 -147 4878 -173 4878 -205 ct p ef
5184 -3 m  5174 0 5163 2 5152 4 ct 5142 5 5129 6 5115 6 ct 5060 6 5033 -25 5033 -87 ct 
5033 -361 l  4986 -361 l  4986 -411 l  5036 -411 l  5056 -503 l  5101 -503 l 
5101 -411 l  5177 -411 l  5177 -361 l  5101 -361 l  5101 -102 l  5101 -82 5105 -68 5111 -60 ct 
5117 -52 5129 -48 5145 -48 ct 5151 -48 5157 -49 5164 -50 ct 5170 -51 5177 -52 5184 -54 ct 
5184 -3 l  p ef
5585 -205 m  5585 -133 5569 -80 5538 -45 ct 5506 -10 5460 8 5400 8 ct 5372 8 5346 4 5324 -5 ct 
5301 -13 5282 -27 5267 -44 ct 5251 -62 5239 -84 5231 -111 ct 5223 -138 5219 -169 5219 -205 ct 
5219 -347 5280 -417 5402 -417 ct 5434 -417 5462 -413 5485 -404 ct 5508 -395 5527 -382 5542 -364 ct 
5556 -347 5567 -325 5574 -298 ct 5581 -271 5585 -240 5585 -205 ct p
5513 -205 m  5513 -237 5511 -263 5506 -284 ct 5501 -305 5494 -321 5484 -334 ct 
5475 -346 5463 -355 5450 -360 ct 5436 -365 5421 -367 5404 -367 ct 5386 -367 5370 -364 5356 -359 ct 
5342 -354 5330 -345 5321 -333 ct 5311 -320 5303 -304 5298 -283 ct 5293 -262 5290 -236 5290 -205 ct 
5290 -173 5293 -147 5299 -126 ct 5304 -105 5312 -89 5321 -76 ct 5331 -64 5343 -55 5356 -50 ct 
5369 -45 5384 -42 5399 -42 ct 5417 -42 5433 -45 5447 -50 ct 5461 -55 5473 -63 5483 -76 ct 
5493 -88 5500 -105 5505 -126 ct 5511 -147 5513 -173 5513 -205 ct p ef
5643 -176 m  5643 -237 l  5833 -237 l  5833 -176 l  5643 -176 l  p ef
pom
pum
2220 29435 t
89.9 r 399 -207 m  399 -176 396 -147 391 -121 ct 386 -95 378 -72 366 -53 ct 354 -34 339 -19 320 -9 ct 
300 2 276 7 248 7 ct 219 7 193 2 171 -9 ct 149 -20 132 -39 121 -64 ct 119 -64 l 
119 -63 119 -61 120 -57 ct 120 -53 120 -48 120 -42 ct 120 -36 120 -29 120 -22 ct 
120 -14 121 -7 121 1 ct 121 161 l  52 161 l  52 -328 l  52 -338 52 -347 52 -357 ct 
52 -366 52 -374 52 -381 ct 51 -389 51 -395 51 -401 ct 51 -406 50 -409 50 -409 ct 
116 -409 l  116 -408 117 -405 117 -401 ct 117 -396 118 -391 118 -385 ct 118 -379 119 -372 119 -365 ct 
120 -358 120 -351 120 -345 ct 121 -345 l  128 -358 135 -369 143 -378 ct 151 -387 160 -395 171 -401 ct 
181 -407 192 -411 205 -414 ct 218 -416 232 -418 248 -418 ct 276 -418 300 -413 320 -403 ct 
339 -392 354 -378 366 -360 ct 378 -342 386 -319 391 -294 ct 396 -268 399 -239 399 -207 ct 
p
327 -206 m  327 -231 326 -254 323 -273 ct 320 -293 315 -310 307 -323 ct 300 -337 290 -347 277 -354 ct 
265 -361 249 -365 231 -365 ct 216 -365 201 -363 188 -359 ct 175 -354 163 -346 153 -334 ct 
143 -322 135 -305 129 -284 ct 123 -262 121 -235 121 -200 ct 121 -171 123 -147 128 -127 ct 
132 -107 140 -90 149 -78 ct 158 -66 169 -57 183 -51 ct 197 -46 212 -43 230 -43 ct 
249 -43 265 -47 277 -54 ct 290 -61 300 -72 307 -86 ct 315 -100 320 -117 323 -137 ct 
326 -157 327 -180 327 -206 ct p ef
580 8 m  539 8 508 -3 487 -25 ct 466 -47 456 -77 456 -115 ct 456 -142 461 -164 471 -182 ct 
482 -199 495 -213 511 -223 ct 528 -232 547 -239 568 -243 ct 589 -247 611 -249 633 -249 ct 
725 -249 l  725 -271 l  725 -289 723 -303 720 -315 ct 716 -327 711 -337 703 -344 ct 
696 -352 687 -357 676 -361 ct 665 -364 652 -366 637 -366 ct 624 -366 612 -365 601 -363 ct 
591 -361 582 -358 574 -353 ct 566 -348 560 -341 555 -333 ct 550 -324 547 -313 545 -301 ct 
474 -307 l  477 -323 481 -338 489 -352 ct 496 -365 506 -377 519 -387 ct 532 -397 548 -404 568 -410 ct 
587 -415 611 -418 639 -418 ct 690 -418 729 -406 755 -382 ct 781 -359 794 -325 794 -280 ct 
794 -103 l  794 -83 797 -68 802 -57 ct 807 -47 817 -42 832 -42 ct 836 -42 840 -42 844 -43 ct 
847 -43 851 -44 855 -45 ct 855 -2 l  846 0 837 1 829 2 ct 821 3 812 4 802 4 ct 
789 4 778 2 769 -1 ct 760 -5 752 -10 746 -17 ct 740 -24 736 -32 733 -42 ct 730 -53 728 -64 727 -78 ct 
725 -78 l  718 -65 710 -53 701 -42 ct 692 -32 682 -23 670 -15 ct 659 -8 646 -2 631 2 ct 
616 6 599 8 580 8 ct p
595 -43 m  617 -43 636 -47 652 -55 ct 669 -63 682 -73 693 -85 ct 704 -98 712 -111 717 -126 ct 
722 -140 725 -154 725 -168 ct 725 -201 l  650 -201 l  634 -201 618 -200 603 -198 ct 
588 -196 575 -191 563 -185 ct 552 -179 543 -170 536 -158 ct 529 -147 526 -132 526 -113 ct 
526 -91 532 -74 544 -62 ct 556 -49 573 -43 595 -43 ct p ef
1057 -3 m  1047 0 1036 2 1025 4 ct 1015 5 1002 6 988 6 ct 933 6 906 -25 906 -87 ct 
906 -361 l  859 -361 l  859 -411 l  909 -411 l  929 -503 l  974 -503 l 
974 -411 l  1050 -411 l  1050 -361 l  974 -361 l  974 -102 l  974 -82 978 -68 984 -60 ct 
990 -52 1002 -48 1018 -48 ct 1024 -48 1030 -49 1037 -50 ct 1043 -51 1050 -52 1057 -54 ct 
1057 -3 l  p ef
1268 -3 m  1258 0 1247 2 1236 4 ct 1226 5 1213 6 1199 6 ct 1144 6 1117 -25 1117 -87 ct 
1117 -361 l  1070 -361 l  1070 -411 l  1120 -411 l  1140 -503 l  1185 -503 l 
1185 -411 l  1261 -411 l  1261 -361 l  1185 -361 l  1185 -102 l  1185 -82 1189 -68 1195 -60 ct 
1201 -52 1213 -48 1229 -48 ct 1235 -48 1241 -49 1248 -50 ct 1254 -51 1261 -52 1268 -54 ct 
1268 -3 l  p ef
1375 -191 m  1375 -169 1377 -149 1381 -131 ct 1386 -113 1392 -97 1402 -84 ct 
1411 -71 1423 -61 1437 -54 ct 1452 -47 1469 -43 1489 -43 ct 1519 -43 1542 -49 1560 -61 ct 
1578 -73 1590 -88 1596 -106 ct 1656 -89 l  1652 -78 1646 -66 1638 -55 ct 1630 -43 1620 -33 1607 -24 ct 
1594 -14 1578 -7 1559 -1 ct 1540 5 1516 8 1489 8 ct 1428 8 1382 -10 1351 -46 ct 
1319 -82 1303 -136 1303 -207 ct 1303 -246 1308 -278 1317 -305 ct 1327 -332 1340 -353 1357 -370 ct 
1373 -387 1393 -399 1415 -406 ct 1437 -414 1461 -417 1486 -417 ct 1521 -417 1549 -412 1573 -401 ct 
1596 -390 1614 -374 1628 -355 ct 1642 -335 1652 -312 1658 -286 ct 1664 -259 1667 -231 1667 -200 ct 
1667 -191 l  1375 -191 l  p
1597 -243 m  1593 -286 1582 -318 1564 -337 ct 1545 -357 1519 -367 1485 -367 ct 
1474 -367 1462 -365 1449 -362 ct 1437 -358 1425 -351 1415 -342 ct 1404 -333 1395 -320 1388 -304 ct 
1381 -288 1376 -268 1375 -243 ct 1597 -243 l  p ef
1747 0 m  1747 -315 l  1747 -323 1747 -332 1747 -341 ct 1746 -350 1746 -359 1746 -367 ct 
1746 -376 1746 -383 1745 -391 ct 1745 -398 1745 -405 1745 -410 ct 1809 -410 l 
1809 -405 1810 -398 1810 -390 ct 1810 -383 1811 -375 1811 -368 ct 1811 -360 1812 -352 1812 -345 ct 
1812 -338 1812 -332 1812 -327 ct 1814 -327 l  1818 -342 1823 -356 1829 -367 ct 
1834 -379 1841 -388 1848 -396 ct 1855 -403 1864 -409 1874 -413 ct 1884 -416 1896 -418 1911 -418 ct 
1916 -418 1922 -418 1927 -417 ct 1932 -416 1936 -415 1939 -414 ct 1939 -352 l 
1934 -353 1929 -354 1923 -354 ct 1917 -355 1910 -355 1902 -355 ct 1887 -355 1873 -352 1862 -345 ct 
1851 -338 1842 -328 1835 -315 ct 1828 -303 1823 -288 1820 -271 ct 1817 -253 1815 -234 1815 -214 ct 
1815 0 l  1747 0 l  p ef
2271 0 m  2271 -260 l  2271 -280 2269 -297 2266 -310 ct 2263 -324 2259 -335 2252 -343 ct 
2245 -351 2237 -357 2226 -360 ct 2215 -364 2202 -365 2186 -365 ct 2170 -365 2155 -362 2142 -357 ct 
2129 -351 2118 -343 2109 -332 ct 2100 -321 2093 -308 2088 -292 ct 2083 -276 2080 -258 2080 -238 ct 
2080 0 l  2012 0 l  2012 -324 l  2012 -332 2012 -341 2012 -351 ct 2011 -360 2011 -369 2011 -378 ct 
2011 -386 2011 -394 2010 -400 ct 2010 -406 2010 -409 2010 -409 ct 2074 -409 l 
2074 -408 2074 -404 2075 -399 ct 2075 -393 2075 -387 2076 -380 ct 2076 -373 2076 -366 2077 -359 ct 
2077 -351 2077 -345 2077 -340 ct 2078 -340 l  2085 -352 2092 -363 2100 -372 ct 
2108 -382 2117 -390 2127 -397 ct 2137 -404 2149 -409 2163 -413 ct 2176 -416 2192 -418 2209 -418 ct 
2232 -418 2252 -415 2268 -410 ct 2284 -404 2298 -396 2308 -384 ct 2319 -372 2327 -357 2332 -339 ct 
2337 -321 2339 -299 2339 -274 ct 2339 0 l  2271 0 l  p ef
2741 -113 m  2741 -94 2737 -77 2730 -62 ct 2722 -47 2712 -34 2697 -24 ct 2683 -13 2666 -6 2645 0 ct 
2625 5 2601 8 2575 8 ct 2551 8 2529 6 2510 3 ct 2491 -1 2475 -7 2460 -15 ct 2446 -23 2434 -34 2424 -47 ct 
2414 -60 2407 -77 2403 -96 ct 2463 -108 l  2469 -86 2481 -70 2499 -59 ct 2517 -49 2542 -44 2575 -44 ct 
2589 -44 2603 -45 2615 -47 ct 2627 -49 2638 -53 2647 -57 ct 2655 -62 2662 -69 2667 -77 ct 
2672 -85 2675 -96 2675 -108 ct 2675 -120 2672 -130 2666 -138 ct 2660 -146 2652 -153 2642 -158 ct 
2631 -164 2619 -168 2604 -172 ct 2589 -176 2573 -180 2555 -185 ct 2539 -189 2523 -194 2506 -200 ct 
2490 -205 2476 -212 2463 -221 ct 2450 -229 2439 -240 2431 -253 ct 2423 -266 2419 -282 2419 -302 ct 
2419 -339 2432 -368 2459 -387 ct 2486 -407 2524 -417 2575 -417 ct 2621 -417 2657 -409 2683 -393 ct 
2710 -377 2727 -351 2734 -316 ct 2672 -308 l  2670 -319 2666 -328 2660 -335 ct 
2654 -342 2646 -348 2638 -353 ct 2629 -357 2620 -360 2609 -362 ct 2598 -364 2587 -365 2575 -365 ct 
2545 -365 2522 -360 2507 -351 ct 2493 -342 2485 -327 2485 -308 ct 2485 -297 2488 -288 2493 -281 ct 
2499 -274 2506 -268 2516 -263 ct 2526 -258 2537 -254 2551 -250 ct 2565 -246 2580 -242 2596 -238 ct 
2607 -235 2618 -233 2630 -229 ct 2641 -226 2652 -222 2663 -218 ct 2673 -214 2684 -208 2693 -202 ct 
2703 -196 2711 -189 2718 -181 ct 2725 -173 2731 -163 2735 -152 ct 2739 -141 2741 -128 2741 -113 ct 
p ef
3127 -361 m  3127 -1 l  3059 -1 l  3059 -361 l  3001 -361 l  3001 -411 l 
3059 -411 l  3059 -457 l  3059 -472 3060 -486 3063 -499 ct 3066 -512 3071 -523 3078 -532 ct 
3086 -542 3096 -549 3109 -555 ct 3121 -560 3138 -563 3159 -563 ct 3167 -563 3175 -563 3184 -562 ct 
3193 -561 3200 -560 3207 -558 ct 3207 -506 l  3202 -507 3197 -508 3192 -509 ct 
3186 -509 3181 -510 3176 -510 ct 3166 -510 3158 -508 3152 -505 ct 3145 -503 3140 -499 3136 -493 ct 
3133 -488 3130 -482 3129 -474 ct 3127 -467 3127 -458 3127 -448 ct 3127 -411 l 
3207 -411 l  3207 -361 l  3127 -361 l  p ef
3600 -205 m  3600 -133 3584 -80 3553 -45 ct 3521 -10 3475 8 3415 8 ct 3387 8 3361 4 3339 -5 ct 
3316 -13 3297 -27 3282 -44 ct 3266 -62 3254 -84 3246 -111 ct 3238 -138 3234 -169 3234 -205 ct 
3234 -347 3295 -417 3417 -417 ct 3449 -417 3477 -413 3500 -404 ct 3523 -395 3542 -382 3557 -364 ct 
3571 -347 3582 -325 3589 -298 ct 3596 -271 3600 -240 3600 -205 ct p
3528 -205 m  3528 -237 3526 -263 3521 -284 ct 3516 -305 3509 -321 3499 -334 ct 
3490 -346 3478 -355 3465 -360 ct 3451 -365 3436 -367 3419 -367 ct 3401 -367 3385 -364 3371 -359 ct 
3357 -354 3345 -345 3336 -333 ct 3326 -320 3318 -304 3313 -283 ct 3308 -262 3305 -236 3305 -205 ct 
3305 -173 3308 -147 3314 -126 ct 3319 -105 3327 -89 3336 -76 ct 3346 -64 3358 -55 3371 -50 ct 
3384 -45 3399 -42 3414 -42 ct 3432 -42 3448 -45 3462 -50 ct 3476 -55 3488 -63 3498 -76 ct 
3508 -88 3515 -105 3520 -126 ct 3526 -147 3528 -173 3528 -205 ct p ef
3679 0 m  3679 -315 l  3679 -323 3679 -332 3679 -341 ct 3678 -350 3678 -359 3678 -367 ct 
3678 -376 3678 -383 3677 -391 ct 3677 -398 3677 -405 3677 -410 ct 3741 -410 l 
3741 -405 3742 -398 3742 -390 ct 3742 -383 3743 -375 3743 -368 ct 3743 -360 3744 -352 3744 -345 ct 
3744 -338 3744 -332 3744 -327 ct 3746 -327 l  3750 -342 3755 -356 3761 -367 ct 
3766 -379 3773 -388 3780 -396 ct 3787 -403 3796 -409 3806 -413 ct 3816 -416 3828 -418 3843 -418 ct 
3848 -418 3854 -418 3859 -417 ct 3864 -416 3868 -415 3871 -414 ct 3871 -352 l 
3866 -353 3861 -354 3855 -354 ct 3849 -355 3842 -355 3834 -355 ct 3819 -355 3805 -352 3794 -345 ct 
3783 -338 3774 -328 3767 -315 ct 3760 -303 3755 -288 3752 -271 ct 3749 -253 3747 -234 3747 -214 ct 
3747 0 l  3679 0 l  p ef
4542 0 m  4403 -222 l  4237 -222 l  4237 0 l  4165 0 l  4165 -535 l  4416 -535 l 
4446 -535 4473 -532 4496 -525 ct 4520 -518 4539 -508 4555 -494 ct 4571 -481 4583 -465 4592 -446 ct 
4600 -427 4604 -406 4604 -382 ct 4604 -365 4602 -348 4597 -332 ct 4592 -315 4584 -300 4573 -287 ct 
4563 -273 4549 -261 4533 -251 ct 4517 -241 4497 -234 4474 -230 ct 4625 0 l  4542 0 l 
p
4531 -381 m  4531 -397 4529 -411 4523 -423 ct 4518 -435 4509 -445 4499 -453 ct 
4488 -461 4475 -467 4460 -471 ct 4445 -475 4428 -477 4409 -477 ct 4237 -477 l 
4237 -279 l  4412 -279 l  4432 -279 4450 -282 4466 -287 ct 4481 -292 4493 -299 4503 -309 ct 
4513 -318 4520 -328 4524 -341 ct 4529 -353 4531 -367 4531 -381 ct p ef
4762 -191 m  4762 -169 4764 -149 4768 -131 ct 4773 -113 4779 -97 4789 -84 ct 
4798 -71 4810 -61 4824 -54 ct 4839 -47 4856 -43 4876 -43 ct 4906 -43 4929 -49 4947 -61 ct 
4965 -73 4977 -88 4983 -106 ct 5043 -89 l  5039 -78 5033 -66 5025 -55 ct 5017 -43 5007 -33 4994 -24 ct 
4981 -14 4965 -7 4946 -1 ct 4927 5 4903 8 4876 8 ct 4815 8 4769 -10 4738 -46 ct 
4706 -82 4690 -136 4690 -207 ct 4690 -246 4695 -278 4704 -305 ct 4714 -332 4727 -353 4744 -370 ct 
4760 -387 4780 -399 4802 -406 ct 4824 -414 4848 -417 4873 -417 ct 4908 -417 4936 -412 4960 -401 ct 
4983 -390 5001 -374 5015 -355 ct 5029 -335 5039 -312 5045 -286 ct 5051 -259 5054 -231 5054 -200 ct 
5054 -191 l  4762 -191 l  p
4984 -243 m  4980 -286 4969 -318 4951 -337 ct 4932 -357 4906 -367 4872 -367 ct 
4861 -367 4849 -365 4836 -362 ct 4824 -358 4812 -351 4802 -342 ct 4791 -333 4782 -320 4775 -304 ct 
4768 -288 4763 -268 4762 -243 ct 4984 -243 l  p ef
5217 -361 m  5217 -1 l  5149 -1 l  5149 -361 l  5091 -361 l  5091 -411 l 
5149 -411 l  5149 -457 l  5149 -472 5150 -486 5153 -499 ct 5156 -512 5161 -523 5168 -532 ct 
5176 -542 5186 -549 5199 -555 ct 5211 -560 5228 -563 5249 -563 ct 5257 -563 5265 -563 5274 -562 ct 
5283 -561 5290 -560 5297 -558 ct 5297 -506 l  5292 -507 5287 -508 5282 -509 ct 
5276 -509 5271 -510 5266 -510 ct 5256 -510 5248 -508 5242 -505 ct 5235 -503 5230 -499 5226 -493 ct 
5223 -488 5220 -482 5219 -474 ct 5217 -467 5217 -458 5217 -448 ct 5217 -411 l 
5297 -411 l  5297 -361 l  5217 -361 l  p ef
5344 -498 m  5344 -563 l  5412 -563 l  5412 -498 l  5344 -498 l  p
5344 0 m  5344 -410 l  5412 -410 l  5412 0 l  5344 0 l  p ef
5763 0 m  5763 -260 l  5763 -280 5761 -297 5758 -310 ct 5755 -324 5751 -335 5744 -343 ct 
5737 -351 5729 -357 5718 -360 ct 5707 -364 5694 -365 5678 -365 ct 5662 -365 5647 -362 5634 -357 ct 
5621 -351 5610 -343 5601 -332 ct 5592 -321 5585 -308 5580 -292 ct 5575 -276 5572 -258 5572 -238 ct 
5572 0 l  5504 0 l  5504 -324 l  5504 -332 5504 -341 5504 -351 ct 5503 -360 5503 -369 5503 -378 ct 
5503 -386 5503 -394 5502 -400 ct 5502 -406 5502 -409 5502 -409 ct 5566 -409 l 
5566 -408 5566 -404 5567 -399 ct 5567 -393 5567 -387 5568 -380 ct 5568 -373 5568 -366 5569 -359 ct 
5569 -351 5569 -345 5569 -340 ct 5570 -340 l  5577 -352 5584 -363 5592 -372 ct 
5600 -382 5609 -390 5619 -397 ct 5629 -404 5641 -409 5655 -413 ct 5668 -416 5684 -418 5701 -418 ct 
5724 -418 5744 -415 5760 -410 ct 5776 -404 5790 -396 5800 -384 ct 5811 -372 5819 -357 5824 -339 ct 
5829 -321 5831 -299 5831 -274 ct 5831 0 l  5763 0 l  p ef
5926 -498 m  5926 -563 l  5994 -563 l  5994 -498 l  5926 -498 l  p
5926 0 m  5926 -410 l  5994 -410 l  5994 0 l  5926 0 l  p ef
6346 0 m  6346 -260 l  6346 -280 6344 -297 6341 -310 ct 6338 -324 6334 -335 6327 -343 ct 
6320 -351 6312 -357 6301 -360 ct 6290 -364 6277 -365 6261 -365 ct 6245 -365 6230 -362 6217 -357 ct 
6204 -351 6193 -343 6184 -332 ct 6175 -321 6168 -308 6163 -292 ct 6158 -276 6155 -258 6155 -238 ct 
6155 0 l  6087 0 l  6087 -324 l  6087 -332 6087 -341 6087 -351 ct 6086 -360 6086 -369 6086 -378 ct 
6086 -386 6086 -394 6085 -400 ct 6085 -406 6085 -409 6085 -409 ct 6149 -409 l 
6149 -408 6149 -404 6150 -399 ct 6150 -393 6150 -387 6151 -380 ct 6151 -373 6151 -366 6152 -359 ct 
6152 -351 6152 -345 6152 -340 ct 6153 -340 l  6160 -352 6167 -363 6175 -372 ct 
6183 -382 6192 -390 6202 -397 ct 6212 -404 6224 -409 6238 -413 ct 6251 -416 6267 -418 6284 -418 ct 
6307 -418 6327 -415 6343 -410 ct 6359 -404 6373 -396 6383 -384 ct 6394 -372 6402 -357 6407 -339 ct 
6412 -321 6414 -299 6414 -274 ct 6414 0 l  6346 0 l  p ef
6664 161 m  6640 161 6619 159 6601 154 ct 6583 149 6567 142 6555 133 ct 6542 124 6531 113 6523 101 ct 
6515 89 6509 75 6506 60 ct 6574 50 l  6579 69 6589 83 6604 94 ct 6620 104 6640 109 6666 109 ct 
6681 109 6695 107 6708 103 ct 6720 98 6731 91 6740 82 ct 6749 72 6755 60 6760 45 ct 
6765 30 6767 11 6767 -10 ct 6767 -76 l  6767 -76 l  6762 -66 6755 -56 6748 -47 ct 
6740 -37 6731 -29 6721 -21 ct 6710 -14 6697 -8 6683 -4 ct 6669 1 6653 3 6635 3 ct 
6609 3 6587 -1 6568 -10 ct 6549 -19 6534 -32 6523 -49 ct 6511 -67 6502 -89 6497 -114 ct 
6491 -140 6489 -170 6489 -205 ct 6489 -237 6491 -267 6497 -293 ct 6502 -320 6511 -342 6523 -360 ct 
6536 -379 6551 -393 6571 -402 ct 6591 -412 6614 -417 6642 -417 ct 6671 -417 6697 -410 6718 -397 ct 
6739 -384 6756 -365 6767 -340 ct 6768 -340 l  6768 -347 6768 -354 6769 -362 ct 
6769 -370 6770 -377 6770 -384 ct 6770 -391 6771 -397 6771 -402 ct 6772 -407 6772 -410 6773 -410 ct 
6838 -410 l  6837 -408 6837 -404 6837 -398 ct 6837 -393 6836 -386 6836 -379 ct 
6836 -371 6836 -363 6835 -354 ct 6835 -344 6835 -335 6835 -325 ct 6835 -12 l 
6835 46 6821 89 6793 118 ct 6765 147 6722 161 6664 161 ct p
6767 -205 m  6767 -234 6764 -258 6758 -279 ct 6752 -299 6744 -316 6734 -329 ct 
6724 -342 6712 -351 6699 -357 ct 6686 -363 6673 -366 6659 -366 ct 6642 -366 6627 -363 6614 -357 ct 
6602 -351 6591 -341 6583 -328 ct 6575 -315 6569 -299 6565 -278 ct 6561 -258 6559 -234 6559 -205 ct 
6559 -176 6561 -151 6565 -131 ct 6569 -111 6575 -94 6583 -82 ct 6591 -70 6601 -61 6614 -55 ct 
6626 -50 6641 -47 6658 -47 ct 6672 -47 6685 -50 6698 -56 ct 6711 -62 6723 -71 6733 -84 ct 
6743 -97 6752 -113 6758 -133 ct 6764 -153 6767 -177 6767 -205 ct p ef
pom
0 9000 t 
pom
count op_count sub {pop} repeat countdictstack dict_count sub {end} repeat b4_inc_state restore
%%PageTrailer
%%Trailer
%%EOF
