%!PS-Adobe-3.0 EPSF-3.0 
%%BoundingBox: 0 0 454 255
%%Pages: 0
%%Creator: LibreOffice 5.1
%%Title: none
%%CreationDate: none
%%LanguageLevel: 2
%%EndComments
%%BeginProlog
%%BeginResource: procset SDRes-Prolog 1.0 0
/b4_inc_state save def
/dict_count countdictstack def
/op_count count 1 sub def
userdict begin
0 setgray 0 setlinecap 1 setlinewidth 0 setlinejoin 10 setmiterlimit[] 0 setdash newpath
/languagelevel where {pop languagelevel 1 ne {false setstrokeadjust false setoverprint} if} if
/bdef {bind def} bind def
/c {setrgbcolor} bdef
/l {neg lineto} bdef
/rl {neg rlineto} bdef
/lc {setlinecap} bdef
/lj {setlinejoin} bdef
/lw {setlinewidth} bdef
/ml {setmiterlimit} bdef
/ld {setdash} bdef
/m {neg moveto} bdef
/ct {6 2 roll neg 6 2 roll neg 6 2 roll neg curveto} bdef
/r {rotate} bdef
/t {neg translate} bdef
/s {scale} bdef
/sw {show} bdef
/gs {gsave} bdef
/gr {grestore} bdef
/f {findfont dup length dict begin
{1 index /FID ne {def} {pop pop} ifelse} forall /Encoding ISOLatin1Encoding def
currentdict end /NFont exch definefont pop /NFont findfont} bdef
/p {closepath} bdef
/sf {scalefont setfont} bdef
/ef {eofill}bdef
/pc {closepath stroke}bdef
/ps {stroke}bdef
/pum {matrix currentmatrix}bdef
/pom {setmatrix}bdef
/bs {/aString exch def /nXOfs exch def /nWidth exch def currentpoint nXOfs 0 rmoveto pum nWidth aString stringwidth pop div 1 scale aString show pom moveto} bdef
%%EndResource
%%EndProlog
%%BeginSetup
%%EndSetup
%%Page: 1 1
%%BeginPageSetup
%%EndPageSetup
pum
0.02837 0.02833 s 
0 -9000 t
/tm matrix currentmatrix def
tm setmatrix
-266 -2800 t 
1 1 s 
1.000 1.000 1.000 c 8266 11799 m  266 11799 l  266 2800 l  16265 2800 l 
16265 11799 l  8266 11799 l  p ef
0 lw 1 lj 0.703 0.703 0.703 c 10257 8936 m  4570 8936 l  4570 4939 l  15945 4939 l 
15945 8936 l  10257 8936 l  pc
15945 8935 m  4570 8935 l  ps
15945 6937 m  4570 6937 l  ps
15945 4938 m  4570 4938 l  ps
4570 9085 m  4570 8935 l  ps
4570 9085 m  4570 8935 l  ps
7414 9085 m  7414 8935 l  ps
7414 9085 m  7414 8935 l  ps
10257 9085 m  10257 8935 l  ps
10257 9085 m  10257 8935 l  ps
13101 9085 m  13101 8935 l  ps
13101 9085 m  13101 8935 l  ps
15945 9085 m  15945 8935 l  ps
15945 9085 m  15945 8935 l  ps
4570 8935 m  15945 8935 l  ps
4420 8935 m  4570 8935 l  ps
4420 8935 m  4570 8935 l  ps
4420 6937 m  4570 6937 l  ps
4420 6937 m  4570 6937 l  ps
4420 4938 m  4570 4938 l  ps
4420 4938 m  4570 4938 l  ps
4570 8935 m  4570 4938 l  ps
0.003 0.003 0.003 c 13574 8935 m  14523 8935 l  14523 7259 l  13574 7259 l 
13574 8935 l  p ef
10731 8935 m  11679 8935 l  11679 6928 l  10731 6928 l  10731 8935 l  p ef
7888 8935 m  8835 8935 l  8835 6976 l  7888 6976 l  7888 8935 l  p ef
5044 8935 m  5992 8935 l  5992 5605 l  5044 5605 l  5044 8935 l  p ef
0.503 0.503 0.503 c 14523 8935 m  15471 8935 l  15471 6702 l  14523 6702 l 
14523 8935 l  p ef
11679 8935 m  12627 8935 l  12627 6877 l  11679 6877 l  11679 8935 l  p ef
8835 8935 m  9783 8935 l  9783 6853 l  8835 6853 l  8835 8935 l  p ef
5992 8935 m  6940 8935 l  6940 5363 l  5992 5363 l  5992 8935 l  p ef
pum
5291 9820 t
0.003 0.003 0.003 c 365 -243 m  365 -196 361 -157 352 -125 ct 343 -93 331 -68 316 -48 ct 
300 -28 282 -14 262 -6 ct 241 3 219 7 195 7 ct 172 7 150 3 129 -6 ct 109 -14 91 -28 76 -48 ct 
61 -67 49 -93 41 -125 ct 32 -157 28 -196 28 -243 ct 28 -292 32 -332 41 -365 ct 
49 -397 61 -422 76 -441 ct 91 -460 109 -474 130 -481 ct 151 -489 173 -493 198 -493 ct 
221 -493 243 -489 263 -481 ct 283 -474 301 -460 316 -441 ct 331 -422 343 -397 352 -365 ct 
361 -332 365 -292 365 -243 ct p
302 -243 m  302 -282 300 -314 295 -339 ct 290 -365 284 -385 275 -401 ct 266 -416 255 -427 242 -433 ct 
229 -440 214 -443 198 -443 ct 180 -443 165 -439 151 -433 ct 138 -427 127 -416 118 -400 ct 
109 -385 102 -365 97 -339 ct 93 -313 90 -281 90 -243 ct 90 -206 93 -174 97 -149 ct 
102 -123 109 -103 118 -87 ct 127 -72 138 -61 151 -54 ct 164 -47 179 -44 196 -44 ct 
212 -44 227 -47 240 -54 ct 253 -61 264 -72 274 -87 ct 283 -103 290 -123 295 -149 ct 
300 -174 302 -206 302 -243 ct p ef
461 0 m  461 -76 l  529 -76 l  529 0 l  461 0 l  p ef
974 -243 m  974 -196 970 -157 961 -125 ct 952 -93 940 -68 925 -48 ct 909 -28 891 -14 871 -6 ct 
850 3 828 7 804 7 ct 781 7 759 3 738 -6 ct 718 -14 700 -28 685 -48 ct 670 -67 658 -93 650 -125 ct 
641 -157 637 -196 637 -243 ct 637 -292 641 -332 650 -365 ct 658 -397 670 -422 685 -441 ct 
700 -460 718 -474 739 -481 ct 760 -489 782 -493 807 -493 ct 830 -493 852 -489 872 -481 ct 
892 -474 910 -460 925 -441 ct 940 -422 952 -397 961 -365 ct 970 -332 974 -292 974 -243 ct 
p
911 -243 m  911 -282 909 -314 904 -339 ct 899 -365 893 -385 884 -401 ct 875 -416 864 -427 851 -433 ct 
838 -440 823 -443 807 -443 ct 789 -443 774 -439 760 -433 ct 747 -427 736 -416 727 -400 ct 
718 -385 711 -365 706 -339 ct 702 -313 699 -281 699 -243 ct 699 -206 702 -174 706 -149 ct 
711 -123 718 -103 727 -87 ct 736 -72 747 -61 760 -54 ct 773 -47 788 -44 805 -44 ct 
821 -44 836 -47 849 -54 ct 862 -61 873 -72 883 -87 ct 892 -103 899 -123 904 -149 ct 
909 -174 911 -206 911 -243 ct p ef
1368 -158 m  1368 -134 1364 -112 1357 -91 ct 1350 -71 1339 -54 1324 -39 ct 1310 -24 1292 -13 1270 -5 ct 
1249 3 1224 7 1196 7 ct 1170 7 1148 4 1129 -2 ct 1110 -8 1094 -16 1081 -27 ct 1068 -37 1057 -49 1050 -63 ct 
1042 -77 1036 -92 1033 -109 ct 1096 -116 l  1099 -107 1102 -98 1107 -89 ct 1111 -80 1118 -73 1125 -66 ct 
1133 -59 1143 -54 1155 -50 ct 1166 -46 1180 -44 1197 -44 ct 1213 -44 1228 -46 1241 -51 ct 
1254 -56 1265 -63 1274 -73 ct 1284 -83 1291 -95 1296 -109 ct 1301 -123 1304 -139 1304 -157 ct 
1304 -172 1301 -186 1296 -198 ct 1291 -211 1285 -221 1276 -231 ct 1267 -240 1256 -247 1243 -252 ct 
1230 -257 1215 -259 1198 -259 ct 1188 -259 1179 -258 1170 -257 ct 1161 -255 1153 -252 1145 -249 ct 
1138 -246 1131 -242 1125 -238 ct 1119 -233 1113 -229 1108 -224 ct 1047 -224 l 
1064 -486 l  1340 -486 l  1340 -433 l  1120 -433 l  1111 -279 l  1122 -287 1136 -295 1152 -301 ct 
1169 -307 1188 -310 1211 -310 ct 1235 -310 1257 -306 1276 -299 ct 1296 -292 1312 -281 1326 -268 ct 
1339 -254 1350 -238 1357 -220 ct 1364 -201 1368 -181 1368 -158 ct p ef
pom
pum
8333 9820 t
365 -243 m  365 -196 361 -157 352 -125 ct 343 -93 331 -68 316 -48 ct 300 -28 282 -14 262 -6 ct 
241 3 219 7 195 7 ct 172 7 150 3 129 -6 ct 109 -14 91 -28 76 -48 ct 61 -67 49 -93 41 -125 ct 
32 -157 28 -196 28 -243 ct 28 -292 32 -332 41 -365 ct 49 -397 61 -422 76 -441 ct 
91 -460 109 -474 130 -481 ct 151 -489 173 -493 198 -493 ct 221 -493 243 -489 263 -481 ct 
283 -474 301 -460 316 -441 ct 331 -422 343 -397 352 -365 ct 361 -332 365 -292 365 -243 ct 
p
302 -243 m  302 -282 300 -314 295 -339 ct 290 -365 284 -385 275 -401 ct 266 -416 255 -427 242 -433 ct 
229 -440 214 -443 198 -443 ct 180 -443 165 -439 151 -433 ct 138 -427 127 -416 118 -400 ct 
109 -385 102 -365 97 -339 ct 93 -313 90 -281 90 -243 ct 90 -206 93 -174 97 -149 ct 
102 -123 109 -103 118 -87 ct 127 -72 138 -61 151 -54 ct 164 -47 179 -44 196 -44 ct 
212 -44 227 -47 240 -54 ct 253 -61 264 -72 274 -87 ct 283 -103 290 -123 295 -149 ct 
300 -174 302 -206 302 -243 ct p ef
461 0 m  461 -76 l  529 -76 l  529 0 l  461 0 l  p ef
663 0 m  663 -53 l  787 -53 l  787 -427 l  677 -348 l  677 -407 l  792 -486 l 
849 -486 l  849 -53 l  967 -53 l  967 0 l  663 0 l  p ef
pom
pum
10979 9820 t
365 -243 m  365 -196 361 -157 352 -125 ct 343 -93 331 -68 316 -48 ct 300 -28 282 -14 262 -6 ct 
241 3 219 7 195 7 ct 172 7 150 3 129 -6 ct 109 -14 91 -28 76 -48 ct 61 -67 49 -93 41 -125 ct 
32 -157 28 -196 28 -243 ct 28 -292 32 -332 41 -365 ct 49 -397 61 -422 76 -441 ct 
91 -460 109 -474 130 -481 ct 151 -489 173 -493 198 -493 ct 221 -493 243 -489 263 -481 ct 
283 -474 301 -460 316 -441 ct 331 -422 343 -397 352 -365 ct 361 -332 365 -292 365 -243 ct 
p
302 -243 m  302 -282 300 -314 295 -339 ct 290 -365 284 -385 275 -401 ct 266 -416 255 -427 242 -433 ct 
229 -440 214 -443 198 -443 ct 180 -443 165 -439 151 -433 ct 138 -427 127 -416 118 -400 ct 
109 -385 102 -365 97 -339 ct 93 -313 90 -281 90 -243 ct 90 -206 93 -174 97 -149 ct 
102 -123 109 -103 118 -87 ct 127 -72 138 -61 151 -54 ct 164 -47 179 -44 196 -44 ct 
212 -44 227 -47 240 -54 ct 253 -61 264 -72 274 -87 ct 283 -103 290 -123 295 -149 ct 
300 -174 302 -206 302 -243 ct p ef
461 0 m  461 -76 l  529 -76 l  529 0 l  461 0 l  p ef
663 0 m  663 -53 l  787 -53 l  787 -427 l  677 -348 l  677 -407 l  792 -486 l 
849 -486 l  849 -53 l  967 -53 l  967 0 l  663 0 l  p ef
1368 -158 m  1368 -134 1364 -112 1357 -91 ct 1350 -71 1339 -54 1324 -39 ct 1310 -24 1292 -13 1270 -5 ct 
1249 3 1224 7 1196 7 ct 1170 7 1148 4 1129 -2 ct 1110 -8 1094 -16 1081 -27 ct 1068 -37 1057 -49 1050 -63 ct 
1042 -77 1036 -92 1033 -109 ct 1096 -116 l  1099 -107 1102 -98 1107 -89 ct 1111 -80 1118 -73 1125 -66 ct 
1133 -59 1143 -54 1155 -50 ct 1166 -46 1180 -44 1197 -44 ct 1213 -44 1228 -46 1241 -51 ct 
1254 -56 1265 -63 1274 -73 ct 1284 -83 1291 -95 1296 -109 ct 1301 -123 1304 -139 1304 -157 ct 
1304 -172 1301 -186 1296 -198 ct 1291 -211 1285 -221 1276 -231 ct 1267 -240 1256 -247 1243 -252 ct 
1230 -257 1215 -259 1198 -259 ct 1188 -259 1179 -258 1170 -257 ct 1161 -255 1153 -252 1145 -249 ct 
1138 -246 1131 -242 1125 -238 ct 1119 -233 1113 -229 1108 -224 ct 1047 -224 l 
1064 -486 l  1340 -486 l  1340 -433 l  1120 -433 l  1111 -279 l  1122 -287 1136 -295 1152 -301 ct 
1169 -307 1188 -310 1211 -310 ct 1235 -310 1257 -306 1276 -299 ct 1296 -292 1312 -281 1326 -268 ct 
1339 -254 1350 -238 1357 -220 ct 1364 -201 1368 -181 1368 -158 ct p ef
pom
pum
14021 9820 t
365 -243 m  365 -196 361 -157 352 -125 ct 343 -93 331 -68 316 -48 ct 300 -28 282 -14 262 -6 ct 
241 3 219 7 195 7 ct 172 7 150 3 129 -6 ct 109 -14 91 -28 76 -48 ct 61 -67 49 -93 41 -125 ct 
32 -157 28 -196 28 -243 ct 28 -292 32 -332 41 -365 ct 49 -397 61 -422 76 -441 ct 
91 -460 109 -474 130 -481 ct 151 -489 173 -493 198 -493 ct 221 -493 243 -489 263 -481 ct 
283 -474 301 -460 316 -441 ct 331 -422 343 -397 352 -365 ct 361 -332 365 -292 365 -243 ct 
p
302 -243 m  302 -282 300 -314 295 -339 ct 290 -365 284 -385 275 -401 ct 266 -416 255 -427 242 -433 ct 
229 -440 214 -443 198 -443 ct 180 -443 165 -439 151 -433 ct 138 -427 127 -416 118 -400 ct 
109 -385 102 -365 97 -339 ct 93 -313 90 -281 90 -243 ct 90 -206 93 -174 97 -149 ct 
102 -123 109 -103 118 -87 ct 127 -72 138 -61 151 -54 ct 164 -47 179 -44 196 -44 ct 
212 -44 227 -47 240 -54 ct 253 -61 264 -72 274 -87 ct 283 -103 290 -123 295 -149 ct 
300 -174 302 -206 302 -243 ct p ef
461 0 m  461 -76 l  529 -76 l  529 0 l  461 0 l  p ef
645 0 m  645 -44 l  656 -71 671 -94 687 -115 ct 704 -136 722 -154 741 -171 ct 
759 -188 778 -203 796 -217 ct 814 -231 831 -246 845 -260 ct 860 -274 872 -289 881 -305 ct 
890 -320 895 -338 895 -358 ct 895 -372 893 -384 889 -394 ct 884 -405 878 -414 871 -421 ct 
863 -428 853 -433 843 -437 ct 832 -440 820 -442 806 -442 ct 794 -442 782 -440 771 -437 ct 
760 -433 751 -428 742 -421 ct 734 -414 727 -406 721 -396 ct 716 -385 712 -374 711 -360 ct 
647 -366 l  649 -383 654 -400 662 -415 ct 669 -431 680 -444 693 -456 ct 706 -467 722 -476 741 -483 ct 
760 -490 782 -493 806 -493 ct 830 -493 852 -490 871 -484 ct 890 -479 905 -470 918 -459 ct 
931 -448 941 -434 948 -417 ct 955 -401 959 -382 959 -360 ct 959 -344 956 -328 950 -313 ct 
944 -299 936 -285 926 -271 ct 917 -258 905 -245 892 -233 ct 880 -220 866 -208 852 -196 ct 
838 -185 824 -173 810 -161 ct 795 -150 782 -138 769 -126 ct 757 -114 746 -103 736 -91 ct 
726 -78 718 -66 713 -53 ct 966 -53 l  966 0 l  645 0 l  p ef
pom
pum
3050 9201 t
397 -147 m  397 -123 393 -101 386 -82 ct 378 -62 366 -46 351 -33 ct 335 -20 316 -9 294 -2 ct 
271 5 245 8 216 8 ct 183 8 155 4 133 -4 ct 110 -13 92 -23 77 -37 ct 62 -50 51 -66 44 -83 ct 
37 -101 32 -118 30 -137 ct 100 -143 l  102 -129 106 -116 111 -105 ct 117 -93 124 -83 133 -75 ct 
143 -66 154 -60 168 -55 ct 181 -51 198 -49 216 -49 ct 251 -49 278 -57 297 -74 ct 
317 -91 327 -116 327 -149 ct 327 -169 322 -185 314 -197 ct 305 -209 294 -218 281 -225 ct 
268 -232 254 -236 239 -239 ct 223 -241 209 -242 196 -242 ct 158 -242 l  158 -301 l 
195 -301 l  208 -301 221 -303 235 -305 ct 249 -308 262 -313 273 -320 ct 285 -327 294 -336 301 -348 ct 
309 -360 313 -375 313 -393 ct 313 -422 304 -444 287 -461 ct 271 -478 246 -486 213 -486 ct 
183 -486 158 -478 140 -463 ct 121 -447 110 -426 107 -398 ct 39 -403 l  41 -426 48 -447 58 -464 ct 
68 -482 81 -496 96 -508 ct 112 -519 130 -528 150 -533 ct 170 -539 191 -542 213 -542 ct 
243 -542 269 -538 290 -531 ct 312 -523 329 -513 343 -500 ct 357 -488 367 -473 373 -456 ct 
379 -438 383 -420 383 -401 ct 383 -385 381 -370 376 -357 ct 372 -343 365 -331 356 -320 ct 
347 -309 336 -300 322 -292 ct 307 -284 291 -278 271 -274 ct 271 -272 l  292 -270 311 -265 327 -258 ct 
343 -250 356 -241 366 -230 ct 377 -219 385 -206 390 -192 ct 395 -178 397 -163 397 -147 ct 
p ef
822 -174 m  822 -147 818 -122 810 -100 ct 802 -78 790 -59 774 -43 ct 758 -27 738 -14 715 -5 ct 
691 4 664 8 633 8 ct 605 8 580 5 559 -2 ct 538 -8 521 -17 506 -29 ct 492 -41 481 -54 472 -69 ct 
464 -85 458 -101 454 -119 ct 523 -127 l  526 -117 530 -107 535 -98 ct 540 -88 547 -80 555 -72 ct 
564 -65 575 -59 588 -54 ct 600 -50 616 -48 634 -48 ct 652 -48 668 -50 682 -56 ct 
697 -61 709 -69 719 -80 ct 729 -91 737 -104 743 -119 ct 748 -135 751 -152 751 -172 ct 
751 -189 748 -204 743 -218 ct 738 -231 730 -243 720 -253 ct 711 -263 699 -271 684 -277 ct 
670 -282 654 -285 636 -285 ct 624 -285 614 -284 604 -282 ct 595 -280 586 -277 577 -274 ct 
569 -270 562 -266 555 -261 ct 548 -257 542 -252 536 -247 ct 470 -247 l  487 -534 l 
791 -534 l  791 -476 l  550 -476 l  539 -307 l  551 -316 567 -324 585 -331 ct 
603 -337 625 -341 650 -341 ct 676 -341 700 -337 721 -329 ct 742 -321 760 -309 775 -294 ct 
790 -279 802 -262 810 -241 ct 818 -221 822 -198 822 -174 ct p ef
1248 -267 m  1248 -216 1243 -172 1234 -137 ct 1224 -102 1211 -74 1194 -53 ct 
1177 -31 1157 -15 1135 -6 ct 1112 3 1088 8 1062 8 ct 1036 8 1012 3 989 -6 ct 967 -15 947 -31 931 -52 ct 
914 -74 901 -102 892 -137 ct 882 -172 877 -215 877 -267 ct 877 -321 882 -365 892 -401 ct 
901 -436 914 -464 931 -485 ct 947 -506 967 -521 990 -529 ct 1013 -538 1037 -542 1064 -542 ct 
1090 -542 1114 -538 1136 -529 ct 1158 -521 1178 -506 1194 -485 ct 1211 -464 1224 -436 1234 -401 ct 
1243 -365 1248 -321 1248 -267 ct p
1179 -267 m  1179 -309 1176 -345 1171 -373 ct 1166 -401 1159 -424 1149 -441 ct 
1139 -457 1127 -469 1113 -476 ct 1099 -483 1082 -487 1064 -487 ct 1045 -487 1028 -483 1013 -476 ct 
999 -469 986 -457 976 -440 ct 966 -423 959 -401 954 -373 ct 949 -344 946 -309 946 -267 ct 
946 -226 949 -192 954 -163 ct 959 -135 967 -113 977 -96 ct 987 -79 999 -66 1013 -59 ct 
1028 -52 1044 -48 1063 -48 ct 1081 -48 1097 -52 1111 -59 ct 1126 -66 1138 -79 1148 -96 ct 
1158 -113 1165 -135 1171 -163 ct 1176 -192 1179 -226 1179 -267 ct p ef
pom
pum
3050 7202 t
334 -121 m  334 0 l  269 0 l  269 -121 l  18 -121 l  18 -174 l  262 -535 l 
334 -535 l  334 -175 l  409 -175 l  409 -121 l  334 -121 l  p
269 -457 m  269 -456 268 -454 266 -450 ct 264 -446 261 -442 259 -438 ct 256 -433 254 -428 251 -424 ct 
248 -419 246 -415 244 -412 ct 107 -209 l  106 -207 104 -204 102 -201 ct 99 -198 97 -194 94 -191 ct 
92 -188 89 -184 87 -181 ct 84 -178 82 -176 81 -176 ct 269 -176 l  269 -457 l 
p ef
824 -267 m  824 -216 819 -172 810 -137 ct 800 -102 787 -74 770 -53 ct 753 -31 733 -15 711 -6 ct 
688 3 664 8 638 8 ct 612 8 588 3 565 -6 ct 543 -15 523 -31 507 -52 ct 490 -74 477 -102 468 -137 ct 
458 -172 453 -215 453 -267 ct 453 -321 458 -365 468 -401 ct 477 -436 490 -464 507 -485 ct 
523 -506 543 -521 566 -529 ct 589 -538 613 -542 640 -542 ct 666 -542 690 -538 712 -529 ct 
734 -521 754 -506 770 -485 ct 787 -464 800 -436 810 -401 ct 819 -365 824 -321 824 -267 ct 
p
755 -267 m  755 -309 752 -345 747 -373 ct 742 -401 735 -424 725 -441 ct 715 -457 703 -469 689 -476 ct 
675 -483 658 -487 640 -487 ct 621 -487 604 -483 589 -476 ct 575 -469 562 -457 552 -440 ct 
542 -423 535 -401 530 -373 ct 525 -344 522 -309 522 -267 ct 522 -226 525 -192 530 -163 ct 
535 -135 543 -113 553 -96 ct 563 -79 575 -66 589 -59 ct 604 -52 620 -48 639 -48 ct 
657 -48 673 -52 687 -59 ct 702 -66 714 -79 724 -96 ct 734 -113 741 -135 747 -163 ct 
752 -192 755 -226 755 -267 ct p ef
1248 -267 m  1248 -216 1243 -172 1234 -137 ct 1224 -102 1211 -74 1194 -53 ct 
1177 -31 1157 -15 1135 -6 ct 1112 3 1088 8 1062 8 ct 1036 8 1012 3 989 -6 ct 967 -15 947 -31 931 -52 ct 
914 -74 901 -102 892 -137 ct 882 -172 877 -215 877 -267 ct 877 -321 882 -365 892 -401 ct 
901 -436 914 -464 931 -485 ct 947 -506 967 -521 990 -529 ct 1013 -538 1037 -542 1064 -542 ct 
1090 -542 1114 -538 1136 -529 ct 1158 -521 1178 -506 1194 -485 ct 1211 -464 1224 -436 1234 -401 ct 
1243 -365 1248 -321 1248 -267 ct p
1179 -267 m  1179 -309 1176 -345 1171 -373 ct 1166 -401 1159 -424 1149 -441 ct 
1139 -457 1127 -469 1113 -476 ct 1099 -483 1082 -487 1064 -487 ct 1045 -487 1028 -483 1013 -476 ct 
999 -469 986 -457 976 -440 ct 966 -423 959 -401 954 -373 ct 949 -344 946 -309 946 -267 ct 
946 -226 949 -192 954 -163 ct 959 -135 967 -113 977 -96 ct 987 -79 999 -66 1013 -59 ct 
1028 -52 1044 -48 1063 -48 ct 1081 -48 1097 -52 1111 -59 ct 1126 -66 1138 -79 1148 -96 ct 
1158 -113 1165 -135 1171 -163 ct 1176 -192 1179 -226 1179 -267 ct p ef
pom
pum
3050 5203 t
334 -121 m  334 0 l  269 0 l  269 -121 l  18 -121 l  18 -174 l  262 -535 l 
334 -535 l  334 -175 l  409 -175 l  409 -121 l  334 -121 l  p
269 -457 m  269 -456 268 -454 266 -450 ct 264 -446 261 -442 259 -438 ct 256 -433 254 -428 251 -424 ct 
248 -419 246 -415 244 -412 ct 107 -209 l  106 -207 104 -204 102 -201 ct 99 -198 97 -194 94 -191 ct 
92 -188 89 -184 87 -181 ct 84 -178 82 -176 81 -176 ct 269 -176 l  269 -457 l 
p ef
822 -174 m  822 -147 818 -122 810 -100 ct 802 -78 790 -59 774 -43 ct 758 -27 738 -14 715 -5 ct 
691 4 664 8 633 8 ct 605 8 580 5 559 -2 ct 538 -8 521 -17 506 -29 ct 492 -41 481 -54 472 -69 ct 
464 -85 458 -101 454 -119 ct 523 -127 l  526 -117 530 -107 535 -98 ct 540 -88 547 -80 555 -72 ct 
564 -65 575 -59 588 -54 ct 600 -50 616 -48 634 -48 ct 652 -48 668 -50 682 -56 ct 
697 -61 709 -69 719 -80 ct 729 -91 737 -104 743 -119 ct 748 -135 751 -152 751 -172 ct 
751 -189 748 -204 743 -218 ct 738 -231 730 -243 720 -253 ct 711 -263 699 -271 684 -277 ct 
670 -282 654 -285 636 -285 ct 624 -285 614 -284 604 -282 ct 595 -280 586 -277 577 -274 ct 
569 -270 562 -266 555 -261 ct 548 -257 542 -252 536 -247 ct 470 -247 l  487 -534 l 
791 -534 l  791 -476 l  550 -476 l  539 -307 l  551 -316 567 -324 585 -331 ct 
603 -337 625 -341 650 -341 ct 676 -341 700 -337 721 -329 ct 742 -321 760 -309 775 -294 ct 
790 -279 802 -262 810 -241 ct 818 -221 822 -198 822 -174 ct p ef
1248 -267 m  1248 -216 1243 -172 1234 -137 ct 1224 -102 1211 -74 1194 -53 ct 
1177 -31 1157 -15 1135 -6 ct 1112 3 1088 8 1062 8 ct 1036 8 1012 3 989 -6 ct 967 -15 947 -31 931 -52 ct 
914 -74 901 -102 892 -137 ct 882 -172 877 -215 877 -267 ct 877 -321 882 -365 892 -401 ct 
901 -436 914 -464 931 -485 ct 947 -506 967 -521 990 -529 ct 1013 -538 1037 -542 1064 -542 ct 
1090 -542 1114 -538 1136 -529 ct 1158 -521 1178 -506 1194 -485 ct 1211 -464 1224 -436 1234 -401 ct 
1243 -365 1248 -321 1248 -267 ct p
1179 -267 m  1179 -309 1176 -345 1171 -373 ct 1166 -401 1159 -424 1149 -441 ct 
1139 -457 1127 -469 1113 -476 ct 1099 -483 1082 -487 1064 -487 ct 1045 -487 1028 -483 1013 -476 ct 
999 -469 986 -457 976 -440 ct 966 -423 959 -401 954 -373 ct 949 -344 946 -309 946 -267 ct 
946 -226 949 -192 954 -163 ct 959 -135 967 -113 977 -96 ct 987 -79 999 -66 1013 -59 ct 
1028 -52 1044 -48 1063 -48 ct 1081 -48 1097 -52 1111 -59 ct 1126 -66 1138 -79 1148 -96 ct 
1158 -113 1165 -135 1171 -163 ct 1176 -192 1179 -226 1179 -267 ct p ef
pom
pum
6255 3962 t
476 -248 m  476 -207 470 -172 458 -141 ct 446 -110 429 -84 408 -63 ct 387 -42 362 -27 333 -16 ct 
304 -5 273 0 240 0 ct 58 0 l  58 -486 l  219 -486 l  256 -486 291 -481 322 -472 ct 
354 -462 381 -448 404 -429 ct 426 -409 444 -385 457 -355 ct 470 -325 476 -289 476 -248 ct 
p
410 -248 m  410 -281 405 -309 396 -332 ct 386 -355 373 -375 356 -390 ct 339 -405 319 -415 295 -422 ct 
271 -430 245 -433 217 -433 ct 124 -433 l  124 -53 l  232 -53 l  258 -53 281 -57 303 -65 ct 
325 -73 343 -86 359 -102 ct 375 -118 387 -139 396 -163 ct 405 -187 410 -216 410 -248 ct 
p ef
672 7 m  634 7 606 -3 587 -23 ct 568 -43 559 -70 559 -105 ct 559 -129 564 -149 573 -165 ct 
582 -181 594 -194 610 -203 ct 625 -212 642 -218 661 -221 ct 680 -225 700 -226 720 -226 ct 
804 -226 l  804 -247 l  804 -263 802 -276 799 -287 ct 796 -298 791 -307 784 -313 ct 
777 -320 769 -325 759 -328 ct 749 -331 737 -333 724 -333 ct 712 -333 701 -332 691 -330 ct 
682 -328 673 -325 666 -321 ct 659 -316 653 -310 649 -303 ct 645 -295 642 -285 640 -273 ct 
576 -279 l  578 -294 582 -307 589 -320 ct 595 -332 604 -343 616 -352 ct 628 -361 643 -368 661 -373 ct 
678 -378 700 -380 725 -380 ct 772 -380 807 -369 831 -348 ct 855 -326 866 -295 866 -254 ct 
866 -94 l  866 -75 869 -61 874 -52 ct 879 -43 888 -38 901 -38 ct 905 -38 908 -38 912 -39 ct 
915 -39 918 -40 922 -40 ct 922 -2 l  914 0 906 1 898 2 ct 891 3 882 4 874 4 ct 
862 4 852 2 844 -1 ct 835 -4 828 -9 823 -15 ct 818 -21 814 -29 811 -39 ct 808 -48 807 -59 806 -71 ct 
804 -71 l  797 -59 790 -49 782 -39 ct 774 -29 765 -21 754 -14 ct 744 -7 732 -2 718 1 ct 
705 5 689 7 672 7 ct p
686 -40 m  706 -40 723 -43 738 -50 ct 753 -58 765 -67 775 -78 ct 784 -89 792 -101 797 -115 ct 
801 -128 804 -140 804 -153 ct 804 -183 l  736 -183 l  721 -183 706 -182 693 -180 ct 
679 -178 667 -174 657 -168 ct 646 -163 638 -155 632 -144 ct 626 -134 623 -120 623 -103 ct 
623 -83 628 -67 639 -56 ct 650 -45 666 -40 686 -40 ct p ef
1117 -2 m  1108 0 1098 2 1088 4 ct 1078 5 1067 6 1054 6 ct 1005 6 980 -22 980 -79 ct 
980 -328 l  937 -328 l  937 -373 l  982 -373 l  1000 -456 l  1042 -456 l 
1042 -373 l  1111 -373 l  1111 -328 l  1042 -328 l  1042 -92 l  1042 -74 1045 -61 1051 -54 ct 
1056 -47 1067 -43 1081 -43 ct 1087 -43 1093 -44 1099 -45 ct 1104 -46 1110 -47 1117 -48 ct 
1117 -2 l  p ef
1281 7 m  1243 7 1215 -3 1196 -23 ct 1177 -43 1168 -70 1168 -105 ct 1168 -129 1173 -149 1182 -165 ct 
1191 -181 1203 -194 1219 -203 ct 1234 -212 1251 -218 1270 -221 ct 1289 -225 1309 -226 1329 -226 ct 
1413 -226 l  1413 -247 l  1413 -263 1411 -276 1408 -287 ct 1405 -298 1400 -307 1393 -313 ct 
1386 -320 1378 -325 1368 -328 ct 1358 -331 1346 -333 1333 -333 ct 1321 -333 1310 -332 1300 -330 ct 
1291 -328 1282 -325 1275 -321 ct 1268 -316 1262 -310 1258 -303 ct 1254 -295 1251 -285 1249 -273 ct 
1185 -279 l  1187 -294 1191 -307 1198 -320 ct 1204 -332 1213 -343 1225 -352 ct 
1237 -361 1252 -368 1270 -373 ct 1287 -378 1309 -380 1334 -380 ct 1381 -380 1416 -369 1440 -348 ct 
1464 -326 1475 -295 1475 -254 ct 1475 -94 l  1475 -75 1478 -61 1483 -52 ct 1488 -43 1497 -38 1510 -38 ct 
1514 -38 1517 -38 1521 -39 ct 1524 -39 1527 -40 1531 -40 ct 1531 -2 l  1523 0 1515 1 1507 2 ct 
1500 3 1491 4 1483 4 ct 1471 4 1461 2 1453 -1 ct 1444 -4 1437 -9 1432 -15 ct 1427 -21 1423 -29 1420 -39 ct 
1417 -48 1416 -59 1415 -71 ct 1413 -71 l  1406 -59 1399 -49 1391 -39 ct 1383 -29 1374 -21 1363 -14 ct 
1353 -7 1341 -2 1327 1 ct 1314 5 1298 7 1281 7 ct p
1295 -40 m  1315 -40 1332 -43 1347 -50 ct 1362 -58 1374 -67 1384 -78 ct 1393 -89 1401 -101 1406 -115 ct 
1410 -128 1413 -140 1413 -153 ct 1413 -183 l  1345 -183 l  1330 -183 1315 -182 1302 -180 ct 
1288 -178 1276 -174 1266 -168 ct 1255 -163 1247 -155 1241 -144 ct 1235 -134 1232 -120 1232 -103 ct 
1232 -83 1237 -67 1248 -56 ct 1259 -45 1275 -40 1295 -40 ct p ef
1862 -103 m  1862 -86 1859 -70 1852 -56 ct 1846 -43 1836 -31 1823 -22 ct 1810 -12 1794 -5 1775 0 ct 
1757 5 1735 7 1711 7 ct 1690 7 1670 5 1653 2 ct 1635 -1 1620 -7 1607 -14 ct 1594 -21 1583 -31 1574 -43 ct 
1565 -55 1559 -70 1555 -87 ct 1609 -98 l  1615 -78 1626 -64 1642 -54 ct 1659 -45 1682 -40 1711 -40 ct 
1724 -40 1737 -41 1748 -43 ct 1759 -45 1769 -48 1777 -52 ct 1785 -57 1791 -63 1795 -70 ct 
1800 -78 1802 -87 1802 -98 ct 1802 -109 1800 -119 1794 -126 ct 1789 -133 1782 -139 1772 -144 ct 
1763 -149 1751 -153 1738 -157 ct 1724 -160 1710 -164 1694 -169 ct 1679 -172 1664 -177 1649 -182 ct 
1634 -186 1621 -193 1609 -201 ct 1597 -209 1588 -219 1581 -230 ct 1573 -242 1569 -257 1569 -274 ct 
1569 -308 1582 -334 1606 -352 ct 1630 -370 1665 -379 1712 -379 ct 1753 -379 1786 -372 1810 -357 ct 
1834 -343 1850 -319 1856 -288 ct 1800 -281 l  1798 -290 1794 -298 1789 -305 ct 
1783 -311 1777 -317 1769 -321 ct 1761 -325 1752 -328 1742 -329 ct 1733 -331 1722 -332 1712 -332 ct 
1684 -332 1663 -328 1650 -319 ct 1636 -311 1630 -298 1630 -281 ct 1630 -271 1632 -262 1637 -256 ct 
1642 -249 1649 -244 1658 -239 ct 1667 -235 1677 -231 1690 -227 ct 1702 -224 1716 -220 1731 -217 ct 
1741 -214 1751 -212 1761 -209 ct 1771 -206 1782 -202 1791 -198 ct 1801 -194 1810 -190 1819 -184 ct 
1828 -179 1835 -172 1841 -165 ct 1848 -157 1853 -148 1857 -138 ct 1861 -128 1862 -116 1862 -103 ct 
p ef
2000 -173 m  2000 -154 2002 -136 2006 -119 ct 2010 -103 2016 -89 2025 -77 ct 
2033 -65 2044 -56 2057 -49 ct 2070 -43 2086 -40 2104 -40 ct 2131 -40 2153 -45 2169 -56 ct 
2185 -67 2196 -80 2202 -97 ct 2256 -81 l  2252 -71 2247 -61 2240 -50 ct 2233 -40 2224 -30 2212 -22 ct 
2200 -13 2185 -7 2168 -1 ct 2150 4 2129 7 2104 7 ct 2049 7 2007 -9 1978 -42 ct 
1949 -75 1935 -124 1935 -189 ct 1935 -224 1939 -253 1948 -278 ct 1957 -302 1969 -322 1984 -337 ct 
1999 -352 2017 -363 2037 -370 ct 2057 -376 2079 -380 2102 -380 ct 2133 -380 2159 -375 2180 -365 ct 
2201 -355 2218 -341 2231 -323 ct 2244 -305 2253 -284 2258 -260 ct 2264 -236 2266 -210 2266 -182 ct 
2266 -173 l  2000 -173 l  p
2202 -221 m  2199 -260 2189 -289 2172 -307 ct 2156 -325 2132 -334 2101 -334 ct 
2090 -334 2080 -332 2068 -329 ct 2057 -326 2046 -320 2037 -311 ct 2027 -303 2019 -291 2012 -277 ct 
2006 -262 2002 -244 2001 -221 ct 2202 -221 l  p ef
2493 -2 m  2484 0 2474 2 2464 4 ct 2454 5 2443 6 2430 6 ct 2381 6 2356 -22 2356 -79 ct 
2356 -328 l  2313 -328 l  2313 -373 l  2358 -373 l  2376 -456 l  2418 -456 l 
2418 -373 l  2487 -373 l  2487 -328 l  2418 -328 l  2418 -92 l  2418 -74 2421 -61 2427 -54 ct 
2432 -47 2443 -43 2457 -43 ct 2463 -43 2469 -44 2475 -45 ct 2480 -46 2486 -47 2493 -48 ct 
2493 -2 l  p ef
2789 -302 m  2789 -373 l  2857 -373 l  2857 -302 l  2789 -302 l  p
2789 0 m  2789 -71 l  2857 -71 l  2857 0 l  2789 0 l  p ef
3588 -134 m  3588 -114 3584 -95 3576 -77 ct 3568 -60 3555 -45 3539 -33 ct 3522 -20 3501 -11 3476 -4 ct 
3451 3 3421 7 3387 7 ct 3326 7 3279 -4 3246 -25 ct 3212 -46 3190 -76 3181 -116 ct 
3245 -129 l  3248 -117 3253 -105 3260 -95 ct 3266 -84 3275 -75 3287 -68 ct 3298 -61 3312 -55 3329 -51 ct 
3346 -46 3366 -44 3389 -44 ct 3409 -44 3427 -46 3443 -49 ct 3459 -53 3473 -58 3485 -65 ct 
3497 -72 3506 -81 3513 -91 ct 3519 -102 3522 -115 3522 -131 ct 3522 -146 3519 -159 3511 -169 ct 
3504 -179 3494 -187 3481 -194 ct 3468 -200 3452 -206 3434 -210 ct 3416 -214 3396 -219 3374 -224 ct 
3360 -227 3347 -230 3333 -234 ct 3319 -237 3306 -242 3294 -247 ct 3281 -252 3269 -257 3258 -264 ct 
3247 -271 3238 -279 3230 -288 ct 3222 -297 3215 -308 3211 -320 ct 3206 -333 3204 -347 3204 -363 ct 
3204 -386 3208 -406 3218 -422 ct 3227 -439 3240 -452 3257 -463 ct 3273 -473 3293 -481 3315 -486 ct 
3338 -491 3362 -493 3388 -493 ct 3418 -493 3444 -491 3465 -486 ct 3487 -481 3505 -474 3520 -465 ct 
3534 -455 3546 -444 3555 -430 ct 3564 -416 3571 -400 3576 -381 ct 3511 -370 l 
3508 -382 3503 -392 3497 -401 ct 3491 -410 3483 -418 3473 -424 ct 3464 -431 3452 -435 3437 -439 ct 
3423 -442 3407 -443 3388 -443 ct 3365 -443 3346 -441 3331 -437 ct 3316 -433 3303 -428 3294 -421 ct 
3285 -414 3278 -406 3274 -397 ct 3270 -387 3268 -377 3268 -366 ct 3268 -352 3272 -340 3279 -331 ct 
3286 -321 3296 -314 3308 -307 ct 3321 -301 3335 -296 3351 -292 ct 3368 -288 3385 -284 3403 -280 ct 
3418 -276 3433 -273 3448 -269 ct 3463 -265 3477 -261 3491 -256 ct 3504 -251 3517 -246 3529 -239 ct 
3541 -232 3551 -224 3560 -214 ct 3568 -205 3575 -193 3580 -180 ct 3585 -167 3588 -152 3588 -134 ct 
p ef
3679 0 m  3679 -53 l  3803 -53 l  3803 -427 l  3693 -348 l  3693 -407 l 
3808 -486 l  3865 -486 l  3865 -53 l  3983 -53 l  3983 0 l  3679 0 l  p ef
pom
pum
6520 11008 t
434 -339 m  434 -318 430 -299 423 -280 ct 416 -262 406 -246 392 -233 ct 378 -219 360 -209 340 -201 ct 
319 -193 294 -189 266 -189 ct 124 -189 l  124 1 l  58 1 l  58 -486 l  262 -486 l 
291 -486 316 -482 337 -475 ct 359 -468 377 -458 391 -446 ct 405 -433 416 -417 423 -399 ct 
430 -381 434 -361 434 -339 ct p
367 -339 m  367 -370 358 -393 339 -409 ct 320 -425 292 -433 254 -433 ct 124 -433 l 
124 -241 l  257 -241 l  295 -241 323 -249 341 -266 ct 359 -283 367 -307 367 -339 ct 
p ef
619 7 m  581 7 553 -3 534 -23 ct 515 -43 506 -70 506 -105 ct 506 -129 511 -149 520 -165 ct 
529 -181 541 -194 557 -203 ct 572 -212 589 -218 608 -221 ct 627 -225 647 -226 667 -226 ct 
751 -226 l  751 -247 l  751 -263 749 -276 746 -287 ct 743 -298 738 -307 731 -313 ct 
724 -320 716 -325 706 -328 ct 696 -331 684 -333 671 -333 ct 659 -333 648 -332 638 -330 ct 
629 -328 620 -325 613 -321 ct 606 -316 600 -310 596 -303 ct 592 -295 589 -285 587 -273 ct 
523 -279 l  525 -294 529 -307 536 -320 ct 542 -332 551 -343 563 -352 ct 575 -361 590 -368 608 -373 ct 
625 -378 647 -380 672 -380 ct 719 -380 754 -369 778 -348 ct 802 -326 813 -295 813 -254 ct 
813 -94 l  813 -75 816 -61 821 -52 ct 826 -43 835 -38 848 -38 ct 852 -38 855 -38 859 -39 ct 
862 -39 865 -40 869 -40 ct 869 -2 l  861 0 853 1 845 2 ct 838 3 829 4 821 4 ct 
809 4 799 2 791 -1 ct 782 -4 775 -9 770 -15 ct 765 -21 761 -29 758 -39 ct 755 -48 754 -59 753 -71 ct 
751 -71 l  744 -59 737 -49 729 -39 ct 721 -29 712 -21 701 -14 ct 691 -7 679 -2 665 1 ct 
652 5 636 7 619 7 ct p
633 -40 m  653 -40 670 -43 685 -50 ct 700 -58 712 -67 722 -78 ct 731 -89 739 -101 744 -115 ct 
748 -128 751 -140 751 -153 ct 751 -183 l  683 -183 l  668 -183 653 -182 640 -180 ct 
626 -178 614 -174 604 -168 ct 593 -163 585 -155 579 -144 ct 573 -134 570 -120 570 -103 ct 
570 -83 575 -67 586 -56 ct 597 -45 613 -40 633 -40 ct p ef
922 0 m  922 -286 l  922 -294 922 -302 922 -310 ct 922 -318 922 -326 921 -334 ct 
921 -341 921 -349 921 -355 ct 920 -362 920 -368 920 -373 ct 978 -373 l  979 -368 979 -362 979 -355 ct 
980 -348 980 -341 980 -334 ct 981 -327 981 -320 981 -314 ct 981 -307 981 -302 981 -297 ct 
983 -297 l  987 -311 992 -324 997 -334 ct 1002 -344 1007 -353 1014 -360 ct 1021 -367 1029 -372 1038 -375 ct 
1047 -378 1058 -380 1071 -380 ct 1076 -380 1081 -380 1086 -379 ct 1090 -378 1094 -377 1096 -377 ct 
1096 -320 l  1092 -321 1087 -322 1082 -322 ct 1076 -323 1070 -323 1063 -323 ct 
1049 -323 1037 -320 1027 -313 ct 1017 -307 1009 -298 1002 -287 ct 996 -275 991 -262 988 -246 ct 
986 -230 984 -213 984 -194 ct 984 0 l  922 0 l  p ef
1302 -2 m  1293 0 1283 2 1273 4 ct 1263 5 1252 6 1239 6 ct 1190 6 1165 -22 1165 -79 ct 
1165 -328 l  1122 -328 l  1122 -373 l  1167 -373 l  1185 -456 l  1227 -456 l 
1227 -373 l  1296 -373 l  1296 -328 l  1227 -328 l  1227 -92 l  1227 -74 1230 -61 1236 -54 ct 
1241 -47 1252 -43 1266 -43 ct 1272 -43 1278 -44 1284 -45 ct 1289 -46 1295 -47 1302 -48 ct 
1302 -2 l  p ef
1370 -452 m  1370 -511 l  1432 -511 l  1432 -452 l  1370 -452 l  p
1370 1 m  1370 -372 l  1432 -372 l  1432 1 l  1370 1 l  p ef
1577 -188 m  1577 -167 1578 -147 1581 -129 ct 1585 -111 1590 -96 1597 -83 ct 
1605 -70 1614 -60 1626 -53 ct 1638 -46 1653 -42 1671 -42 ct 1693 -42 1711 -48 1726 -59 ct 
1741 -71 1750 -89 1754 -113 ct 1816 -113 l  1814 -97 1810 -82 1803 -68 ct 1796 -53 1787 -41 1775 -30 ct 
1763 -19 1749 -10 1732 -3 ct 1715 4 1695 7 1673 7 ct 1643 7 1619 2 1598 -8 ct 1578 -18 1561 -31 1548 -49 ct 
1536 -66 1526 -87 1521 -110 ct 1515 -134 1512 -159 1512 -187 ct 1512 -212 1514 -234 1518 -253 ct 
1522 -272 1528 -289 1536 -304 ct 1543 -318 1552 -330 1562 -340 ct 1572 -350 1583 -357 1595 -363 ct 
1607 -369 1619 -373 1632 -376 ct 1645 -379 1659 -380 1672 -380 ct 1693 -380 1711 -377 1728 -371 ct 
1744 -366 1758 -358 1770 -348 ct 1782 -338 1791 -326 1799 -312 ct 1806 -299 1811 -284 1814 -269 ct 
1751 -264 l  1747 -284 1739 -301 1726 -313 ct 1713 -325 1694 -331 1670 -331 ct 
1653 -331 1638 -328 1626 -323 ct 1614 -317 1605 -308 1597 -296 ct 1590 -284 1585 -269 1581 -251 ct 
1578 -233 1577 -212 1577 -188 ct p ef
1899 -452 m  1899 -511 l  1961 -511 l  1961 -452 l  1899 -452 l  p
1899 1 m  1899 -372 l  1961 -372 l  1961 1 l  1899 1 l  p ef
2374 -188 m  2374 -160 2372 -134 2367 -110 ct 2363 -86 2355 -65 2344 -48 ct 
2334 -31 2319 -17 2302 -8 ct 2284 2 2263 7 2237 7 ct 2210 7 2187 2 2167 -8 ct 2147 -18 2132 -35 2121 -58 ct 
2119 -58 l  2119 -57 2120 -55 2120 -52 ct 2120 -48 2120 -43 2120 -38 ct 2120 -32 2120 -26 2120 -19 ct 
2121 -12 2121 -6 2121 1 ct 2121 147 l  2059 147 l  2059 -297 l  2059 -306 2059 -315 2058 -323 ct 
2058 -332 2058 -339 2058 -346 ct 2058 -353 2057 -359 2057 -363 ct 2057 -368 2057 -371 2057 -371 ct 
2116 -371 l  2117 -370 2117 -368 2117 -364 ct 2118 -360 2118 -355 2118 -349 ct 
2119 -343 2119 -337 2119 -331 ct 2120 -324 2120 -318 2120 -312 ct 2121 -312 l 
2127 -324 2134 -335 2141 -343 ct 2148 -351 2157 -358 2166 -364 ct 2176 -369 2186 -373 2198 -375 ct 
2209 -378 2222 -379 2237 -379 ct 2263 -379 2284 -374 2302 -365 ct 2319 -356 2334 -343 2344 -326 ct 
2355 -310 2363 -290 2367 -266 ct 2372 -243 2374 -217 2374 -188 ct p
2309 -187 m  2309 -209 2307 -230 2305 -248 ct 2302 -266 2297 -281 2290 -293 ct 
2284 -306 2275 -315 2263 -321 ct 2252 -328 2238 -331 2221 -331 ct 2207 -331 2194 -329 2182 -325 ct 
2170 -321 2159 -314 2150 -303 ct 2141 -292 2134 -277 2129 -257 ct 2123 -238 2121 -213 2121 -182 ct 
2121 -155 2123 -133 2127 -115 ct 2132 -97 2138 -82 2146 -71 ct 2155 -59 2165 -51 2178 -46 ct 
2190 -41 2204 -39 2220 -39 ct 2237 -39 2252 -42 2263 -49 ct 2275 -56 2284 -65 2290 -78 ct 
2297 -90 2302 -106 2305 -124 ct 2307 -142 2309 -163 2309 -187 ct p ef
2551 7 m  2513 7 2485 -3 2466 -23 ct 2447 -43 2438 -70 2438 -105 ct 2438 -129 2443 -149 2452 -165 ct 
2461 -181 2473 -194 2489 -203 ct 2504 -212 2521 -218 2540 -221 ct 2559 -225 2579 -226 2599 -226 ct 
2683 -226 l  2683 -247 l  2683 -263 2681 -276 2678 -287 ct 2675 -298 2670 -307 2663 -313 ct 
2656 -320 2648 -325 2638 -328 ct 2628 -331 2616 -333 2603 -333 ct 2591 -333 2580 -332 2570 -330 ct 
2561 -328 2552 -325 2545 -321 ct 2538 -316 2532 -310 2528 -303 ct 2524 -295 2521 -285 2519 -273 ct 
2455 -279 l  2457 -294 2461 -307 2468 -320 ct 2474 -332 2483 -343 2495 -352 ct 
2507 -361 2522 -368 2540 -373 ct 2557 -378 2579 -380 2604 -380 ct 2651 -380 2686 -369 2710 -348 ct 
2734 -326 2745 -295 2745 -254 ct 2745 -94 l  2745 -75 2748 -61 2753 -52 ct 2758 -43 2767 -38 2780 -38 ct 
2784 -38 2787 -38 2791 -39 ct 2794 -39 2797 -40 2801 -40 ct 2801 -2 l  2793 0 2785 1 2777 2 ct 
2770 3 2761 4 2753 4 ct 2741 4 2731 2 2723 -1 ct 2714 -4 2707 -9 2702 -15 ct 2697 -21 2693 -29 2690 -39 ct 
2687 -48 2686 -59 2685 -71 ct 2683 -71 l  2676 -59 2669 -49 2661 -39 ct 2653 -29 2644 -21 2633 -14 ct 
2623 -7 2611 -2 2597 1 ct 2584 5 2568 7 2551 7 ct p
2565 -40 m  2585 -40 2602 -43 2617 -50 ct 2632 -58 2644 -67 2654 -78 ct 2663 -89 2671 -101 2676 -115 ct 
2680 -128 2683 -140 2683 -153 ct 2683 -183 l  2615 -183 l  2600 -183 2585 -182 2572 -180 ct 
2558 -178 2546 -174 2536 -168 ct 2525 -163 2517 -155 2511 -144 ct 2505 -134 2502 -120 2502 -103 ct 
2502 -83 2507 -67 2518 -56 ct 2529 -45 2545 -40 2565 -40 ct p ef
2996 -2 m  2987 0 2977 2 2967 4 ct 2957 5 2946 6 2933 6 ct 2884 6 2859 -22 2859 -79 ct 
2859 -328 l  2816 -328 l  2816 -373 l  2861 -373 l  2879 -456 l  2921 -456 l 
2921 -373 l  2990 -373 l  2990 -328 l  2921 -328 l  2921 -92 l  2921 -74 2924 -61 2930 -54 ct 
2935 -47 2946 -43 2960 -43 ct 2966 -43 2972 -44 2978 -45 ct 2983 -46 2989 -47 2996 -48 ct 
2996 -2 l  p ef
3063 -452 m  3063 -511 l  3125 -511 l  3125 -452 l  3063 -452 l  p
3063 1 m  3063 -372 l  3125 -372 l  3125 1 l  3063 1 l  p ef
3538 -187 m  3538 -122 3524 -73 3495 -41 ct 3466 -9 3424 7 3370 7 ct 3344 7 3321 3 3300 -5 ct 
3280 -13 3262 -24 3248 -41 ct 3234 -57 3223 -77 3216 -101 ct 3208 -125 3205 -154 3205 -187 ct 
3205 -316 3260 -380 3372 -380 ct 3401 -380 3426 -376 3447 -368 ct 3468 -360 3485 -348 3499 -332 ct 
3512 -315 3522 -295 3528 -271 ct 3535 -247 3538 -219 3538 -187 ct p
3473 -187 m  3473 -216 3471 -240 3466 -258 ct 3462 -277 3455 -292 3446 -304 ct 
3438 -315 3427 -323 3415 -327 ct 3403 -332 3389 -334 3373 -334 ct 3357 -334 3343 -332 3330 -327 ct 
3317 -322 3306 -314 3297 -303 ct 3288 -291 3282 -276 3277 -257 ct 3272 -239 3270 -215 3270 -187 ct 
3270 -158 3272 -134 3277 -115 ct 3282 -96 3289 -81 3298 -70 ct 3307 -58 3318 -50 3330 -46 ct 
3342 -41 3355 -39 3369 -39 ct 3385 -39 3399 -41 3412 -46 ct 3425 -50 3436 -58 3445 -69 ct 
3454 -80 3461 -96 3466 -115 ct 3470 -134 3473 -158 3473 -187 ct p ef
3856 0 m  3856 -237 l  3856 -255 3855 -270 3852 -282 ct 3850 -294 3845 -304 3840 -312 ct 
3834 -319 3826 -324 3816 -327 ct 3806 -331 3794 -332 3780 -332 ct 3765 -332 3752 -329 3740 -324 ct 
3728 -319 3718 -312 3709 -302 ct 3701 -292 3695 -280 3690 -266 ct 3685 -251 3683 -235 3683 -216 ct 
3683 0 l  3621 0 l  3621 -294 l  3621 -302 3621 -310 3621 -319 ct 3621 -328 3621 -336 3620 -344 ct 
3620 -351 3620 -358 3620 -363 ct 3619 -369 3619 -372 3619 -372 ct 3677 -372 l 
3678 -371 3678 -368 3678 -363 ct 3678 -358 3679 -352 3679 -346 ct 3679 -339 3680 -333 3680 -326 ct 
3680 -319 3680 -314 3680 -309 ct 3681 -309 l  3687 -320 3694 -330 3701 -339 ct 
3708 -347 3716 -355 3726 -361 ct 3735 -367 3746 -372 3758 -375 ct 3770 -378 3784 -380 3801 -380 ct 
3821 -380 3839 -377 3854 -372 ct 3869 -367 3881 -360 3891 -349 ct 3901 -338 3908 -325 3912 -308 ct 
3917 -291 3919 -272 3919 -249 ct 3919 0 l  3856 0 l  p ef
4245 0 m  4245 -486 l  4311 -486 l  4311 0 l  4245 0 l  p ef
4676 0 m  4676 -237 l  4676 -255 4675 -270 4672 -282 ct 4670 -294 4665 -304 4660 -312 ct 
4654 -319 4646 -324 4636 -327 ct 4626 -331 4614 -332 4600 -332 ct 4585 -332 4572 -329 4560 -324 ct 
4548 -319 4538 -312 4529 -302 ct 4521 -292 4515 -280 4510 -266 ct 4505 -251 4503 -235 4503 -216 ct 
4503 0 l  4441 0 l  4441 -294 l  4441 -302 4441 -310 4441 -319 ct 4441 -328 4441 -336 4440 -344 ct 
4440 -351 4440 -358 4440 -363 ct 4439 -369 4439 -372 4439 -372 ct 4497 -372 l 
4498 -371 4498 -368 4498 -363 ct 4498 -358 4499 -352 4499 -346 ct 4499 -339 4500 -333 4500 -326 ct 
4500 -319 4500 -314 4500 -309 ct 4501 -309 l  4507 -320 4514 -330 4521 -339 ct 
4528 -347 4536 -355 4546 -361 ct 4555 -367 4566 -372 4578 -375 ct 4590 -378 4604 -380 4621 -380 ct 
4641 -380 4659 -377 4674 -372 ct 4689 -367 4701 -360 4711 -349 ct 4721 -338 4728 -325 4732 -308 ct 
4737 -291 4739 -272 4739 -249 ct 4739 0 l  4676 0 l  p ef
5072 -59 m  5061 -35 5045 -18 5026 -8 ct 5007 3 4984 8 4956 8 ct 4909 8 4874 -8 4852 -40 ct 
4830 -71 4819 -119 4819 -184 ct 4819 -314 4864 -379 4956 -379 ct 4984 -379 5008 -374 5027 -363 ct 
5045 -353 5061 -337 5072 -314 ct 5073 -314 l  5073 -316 5073 -320 5073 -325 ct 
5072 -330 5072 -335 5072 -341 ct 5072 -346 5072 -351 5072 -356 ct 5072 -361 5072 -364 5072 -366 ct 
5072 -511 l  5134 -511 l  5134 -74 l  5134 -65 5134 -57 5134 -48 ct 5134 -40 5135 -33 5135 -26 ct 
5135 -19 5135 -13 5135 -8 ct 5136 -3 5136 0 5136 0 ct 5077 0 l  5076 -3 5076 -6 5076 -10 ct 
5075 -14 5075 -19 5075 -24 ct 5074 -30 5074 -35 5074 -41 ct 5074 -47 5073 -53 5073 -59 ct 
5072 -59 l  p
4884 -186 m  4884 -160 4885 -138 4889 -120 ct 4892 -101 4897 -86 4904 -74 ct 
4911 -62 4920 -54 4931 -48 ct 4942 -43 4956 -40 4972 -40 ct 4988 -40 5002 -43 5015 -48 ct 
5027 -53 5038 -62 5046 -74 ct 5055 -85 5061 -101 5065 -120 ct 5070 -139 5072 -162 5072 -190 ct 
5072 -216 5070 -239 5065 -257 ct 5061 -275 5055 -290 5046 -301 ct 5038 -313 5027 -321 5015 -326 ct 
5003 -331 4988 -333 4972 -333 ct 4957 -333 4944 -331 4933 -325 ct 4922 -320 4913 -311 4906 -300 ct 
4898 -288 4893 -273 4889 -254 ct 4886 -235 4884 -213 4884 -186 ct p ef
5281 -173 m  5281 -154 5283 -136 5287 -119 ct 5291 -103 5297 -89 5306 -77 ct 
5314 -65 5325 -56 5338 -49 ct 5351 -43 5367 -40 5385 -40 ct 5412 -40 5434 -45 5450 -56 ct 
5466 -67 5477 -80 5483 -97 ct 5537 -81 l  5533 -71 5528 -61 5521 -50 ct 5514 -40 5505 -30 5493 -22 ct 
5481 -13 5466 -7 5449 -1 ct 5431 4 5410 7 5385 7 ct 5330 7 5288 -9 5259 -42 ct 
5230 -75 5216 -124 5216 -189 ct 5216 -224 5220 -253 5229 -278 ct 5238 -302 5250 -322 5265 -337 ct 
5280 -352 5298 -363 5318 -370 ct 5338 -376 5360 -380 5383 -380 ct 5414 -380 5440 -375 5461 -365 ct 
5482 -355 5499 -341 5512 -323 ct 5525 -305 5534 -284 5539 -260 ct 5545 -236 5547 -210 5547 -182 ct 
5547 -173 l  5281 -173 l  p
5483 -221 m  5480 -260 5470 -289 5453 -307 ct 5437 -325 5413 -334 5382 -334 ct 
5371 -334 5361 -332 5349 -329 ct 5338 -326 5327 -320 5318 -311 ct 5308 -303 5300 -291 5293 -277 ct 
5287 -262 5283 -244 5282 -221 ct 5483 -221 l  p ef
5859 0 m  5759 -153 l  5658 0 l  5591 0 l  5724 -192 l  5597 -373 l  5666 -373 l 
5759 -228 l  5851 -373 l  5920 -373 l  5794 -192 l  5928 0 l  5859 0 l 
p ef
pom
pum
1564 8688 t
89.9 r 401 -1 m  275 -202 l  124 -202 l  124 -1 l  58 -1 l  58 -486 l  286 -486 l 
314 -486 338 -483 360 -477 ct 381 -470 399 -461 413 -449 ct 428 -437 439 -423 446 -405 ct 
454 -388 458 -369 458 -347 ct 458 -332 456 -317 451 -302 ct 447 -287 440 -273 430 -261 ct 
420 -248 408 -238 393 -229 ct 378 -220 360 -213 339 -210 ct 477 -1 l  401 -1 l 
p
392 -346 m  392 -361 389 -374 384 -385 ct 379 -395 372 -404 362 -412 ct 352 -419 341 -424 327 -428 ct 
313 -431 297 -433 280 -433 ct 124 -433 l  124 -254 l  283 -254 l  302 -254 318 -256 332 -261 ct 
345 -266 357 -272 366 -281 ct 374 -289 381 -299 385 -310 ct 389 -321 392 -333 392 -346 ct 
p ef
637 -373 m  637 -136 l  637 -118 639 -103 641 -91 ct 644 -79 648 -69 654 -61 ct 
660 -54 668 -49 678 -46 ct 688 -42 700 -41 714 -41 ct 729 -41 742 -44 754 -49 ct 
766 -54 776 -61 784 -71 ct 793 -81 799 -93 804 -107 ct 808 -122 811 -138 811 -157 ct 
811 -373 l  873 -373 l  873 -78 l  873 -71 873 -62 873 -54 ct 873 -45 873 -37 873 -29 ct 
874 -21 874 -15 874 -9 ct 874 -4 875 -1 875 -1 ct 816 -1 l  816 -2 816 -5 815 -10 ct 
815 -15 815 -21 815 -27 ct 814 -34 814 -40 814 -47 ct 814 -54 813 -59 813 -64 ct 
812 -64 l  806 -53 800 -43 793 -34 ct 786 -26 777 -18 768 -12 ct 758 -6 748 -1 735 2 ct 
723 5 709 7 693 7 ct 672 7 655 4 640 -1 ct 625 -6 612 -13 603 -24 ct 593 -35 586 -48 582 -65 ct 
577 -81 575 -101 575 -124 ct 575 -373 l  637 -373 l  p ef
1210 0 m  1210 -237 l  1210 -255 1209 -270 1206 -282 ct 1204 -294 1199 -304 1194 -312 ct 
1188 -319 1180 -324 1170 -327 ct 1160 -331 1148 -332 1134 -332 ct 1119 -332 1106 -329 1094 -324 ct 
1082 -319 1072 -312 1063 -302 ct 1055 -292 1049 -280 1044 -266 ct 1039 -251 1037 -235 1037 -216 ct 
1037 0 l  975 0 l  975 -294 l  975 -302 975 -310 975 -319 ct 975 -328 975 -336 974 -344 ct 
974 -351 974 -358 974 -363 ct 973 -369 973 -372 973 -372 ct 1031 -372 l  1032 -371 1032 -368 1032 -363 ct 
1032 -358 1033 -352 1033 -346 ct 1033 -339 1034 -333 1034 -326 ct 1034 -319 1034 -314 1034 -309 ct 
1035 -309 l  1041 -320 1048 -330 1055 -339 ct 1062 -347 1070 -355 1080 -361 ct 
1089 -367 1100 -372 1112 -375 ct 1124 -378 1138 -380 1155 -380 ct 1175 -380 1193 -377 1208 -372 ct 
1223 -367 1235 -360 1245 -349 ct 1255 -338 1262 -325 1266 -308 ct 1271 -291 1273 -272 1273 -249 ct 
1273 0 l  1210 0 l  p ef
1514 -2 m  1505 0 1495 2 1485 4 ct 1475 5 1464 6 1451 6 ct 1402 6 1377 -22 1377 -79 ct 
1377 -328 l  1334 -328 l  1334 -373 l  1379 -373 l  1397 -456 l  1439 -456 l 
1439 -373 l  1508 -373 l  1508 -328 l  1439 -328 l  1439 -92 l  1439 -74 1442 -61 1448 -54 ct 
1453 -47 1464 -43 1478 -43 ct 1484 -43 1490 -44 1496 -45 ct 1501 -46 1507 -47 1514 -48 ct 
1514 -2 l  p ef
1582 -452 m  1582 -511 l  1644 -511 l  1644 -452 l  1582 -452 l  p
1582 1 m  1582 -372 l  1644 -372 l  1644 1 l  1582 1 l  p ef
1958 0 m  1958 -237 l  1958 -255 1957 -270 1954 -282 ct 1952 -294 1948 -304 1943 -312 ct 
1937 -319 1930 -324 1922 -327 ct 1913 -331 1902 -332 1890 -332 ct 1876 -332 1865 -329 1854 -324 ct 
1843 -319 1834 -312 1827 -302 ct 1819 -292 1814 -280 1810 -266 ct 1806 -251 1804 -235 1804 -216 ct 
1804 0 l  1742 0 l  1742 -294 l  1742 -302 1742 -310 1742 -319 ct 1742 -328 1742 -336 1741 -344 ct 
1741 -351 1741 -358 1741 -363 ct 1740 -369 1740 -372 1740 -372 ct 1798 -372 l 
1799 -371 1799 -368 1799 -363 ct 1799 -358 1800 -352 1800 -346 ct 1800 -339 1801 -333 1801 -326 ct 
1801 -319 1801 -314 1801 -309 ct 1802 -309 l  1808 -320 1814 -330 1820 -339 ct 
1827 -347 1834 -355 1843 -361 ct 1851 -367 1861 -372 1872 -375 ct 1884 -378 1897 -380 1911 -380 ct 
1939 -380 1962 -374 1978 -363 ct 1995 -352 2006 -334 2013 -309 ct 2014 -309 l 
2019 -320 2025 -330 2032 -339 ct 2039 -347 2047 -355 2056 -361 ct 2066 -367 2076 -372 2087 -375 ct 
2099 -378 2112 -380 2127 -380 ct 2146 -380 2162 -377 2175 -372 ct 2189 -367 2200 -360 2209 -349 ct 
2218 -338 2224 -325 2228 -308 ct 2233 -291 2235 -272 2235 -249 ct 2235 0 l  2173 0 l 
2173 -237 l  2173 -255 2172 -270 2170 -282 ct 2167 -294 2164 -304 2158 -312 ct 
2153 -319 2146 -324 2137 -327 ct 2128 -331 2118 -332 2105 -332 ct 2092 -332 2080 -330 2069 -325 ct 
2059 -320 2050 -312 2042 -303 ct 2035 -293 2029 -281 2025 -267 ct 2021 -252 2019 -235 2019 -216 ct 
2019 0 l  1958 0 l  p ef
2370 -173 m  2370 -154 2372 -136 2376 -119 ct 2380 -103 2386 -89 2395 -77 ct 
2403 -65 2414 -56 2427 -49 ct 2440 -43 2456 -40 2474 -40 ct 2501 -40 2523 -45 2539 -56 ct 
2555 -67 2566 -80 2572 -97 ct 2626 -81 l  2622 -71 2617 -61 2610 -50 ct 2603 -40 2594 -30 2582 -22 ct 
2570 -13 2555 -7 2538 -1 ct 2520 4 2499 7 2474 7 ct 2419 7 2377 -9 2348 -42 ct 
2319 -75 2305 -124 2305 -189 ct 2305 -224 2309 -253 2318 -278 ct 2327 -302 2339 -322 2354 -337 ct 
2369 -352 2387 -363 2407 -370 ct 2427 -376 2449 -380 2472 -380 ct 2503 -380 2529 -375 2550 -365 ct 
2571 -355 2588 -341 2601 -323 ct 2614 -305 2623 -284 2628 -260 ct 2634 -236 2636 -210 2636 -182 ct 
2636 -173 l  2370 -173 l  p
2572 -221 m  2569 -260 2559 -289 2542 -307 ct 2526 -325 2502 -334 2471 -334 ct 
2460 -334 2450 -332 2438 -329 ct 2427 -326 2416 -320 2407 -311 ct 2397 -303 2389 -291 2382 -277 ct 
2376 -262 2372 -244 2371 -221 ct 2572 -221 l  p ef
pom
pum
2358 9270 t
89.9 r 44 -183 m  44 -215 46 -245 51 -274 ct 56 -304 63 -332 74 -359 ct 84 -385 97 -412 113 -437 ct 
130 -462 149 -487 171 -511 ct 231 -511 l  209 -487 191 -462 175 -437 ct 159 -411 146 -385 136 -358 ct 
126 -331 119 -303 114 -274 ct 109 -245 106 -214 106 -182 ct 106 -150 109 -119 114 -90 ct 
119 -61 126 -33 136 -6 ct 146 21 159 48 175 73 ct 191 98 209 123 231 147 ct 171 147 l 
149 123 130 98 113 73 ct 97 48 84 21 74 -5 ct 63 -32 56 -60 51 -89 ct 46 -118 44 -149 44 -181 ct 
44 -183 l  p ef
285 -452 m  285 -511 l  347 -511 l  347 -452 l  285 -452 l  p
285 1 m  285 -372 l  347 -372 l  347 1 l  285 1 l  p ef
681 0 m  681 -237 l  681 -255 680 -270 677 -282 ct 675 -294 670 -304 665 -312 ct 
659 -319 651 -324 641 -327 ct 631 -331 619 -332 605 -332 ct 590 -332 577 -329 565 -324 ct 
553 -319 543 -312 534 -302 ct 526 -292 520 -280 515 -266 ct 510 -251 508 -235 508 -216 ct 
508 0 l  446 0 l  446 -294 l  446 -302 446 -310 446 -319 ct 446 -328 446 -336 445 -344 ct 
445 -351 445 -358 445 -363 ct 444 -369 444 -372 444 -372 ct 502 -372 l  503 -371 503 -368 503 -363 ct 
503 -358 504 -352 504 -346 ct 504 -339 505 -333 505 -326 ct 505 -319 505 -314 505 -309 ct 
506 -309 l  512 -320 519 -330 526 -339 ct 533 -347 541 -355 551 -361 ct 560 -367 571 -372 583 -375 ct 
595 -378 609 -380 626 -380 ct 646 -380 664 -377 679 -372 ct 694 -367 706 -360 716 -349 ct 
726 -338 733 -325 737 -308 ct 742 -291 744 -272 744 -249 ct 744 0 l  681 0 l 
p ef
1444 -134 m  1444 -114 1440 -95 1432 -77 ct 1424 -60 1411 -45 1395 -33 ct 1378 -20 1357 -11 1332 -4 ct 
1307 3 1277 7 1243 7 ct 1182 7 1135 -4 1102 -25 ct 1068 -46 1046 -76 1037 -116 ct 
1101 -129 l  1104 -117 1109 -105 1116 -95 ct 1122 -84 1131 -75 1143 -68 ct 1154 -61 1168 -55 1185 -51 ct 
1202 -46 1222 -44 1245 -44 ct 1265 -44 1283 -46 1299 -49 ct 1315 -53 1329 -58 1341 -65 ct 
1353 -72 1362 -81 1369 -91 ct 1375 -102 1378 -115 1378 -131 ct 1378 -146 1375 -159 1367 -169 ct 
1360 -179 1350 -187 1337 -194 ct 1324 -200 1308 -206 1290 -210 ct 1272 -214 1252 -219 1230 -224 ct 
1216 -227 1203 -230 1189 -234 ct 1175 -237 1162 -242 1150 -247 ct 1137 -252 1125 -257 1114 -264 ct 
1103 -271 1094 -279 1086 -288 ct 1078 -297 1071 -308 1067 -320 ct 1062 -333 1060 -347 1060 -363 ct 
1060 -386 1064 -406 1074 -422 ct 1083 -439 1096 -452 1113 -463 ct 1129 -473 1149 -481 1171 -486 ct 
1194 -491 1218 -493 1244 -493 ct 1274 -493 1300 -491 1321 -486 ct 1343 -481 1361 -474 1376 -465 ct 
1390 -455 1402 -444 1411 -430 ct 1420 -416 1427 -400 1432 -381 ct 1367 -370 l 
1364 -382 1359 -392 1353 -401 ct 1347 -410 1339 -418 1329 -424 ct 1320 -431 1308 -435 1293 -439 ct 
1279 -442 1263 -443 1244 -443 ct 1221 -443 1202 -441 1187 -437 ct 1172 -433 1159 -428 1150 -421 ct 
1141 -414 1134 -406 1130 -397 ct 1126 -387 1124 -377 1124 -366 ct 1124 -352 1128 -340 1135 -331 ct 
1142 -321 1152 -314 1164 -307 ct 1177 -301 1191 -296 1207 -292 ct 1224 -288 1241 -284 1259 -280 ct 
1274 -276 1289 -273 1304 -269 ct 1319 -265 1333 -261 1347 -256 ct 1360 -251 1373 -246 1385 -239 ct 
1397 -232 1407 -224 1416 -214 ct 1424 -205 1431 -193 1436 -180 ct 1441 -167 1444 -152 1444 -134 ct 
p ef
1577 -173 m  1577 -154 1579 -136 1583 -119 ct 1587 -103 1593 -89 1602 -77 ct 
1610 -65 1621 -56 1634 -49 ct 1647 -43 1663 -40 1681 -40 ct 1708 -40 1730 -45 1746 -56 ct 
1762 -67 1773 -80 1779 -97 ct 1833 -81 l  1829 -71 1824 -61 1817 -50 ct 1810 -40 1801 -30 1789 -22 ct 
1777 -13 1762 -7 1745 -1 ct 1727 4 1706 7 1681 7 ct 1626 7 1584 -9 1555 -42 ct 
1526 -75 1512 -124 1512 -189 ct 1512 -224 1516 -253 1525 -278 ct 1534 -302 1546 -322 1561 -337 ct 
1576 -352 1594 -363 1614 -370 ct 1634 -376 1656 -380 1679 -380 ct 1710 -380 1736 -375 1757 -365 ct 
1778 -355 1795 -341 1808 -323 ct 1821 -305 1830 -284 1835 -260 ct 1841 -236 1843 -210 1843 -182 ct 
1843 -173 l  1577 -173 l  p
1779 -221 m  1776 -260 1766 -289 1749 -307 ct 1733 -325 1709 -334 1678 -334 ct 
1667 -334 1657 -332 1645 -329 ct 1634 -326 1623 -320 1614 -311 ct 1604 -303 1596 -291 1589 -277 ct 
1583 -262 1579 -244 1578 -221 ct 1779 -221 l  p ef
1974 -188 m  1974 -167 1975 -147 1978 -129 ct 1982 -111 1987 -96 1994 -83 ct 
2002 -70 2011 -60 2023 -53 ct 2035 -46 2050 -42 2068 -42 ct 2090 -42 2108 -48 2123 -59 ct 
2138 -71 2147 -89 2151 -113 ct 2213 -113 l  2211 -97 2207 -82 2200 -68 ct 2193 -53 2184 -41 2172 -30 ct 
2160 -19 2146 -10 2129 -3 ct 2112 4 2092 7 2070 7 ct 2040 7 2016 2 1995 -8 ct 1975 -18 1958 -31 1945 -49 ct 
1933 -66 1923 -87 1918 -110 ct 1912 -134 1909 -159 1909 -187 ct 1909 -212 1911 -234 1915 -253 ct 
1919 -272 1925 -289 1933 -304 ct 1940 -318 1949 -330 1959 -340 ct 1969 -350 1980 -357 1992 -363 ct 
2004 -369 2016 -373 2029 -376 ct 2042 -379 2056 -380 2069 -380 ct 2090 -380 2108 -377 2125 -371 ct 
2141 -366 2155 -358 2167 -348 ct 2179 -338 2188 -326 2196 -312 ct 2203 -299 2208 -284 2211 -269 ct 
2148 -264 l  2144 -284 2136 -301 2123 -313 ct 2110 -325 2091 -331 2067 -331 ct 
2050 -331 2035 -328 2023 -323 ct 2011 -317 2002 -308 1994 -296 ct 1987 -284 1982 -269 1978 -251 ct 
1975 -233 1974 -212 1974 -188 ct p ef
2612 -187 m  2612 -122 2598 -73 2569 -41 ct 2540 -9 2498 7 2444 7 ct 2418 7 2395 3 2374 -5 ct 
2354 -13 2336 -24 2322 -41 ct 2308 -57 2297 -77 2290 -101 ct 2282 -125 2279 -154 2279 -187 ct 
2279 -316 2334 -380 2446 -380 ct 2475 -380 2500 -376 2521 -368 ct 2542 -360 2559 -348 2573 -332 ct 
2586 -315 2596 -295 2602 -271 ct 2609 -247 2612 -219 2612 -187 ct p
2547 -187 m  2547 -216 2545 -240 2540 -258 ct 2536 -277 2529 -292 2520 -304 ct 
2512 -315 2501 -323 2489 -327 ct 2477 -332 2463 -334 2447 -334 ct 2431 -334 2417 -332 2404 -327 ct 
2391 -322 2380 -314 2371 -303 ct 2362 -291 2356 -276 2351 -257 ct 2346 -239 2344 -215 2344 -187 ct 
2344 -158 2346 -134 2351 -115 ct 2356 -96 2363 -81 2372 -70 ct 2381 -58 2392 -50 2404 -46 ct 
2416 -41 2429 -39 2443 -39 ct 2459 -39 2473 -41 2486 -46 ct 2499 -50 2510 -58 2519 -69 ct 
2528 -80 2535 -96 2540 -115 ct 2544 -134 2547 -158 2547 -187 ct p ef
2930 0 m  2930 -237 l  2930 -255 2929 -270 2926 -282 ct 2924 -294 2919 -304 2914 -312 ct 
2908 -319 2900 -324 2890 -327 ct 2880 -331 2868 -332 2854 -332 ct 2839 -332 2826 -329 2814 -324 ct 
2802 -319 2792 -312 2783 -302 ct 2775 -292 2769 -280 2764 -266 ct 2759 -251 2757 -235 2757 -216 ct 
2757 0 l  2695 0 l  2695 -294 l  2695 -302 2695 -310 2695 -319 ct 2695 -328 2695 -336 2694 -344 ct 
2694 -351 2694 -358 2694 -363 ct 2693 -369 2693 -372 2693 -372 ct 2751 -372 l 
2752 -371 2752 -368 2752 -363 ct 2752 -358 2753 -352 2753 -346 ct 2753 -339 2754 -333 2754 -326 ct 
2754 -319 2754 -314 2754 -309 ct 2755 -309 l  2761 -320 2768 -330 2775 -339 ct 
2782 -347 2790 -355 2800 -361 ct 2809 -367 2820 -372 2832 -375 ct 2844 -378 2858 -380 2875 -380 ct 
2895 -380 2913 -377 2928 -372 ct 2943 -367 2955 -360 2965 -349 ct 2975 -338 2982 -325 2986 -308 ct 
2991 -291 2993 -272 2993 -249 ct 2993 0 l  2930 0 l  p ef
3326 -59 m  3315 -35 3299 -18 3280 -8 ct 3261 3 3238 8 3210 8 ct 3163 8 3128 -8 3106 -40 ct 
3084 -71 3073 -119 3073 -184 ct 3073 -314 3118 -379 3210 -379 ct 3238 -379 3262 -374 3281 -363 ct 
3299 -353 3315 -337 3326 -314 ct 3327 -314 l  3327 -316 3327 -320 3327 -325 ct 
3326 -330 3326 -335 3326 -341 ct 3326 -346 3326 -351 3326 -356 ct 3326 -361 3326 -364 3326 -366 ct 
3326 -511 l  3388 -511 l  3388 -74 l  3388 -65 3388 -57 3388 -48 ct 3388 -40 3389 -33 3389 -26 ct 
3389 -19 3389 -13 3389 -8 ct 3390 -3 3390 0 3390 0 ct 3331 0 l  3330 -3 3330 -6 3330 -10 ct 
3329 -14 3329 -19 3329 -24 ct 3328 -30 3328 -35 3328 -41 ct 3328 -47 3327 -53 3327 -59 ct 
3326 -59 l  p
3138 -186 m  3138 -160 3139 -138 3143 -120 ct 3146 -101 3151 -86 3158 -74 ct 
3165 -62 3174 -54 3185 -48 ct 3196 -43 3210 -40 3226 -40 ct 3242 -40 3256 -43 3269 -48 ct 
3281 -53 3292 -62 3300 -74 ct 3309 -85 3315 -101 3319 -120 ct 3324 -139 3326 -162 3326 -190 ct 
3326 -216 3324 -239 3319 -257 ct 3315 -275 3309 -290 3300 -301 ct 3292 -313 3281 -321 3269 -326 ct 
3257 -331 3242 -333 3226 -333 ct 3211 -333 3198 -331 3187 -325 ct 3176 -320 3167 -311 3160 -300 ct 
3152 -288 3147 -273 3143 -254 ct 3140 -235 3138 -213 3138 -186 ct p ef
3767 -103 m  3767 -86 3764 -70 3757 -56 ct 3751 -43 3741 -31 3728 -22 ct 3715 -12 3699 -5 3680 0 ct 
3662 5 3640 7 3616 7 ct 3595 7 3575 5 3558 2 ct 3540 -1 3525 -7 3512 -14 ct 3499 -21 3488 -31 3479 -43 ct 
3470 -55 3464 -70 3460 -87 ct 3514 -98 l  3520 -78 3531 -64 3547 -54 ct 3564 -45 3587 -40 3616 -40 ct 
3629 -40 3642 -41 3653 -43 ct 3664 -45 3674 -48 3682 -52 ct 3690 -57 3696 -63 3700 -70 ct 
3705 -78 3707 -87 3707 -98 ct 3707 -109 3705 -119 3699 -126 ct 3694 -133 3687 -139 3677 -144 ct 
3668 -149 3656 -153 3643 -157 ct 3629 -160 3615 -164 3599 -169 ct 3584 -172 3569 -177 3554 -182 ct 
3539 -186 3526 -193 3514 -201 ct 3502 -209 3493 -219 3486 -230 ct 3478 -242 3474 -257 3474 -274 ct 
3474 -308 3487 -334 3511 -352 ct 3535 -370 3570 -379 3617 -379 ct 3658 -379 3691 -372 3715 -357 ct 
3739 -343 3755 -319 3761 -288 ct 3705 -281 l  3703 -290 3699 -298 3694 -305 ct 
3688 -311 3682 -317 3674 -321 ct 3666 -325 3657 -328 3647 -329 ct 3638 -331 3627 -332 3617 -332 ct 
3589 -332 3568 -328 3555 -319 ct 3541 -311 3535 -298 3535 -281 ct 3535 -271 3537 -262 3542 -256 ct 
3547 -249 3554 -244 3563 -239 ct 3572 -235 3582 -231 3595 -227 ct 3607 -224 3621 -220 3636 -217 ct 
3646 -214 3656 -212 3666 -209 ct 3676 -206 3687 -202 3696 -198 ct 3706 -194 3715 -190 3724 -184 ct 
3733 -179 3740 -172 3746 -165 ct 3753 -157 3758 -148 3762 -138 ct 3766 -128 3767 -116 3767 -103 ct 
p ef
4001 -181 m  4001 -149 3999 -118 3994 -89 ct 3989 -60 3982 -32 3971 -5 ct 3961 21 3948 48 3932 73 ct 
3916 98 3896 123 3874 147 ct 3814 147 l  3836 123 3854 98 3870 73 ct 3886 48 3899 21 3909 -6 ct 
3919 -33 3927 -61 3932 -90 ct 3936 -119 3939 -150 3939 -182 ct 3939 -214 3936 -245 3932 -274 ct 
3927 -303 3919 -331 3909 -358 ct 3899 -385 3886 -411 3870 -437 ct 3854 -462 3836 -487 3814 -511 ct 
3874 -511 l  3896 -487 3916 -462 3932 -437 ct 3948 -412 3961 -385 3971 -359 ct 
3982 -332 3989 -304 3994 -274 ct 3999 -245 4001 -215 4001 -183 ct 4001 -181 l 
p ef
pom
0 9000 t 
pom
count op_count sub {pop} repeat countdictstack dict_count sub {end} repeat b4_inc_state restore
%%PageTrailer
%%Trailer
%%EOF
