%!PS-Adobe-3.0 EPSF-3.0 
%%BoundingBox: 0 0 454 255
%%Pages: 0
%%Creator: LibreOffice 5.1
%%Title: none
%%CreationDate: none
%%LanguageLevel: 2
%%EndComments
%%BeginProlog
%%BeginResource: procset SDRes-Prolog 1.0 0
/b4_inc_state save def
/dict_count countdictstack def
/op_count count 1 sub def
userdict begin
0 setgray 0 setlinecap 1 setlinewidth 0 setlinejoin 10 setmiterlimit[] 0 setdash newpath
/languagelevel where {pop languagelevel 1 ne {false setstrokeadjust false setoverprint} if} if
/bdef {bind def} bind def
/c {setrgbcolor} bdef
/l {neg lineto} bdef
/rl {neg rlineto} bdef
/lc {setlinecap} bdef
/lj {setlinejoin} bdef
/lw {setlinewidth} bdef
/ml {setmiterlimit} bdef
/ld {setdash} bdef
/m {neg moveto} bdef
/ct {6 2 roll neg 6 2 roll neg 6 2 roll neg curveto} bdef
/r {rotate} bdef
/t {neg translate} bdef
/s {scale} bdef
/sw {show} bdef
/gs {gsave} bdef
/gr {grestore} bdef
/f {findfont dup length dict begin
{1 index /FID ne {def} {pop pop} ifelse} forall /Encoding ISOLatin1Encoding def
currentdict end /NFont exch definefont pop /NFont findfont} bdef
/p {closepath} bdef
/sf {scalefont setfont} bdef
/ef {eofill}bdef
/pc {closepath stroke}bdef
/ps {stroke}bdef
/pum {matrix currentmatrix}bdef
/pom {setmatrix}bdef
/bs {/aString exch def /nXOfs exch def /nWidth exch def currentpoint nXOfs 0 rmoveto pum nWidth aString stringwidth pop div 1 scale aString show pom moveto} bdef
%%EndResource
%%EndProlog
%%BeginSetup
%%EndSetup
%%Page: 1 1
%%BeginPageSetup
%%EndPageSetup
pum
0.02837 0.02833 s 
0 -9000 t
/tm matrix currentmatrix def
tm setmatrix
-134 -2700 t 
1 1 s 
1.000 1.000 1.000 c 8134 11698 m  134 11698 l  134 2699 l  16133 2699 l 
16133 11698 l  8134 11698 l  p ef
0 lw 1 lj 0.703 0.703 0.703 c 10358 8740 m  4904 8740 l  4904 4811 l  15813 4811 l 
15813 8740 l  10358 8740 l  pc
15813 8739 m  4904 8739 l  ps
15813 7756 m  4904 7756 l  ps
15813 6775 m  4904 6775 l  ps
15813 5792 m  4904 5792 l  ps
15813 4810 m  4904 4810 l  ps
4904 8889 m  4904 8739 l  ps
4904 8889 m  4904 8739 l  ps
7631 8889 m  7631 8739 l  ps
7631 8889 m  7631 8739 l  ps
10358 8889 m  10358 8739 l  ps
10358 8889 m  10358 8739 l  ps
13085 8889 m  13085 8739 l  ps
13085 8889 m  13085 8739 l  ps
15813 8889 m  15813 8739 l  ps
15813 8889 m  15813 8739 l  ps
4904 8739 m  15813 8739 l  ps
4754 8739 m  4904 8739 l  ps
4754 8739 m  4904 8739 l  ps
4754 7756 m  4904 7756 l  ps
4754 7756 m  4904 7756 l  ps
4754 6775 m  4904 6775 l  ps
4754 6775 m  4904 6775 l  ps
4754 5792 m  4904 5792 l  ps
4754 5792 m  4904 5792 l  ps
4754 4810 m  4904 4810 l  ps
4754 4810 m  4904 4810 l  ps
4904 8739 m  4904 4810 l  ps
0.003 0.003 0.003 c 13540 8739 m  14449 8739 l  14449 5666 l  13540 5666 l 
13540 8739 l  p ef
10812 8739 m  11721 8739 l  11721 5697 l  10812 5697 l  10812 8739 l  p ef
8086 8739 m  8994 8739 l  8994 5088 l  8086 5088 l  8086 8739 l  p ef
5358 8739 m  6267 8739 l  6267 5385 l  5358 5385 l  5358 8739 l  p ef
0.503 0.503 0.503 c 14449 8739 m  15358 8739 l  15358 8163 l  14449 8163 l 
14449 8739 l  p ef
11721 8739 m  12630 8739 l  12630 7340 l  11721 7340 l  11721 8739 l  p ef
8994 8739 m  9903 8739 l  9903 5791 l  8994 5791 l  8994 8739 l  p ef
6267 8739 m  7176 8739 l  7176 5258 l  6267 5258 l  6267 8739 l  p ef
pum
5566 9624 t
0.003 0.003 0.003 c 365 -243 m  365 -196 361 -157 352 -125 ct 343 -93 331 -68 316 -48 ct 
300 -28 282 -14 262 -6 ct 241 3 219 7 195 7 ct 172 7 150 3 129 -6 ct 109 -14 91 -28 76 -48 ct 
61 -67 49 -93 41 -125 ct 32 -157 28 -196 28 -243 ct 28 -292 32 -332 41 -365 ct 
49 -397 61 -422 76 -441 ct 91 -460 109 -474 130 -481 ct 151 -489 173 -493 198 -493 ct 
221 -493 243 -489 263 -481 ct 283 -474 301 -460 316 -441 ct 331 -422 343 -397 352 -365 ct 
361 -332 365 -292 365 -243 ct p
302 -243 m  302 -282 300 -314 295 -339 ct 290 -365 284 -385 275 -401 ct 266 -416 255 -427 242 -433 ct 
229 -440 214 -443 198 -443 ct 180 -443 165 -439 151 -433 ct 138 -427 127 -416 118 -400 ct 
109 -385 102 -365 97 -339 ct 93 -313 90 -281 90 -243 ct 90 -206 93 -174 97 -149 ct 
102 -123 109 -103 118 -87 ct 127 -72 138 -61 151 -54 ct 164 -47 179 -44 196 -44 ct 
212 -44 227 -47 240 -54 ct 253 -61 264 -72 274 -87 ct 283 -103 290 -123 295 -149 ct 
300 -174 302 -206 302 -243 ct p ef
461 0 m  461 -76 l  529 -76 l  529 0 l  461 0 l  p ef
974 -243 m  974 -196 970 -157 961 -125 ct 952 -93 940 -68 925 -48 ct 909 -28 891 -14 871 -6 ct 
850 3 828 7 804 7 ct 781 7 759 3 738 -6 ct 718 -14 700 -28 685 -48 ct 670 -67 658 -93 650 -125 ct 
641 -157 637 -196 637 -243 ct 637 -292 641 -332 650 -365 ct 658 -397 670 -422 685 -441 ct 
700 -460 718 -474 739 -481 ct 760 -489 782 -493 807 -493 ct 830 -493 852 -489 872 -481 ct 
892 -474 910 -460 925 -441 ct 940 -422 952 -397 961 -365 ct 970 -332 974 -292 974 -243 ct 
p
911 -243 m  911 -282 909 -314 904 -339 ct 899 -365 893 -385 884 -401 ct 875 -416 864 -427 851 -433 ct 
838 -440 823 -443 807 -443 ct 789 -443 774 -439 760 -433 ct 747 -427 736 -416 727 -400 ct 
718 -385 711 -365 706 -339 ct 702 -313 699 -281 699 -243 ct 699 -206 702 -174 706 -149 ct 
711 -123 718 -103 727 -87 ct 736 -72 747 -61 760 -54 ct 773 -47 788 -44 805 -44 ct 
821 -44 836 -47 849 -54 ct 862 -61 873 -72 883 -87 ct 892 -103 899 -123 904 -149 ct 
909 -174 911 -206 911 -243 ct p ef
1368 -158 m  1368 -134 1364 -112 1357 -91 ct 1350 -71 1339 -54 1324 -39 ct 1310 -24 1292 -13 1270 -5 ct 
1249 3 1224 7 1196 7 ct 1170 7 1148 4 1129 -2 ct 1110 -8 1094 -16 1081 -27 ct 1068 -37 1057 -49 1050 -63 ct 
1042 -77 1036 -92 1033 -109 ct 1096 -116 l  1099 -107 1102 -98 1107 -89 ct 1111 -80 1118 -73 1125 -66 ct 
1133 -59 1143 -54 1155 -50 ct 1166 -46 1180 -44 1197 -44 ct 1213 -44 1228 -46 1241 -51 ct 
1254 -56 1265 -63 1274 -73 ct 1284 -83 1291 -95 1296 -109 ct 1301 -123 1304 -139 1304 -157 ct 
1304 -172 1301 -186 1296 -198 ct 1291 -211 1285 -221 1276 -231 ct 1267 -240 1256 -247 1243 -252 ct 
1230 -257 1215 -259 1198 -259 ct 1188 -259 1179 -258 1170 -257 ct 1161 -255 1153 -252 1145 -249 ct 
1138 -246 1131 -242 1125 -238 ct 1119 -233 1113 -229 1108 -224 ct 1047 -224 l 
1064 -486 l  1340 -486 l  1340 -433 l  1120 -433 l  1111 -279 l  1122 -287 1136 -295 1152 -301 ct 
1169 -307 1188 -310 1211 -310 ct 1235 -310 1257 -306 1276 -299 ct 1296 -292 1312 -281 1326 -268 ct 
1339 -254 1350 -238 1357 -220 ct 1364 -201 1368 -181 1368 -158 ct p ef
pom
pum
8492 9624 t
365 -243 m  365 -196 361 -157 352 -125 ct 343 -93 331 -68 316 -48 ct 300 -28 282 -14 262 -6 ct 
241 3 219 7 195 7 ct 172 7 150 3 129 -6 ct 109 -14 91 -28 76 -48 ct 61 -67 49 -93 41 -125 ct 
32 -157 28 -196 28 -243 ct 28 -292 32 -332 41 -365 ct 49 -397 61 -422 76 -441 ct 
91 -460 109 -474 130 -481 ct 151 -489 173 -493 198 -493 ct 221 -493 243 -489 263 -481 ct 
283 -474 301 -460 316 -441 ct 331 -422 343 -397 352 -365 ct 361 -332 365 -292 365 -243 ct 
p
302 -243 m  302 -282 300 -314 295 -339 ct 290 -365 284 -385 275 -401 ct 266 -416 255 -427 242 -433 ct 
229 -440 214 -443 198 -443 ct 180 -443 165 -439 151 -433 ct 138 -427 127 -416 118 -400 ct 
109 -385 102 -365 97 -339 ct 93 -313 90 -281 90 -243 ct 90 -206 93 -174 97 -149 ct 
102 -123 109 -103 118 -87 ct 127 -72 138 -61 151 -54 ct 164 -47 179 -44 196 -44 ct 
212 -44 227 -47 240 -54 ct 253 -61 264 -72 274 -87 ct 283 -103 290 -123 295 -149 ct 
300 -174 302 -206 302 -243 ct p ef
461 0 m  461 -76 l  529 -76 l  529 0 l  461 0 l  p ef
663 0 m  663 -53 l  787 -53 l  787 -427 l  677 -348 l  677 -407 l  792 -486 l 
849 -486 l  849 -53 l  967 -53 l  967 0 l  663 0 l  p ef
pom
pum
11021 9624 t
365 -243 m  365 -196 361 -157 352 -125 ct 343 -93 331 -68 316 -48 ct 300 -28 282 -14 262 -6 ct 
241 3 219 7 195 7 ct 172 7 150 3 129 -6 ct 109 -14 91 -28 76 -48 ct 61 -67 49 -93 41 -125 ct 
32 -157 28 -196 28 -243 ct 28 -292 32 -332 41 -365 ct 49 -397 61 -422 76 -441 ct 
91 -460 109 -474 130 -481 ct 151 -489 173 -493 198 -493 ct 221 -493 243 -489 263 -481 ct 
283 -474 301 -460 316 -441 ct 331 -422 343 -397 352 -365 ct 361 -332 365 -292 365 -243 ct 
p
302 -243 m  302 -282 300 -314 295 -339 ct 290 -365 284 -385 275 -401 ct 266 -416 255 -427 242 -433 ct 
229 -440 214 -443 198 -443 ct 180 -443 165 -439 151 -433 ct 138 -427 127 -416 118 -400 ct 
109 -385 102 -365 97 -339 ct 93 -313 90 -281 90 -243 ct 90 -206 93 -174 97 -149 ct 
102 -123 109 -103 118 -87 ct 127 -72 138 -61 151 -54 ct 164 -47 179 -44 196 -44 ct 
212 -44 227 -47 240 -54 ct 253 -61 264 -72 274 -87 ct 283 -103 290 -123 295 -149 ct 
300 -174 302 -206 302 -243 ct p ef
461 0 m  461 -76 l  529 -76 l  529 0 l  461 0 l  p ef
663 0 m  663 -53 l  787 -53 l  787 -427 l  677 -348 l  677 -407 l  792 -486 l 
849 -486 l  849 -53 l  967 -53 l  967 0 l  663 0 l  p ef
1368 -158 m  1368 -134 1364 -112 1357 -91 ct 1350 -71 1339 -54 1324 -39 ct 1310 -24 1292 -13 1270 -5 ct 
1249 3 1224 7 1196 7 ct 1170 7 1148 4 1129 -2 ct 1110 -8 1094 -16 1081 -27 ct 1068 -37 1057 -49 1050 -63 ct 
1042 -77 1036 -92 1033 -109 ct 1096 -116 l  1099 -107 1102 -98 1107 -89 ct 1111 -80 1118 -73 1125 -66 ct 
1133 -59 1143 -54 1155 -50 ct 1166 -46 1180 -44 1197 -44 ct 1213 -44 1228 -46 1241 -51 ct 
1254 -56 1265 -63 1274 -73 ct 1284 -83 1291 -95 1296 -109 ct 1301 -123 1304 -139 1304 -157 ct 
1304 -172 1301 -186 1296 -198 ct 1291 -211 1285 -221 1276 -231 ct 1267 -240 1256 -247 1243 -252 ct 
1230 -257 1215 -259 1198 -259 ct 1188 -259 1179 -258 1170 -257 ct 1161 -255 1153 -252 1145 -249 ct 
1138 -246 1131 -242 1125 -238 ct 1119 -233 1113 -229 1108 -224 ct 1047 -224 l 
1064 -486 l  1340 -486 l  1340 -433 l  1120 -433 l  1111 -279 l  1122 -287 1136 -295 1152 -301 ct 
1169 -307 1188 -310 1211 -310 ct 1235 -310 1257 -306 1276 -299 ct 1296 -292 1312 -281 1326 -268 ct 
1339 -254 1350 -238 1357 -220 ct 1364 -201 1368 -181 1368 -158 ct p ef
pom
pum
13947 9624 t
365 -243 m  365 -196 361 -157 352 -125 ct 343 -93 331 -68 316 -48 ct 300 -28 282 -14 262 -6 ct 
241 3 219 7 195 7 ct 172 7 150 3 129 -6 ct 109 -14 91 -28 76 -48 ct 61 -67 49 -93 41 -125 ct 
32 -157 28 -196 28 -243 ct 28 -292 32 -332 41 -365 ct 49 -397 61 -422 76 -441 ct 
91 -460 109 -474 130 -481 ct 151 -489 173 -493 198 -493 ct 221 -493 243 -489 263 -481 ct 
283 -474 301 -460 316 -441 ct 331 -422 343 -397 352 -365 ct 361 -332 365 -292 365 -243 ct 
p
302 -243 m  302 -282 300 -314 295 -339 ct 290 -365 284 -385 275 -401 ct 266 -416 255 -427 242 -433 ct 
229 -440 214 -443 198 -443 ct 180 -443 165 -439 151 -433 ct 138 -427 127 -416 118 -400 ct 
109 -385 102 -365 97 -339 ct 93 -313 90 -281 90 -243 ct 90 -206 93 -174 97 -149 ct 
102 -123 109 -103 118 -87 ct 127 -72 138 -61 151 -54 ct 164 -47 179 -44 196 -44 ct 
212 -44 227 -47 240 -54 ct 253 -61 264 -72 274 -87 ct 283 -103 290 -123 295 -149 ct 
300 -174 302 -206 302 -243 ct p ef
461 0 m  461 -76 l  529 -76 l  529 0 l  461 0 l  p ef
645 0 m  645 -44 l  656 -71 671 -94 687 -115 ct 704 -136 722 -154 741 -171 ct 
759 -188 778 -203 796 -217 ct 814 -231 831 -246 845 -260 ct 860 -274 872 -289 881 -305 ct 
890 -320 895 -338 895 -358 ct 895 -372 893 -384 889 -394 ct 884 -405 878 -414 871 -421 ct 
863 -428 853 -433 843 -437 ct 832 -440 820 -442 806 -442 ct 794 -442 782 -440 771 -437 ct 
760 -433 751 -428 742 -421 ct 734 -414 727 -406 721 -396 ct 716 -385 712 -374 711 -360 ct 
647 -366 l  649 -383 654 -400 662 -415 ct 669 -431 680 -444 693 -456 ct 706 -467 722 -476 741 -483 ct 
760 -490 782 -493 806 -493 ct 830 -493 852 -490 871 -484 ct 890 -479 905 -470 918 -459 ct 
931 -448 941 -434 948 -417 ct 955 -401 959 -382 959 -360 ct 959 -344 956 -328 950 -313 ct 
944 -299 936 -285 926 -271 ct 917 -258 905 -245 892 -233 ct 880 -220 866 -208 852 -196 ct 
838 -185 824 -173 810 -161 ct 795 -150 782 -138 769 -126 ct 757 -114 746 -103 736 -91 ct 
726 -78 718 -66 713 -53 ct 966 -53 l  966 0 l  645 0 l  p ef
pom
pum
4257 8978 t
365 -243 m  365 -196 361 -157 352 -125 ct 343 -93 331 -68 316 -48 ct 300 -28 282 -14 262 -6 ct 
241 3 219 7 195 7 ct 172 7 150 3 129 -6 ct 109 -14 91 -28 76 -48 ct 61 -67 49 -93 41 -125 ct 
32 -157 28 -196 28 -243 ct 28 -292 32 -332 41 -365 ct 49 -397 61 -422 76 -441 ct 
91 -460 109 -474 130 -481 ct 151 -489 173 -493 198 -493 ct 221 -493 243 -489 263 -481 ct 
283 -474 301 -460 316 -441 ct 331 -422 343 -397 352 -365 ct 361 -332 365 -292 365 -243 ct 
p
302 -243 m  302 -282 300 -314 295 -339 ct 290 -365 284 -385 275 -401 ct 266 -416 255 -427 242 -433 ct 
229 -440 214 -443 198 -443 ct 180 -443 165 -439 151 -433 ct 138 -427 127 -416 118 -400 ct 
109 -385 102 -365 97 -339 ct 93 -313 90 -281 90 -243 ct 90 -206 93 -174 97 -149 ct 
102 -123 109 -103 118 -87 ct 127 -72 138 -61 151 -54 ct 164 -47 179 -44 196 -44 ct 
212 -44 227 -47 240 -54 ct 253 -61 264 -72 274 -87 ct 283 -103 290 -123 295 -149 ct 
300 -174 302 -206 302 -243 ct p ef
pom
pum
3066 7995 t
54 0 m  54 -53 l  178 -53 l  178 -427 l  68 -348 l  68 -407 l  183 -486 l 
240 -486 l  240 -53 l  358 -53 l  358 0 l  54 0 l  p ef
762 -243 m  762 -196 758 -157 749 -125 ct 740 -93 728 -68 713 -48 ct 697 -28 679 -14 659 -6 ct 
638 3 616 7 592 7 ct 569 7 547 3 526 -6 ct 506 -14 488 -28 473 -48 ct 458 -67 446 -93 438 -125 ct 
429 -157 425 -196 425 -243 ct 425 -292 429 -332 438 -365 ct 446 -397 458 -422 473 -441 ct 
488 -460 506 -474 527 -481 ct 548 -489 570 -493 595 -493 ct 618 -493 640 -489 660 -481 ct 
680 -474 698 -460 713 -441 ct 728 -422 740 -397 749 -365 ct 758 -332 762 -292 762 -243 ct 
p
699 -243 m  699 -282 697 -314 692 -339 ct 687 -365 681 -385 672 -401 ct 663 -416 652 -427 639 -433 ct 
626 -440 611 -443 595 -443 ct 577 -443 562 -439 548 -433 ct 535 -427 524 -416 515 -400 ct 
506 -385 499 -365 494 -339 ct 490 -313 487 -281 487 -243 ct 487 -206 490 -174 494 -149 ct 
499 -123 506 -103 515 -87 ct 524 -72 535 -61 548 -54 ct 561 -47 576 -44 593 -44 ct 
609 -44 624 -47 637 -54 ct 650 -61 661 -72 671 -87 ct 680 -103 687 -123 692 -149 ct 
697 -174 699 -206 699 -243 ct p ef
1159 -243 m  1159 -196 1155 -157 1146 -125 ct 1137 -93 1125 -68 1110 -48 ct 
1094 -28 1076 -14 1056 -6 ct 1035 3 1013 7 989 7 ct 966 7 944 3 923 -6 ct 903 -14 885 -28 870 -48 ct 
855 -67 843 -93 835 -125 ct 826 -157 822 -196 822 -243 ct 822 -292 826 -332 835 -365 ct 
843 -397 855 -422 870 -441 ct 885 -460 903 -474 924 -481 ct 945 -489 967 -493 992 -493 ct 
1015 -493 1037 -489 1057 -481 ct 1077 -474 1095 -460 1110 -441 ct 1125 -422 1137 -397 1146 -365 ct 
1155 -332 1159 -292 1159 -243 ct p
1096 -243 m  1096 -282 1094 -314 1089 -339 ct 1084 -365 1078 -385 1069 -401 ct 
1060 -416 1049 -427 1036 -433 ct 1023 -440 1008 -443 992 -443 ct 974 -443 959 -439 945 -433 ct 
932 -427 921 -416 912 -400 ct 903 -385 896 -365 891 -339 ct 887 -313 884 -281 884 -243 ct 
884 -206 887 -174 891 -149 ct 896 -123 903 -103 912 -87 ct 921 -72 932 -61 945 -54 ct 
958 -47 973 -44 990 -44 ct 1006 -44 1021 -47 1034 -54 ct 1047 -61 1058 -72 1068 -87 ct 
1077 -103 1084 -123 1089 -149 ct 1094 -174 1096 -206 1096 -243 ct p ef
1556 -243 m  1556 -196 1552 -157 1543 -125 ct 1534 -93 1522 -68 1507 -48 ct 
1491 -28 1473 -14 1453 -6 ct 1432 3 1410 7 1386 7 ct 1363 7 1341 3 1320 -6 ct 1300 -14 1282 -28 1267 -48 ct 
1252 -67 1240 -93 1232 -125 ct 1223 -157 1219 -196 1219 -243 ct 1219 -292 1223 -332 1232 -365 ct 
1240 -397 1252 -422 1267 -441 ct 1282 -460 1300 -474 1321 -481 ct 1342 -489 1364 -493 1389 -493 ct 
1412 -493 1434 -489 1454 -481 ct 1474 -474 1492 -460 1507 -441 ct 1522 -422 1534 -397 1543 -365 ct 
1552 -332 1556 -292 1556 -243 ct p
1493 -243 m  1493 -282 1491 -314 1486 -339 ct 1481 -365 1475 -385 1466 -401 ct 
1457 -416 1446 -427 1433 -433 ct 1420 -440 1405 -443 1389 -443 ct 1371 -443 1356 -439 1342 -433 ct 
1329 -427 1318 -416 1309 -400 ct 1300 -385 1293 -365 1288 -339 ct 1284 -313 1281 -281 1281 -243 ct 
1281 -206 1284 -174 1288 -149 ct 1293 -123 1300 -103 1309 -87 ct 1318 -72 1329 -61 1342 -54 ct 
1355 -47 1370 -44 1387 -44 ct 1403 -44 1418 -47 1431 -54 ct 1444 -61 1455 -72 1465 -87 ct 
1474 -103 1481 -123 1486 -149 ct 1491 -174 1493 -206 1493 -243 ct p ef
pom
pum
3066 7013 t
36 0 m  36 -44 l  47 -71 62 -94 78 -115 ct 95 -136 113 -154 132 -171 ct 150 -188 169 -203 187 -217 ct 
205 -231 222 -246 236 -260 ct 251 -274 263 -289 272 -305 ct 281 -320 286 -338 286 -358 ct 
286 -372 284 -384 280 -394 ct 275 -405 269 -414 262 -421 ct 254 -428 244 -433 234 -437 ct 
223 -440 211 -442 197 -442 ct 185 -442 173 -440 162 -437 ct 151 -433 142 -428 133 -421 ct 
125 -414 118 -406 112 -396 ct 107 -385 103 -374 102 -360 ct 38 -366 l  40 -383 45 -400 53 -415 ct 
60 -431 71 -444 84 -456 ct 97 -467 113 -476 132 -483 ct 151 -490 173 -493 197 -493 ct 
221 -493 243 -490 262 -484 ct 281 -479 296 -470 309 -459 ct 322 -448 332 -434 339 -417 ct 
346 -401 350 -382 350 -360 ct 350 -344 347 -328 341 -313 ct 335 -299 327 -285 317 -271 ct 
308 -258 296 -245 283 -233 ct 271 -220 257 -208 243 -196 ct 229 -185 215 -173 201 -161 ct 
186 -150 173 -138 160 -126 ct 148 -114 137 -103 127 -91 ct 117 -78 109 -66 104 -53 ct 
357 -53 l  357 0 l  36 0 l  p ef
762 -243 m  762 -196 758 -157 749 -125 ct 740 -93 728 -68 713 -48 ct 697 -28 679 -14 659 -6 ct 
638 3 616 7 592 7 ct 569 7 547 3 526 -6 ct 506 -14 488 -28 473 -48 ct 458 -67 446 -93 438 -125 ct 
429 -157 425 -196 425 -243 ct 425 -292 429 -332 438 -365 ct 446 -397 458 -422 473 -441 ct 
488 -460 506 -474 527 -481 ct 548 -489 570 -493 595 -493 ct 618 -493 640 -489 660 -481 ct 
680 -474 698 -460 713 -441 ct 728 -422 740 -397 749 -365 ct 758 -332 762 -292 762 -243 ct 
p
699 -243 m  699 -282 697 -314 692 -339 ct 687 -365 681 -385 672 -401 ct 663 -416 652 -427 639 -433 ct 
626 -440 611 -443 595 -443 ct 577 -443 562 -439 548 -433 ct 535 -427 524 -416 515 -400 ct 
506 -385 499 -365 494 -339 ct 490 -313 487 -281 487 -243 ct 487 -206 490 -174 494 -149 ct 
499 -123 506 -103 515 -87 ct 524 -72 535 -61 548 -54 ct 561 -47 576 -44 593 -44 ct 
609 -44 624 -47 637 -54 ct 650 -61 661 -72 671 -87 ct 680 -103 687 -123 692 -149 ct 
697 -174 699 -206 699 -243 ct p ef
1159 -243 m  1159 -196 1155 -157 1146 -125 ct 1137 -93 1125 -68 1110 -48 ct 
1094 -28 1076 -14 1056 -6 ct 1035 3 1013 7 989 7 ct 966 7 944 3 923 -6 ct 903 -14 885 -28 870 -48 ct 
855 -67 843 -93 835 -125 ct 826 -157 822 -196 822 -243 ct 822 -292 826 -332 835 -365 ct 
843 -397 855 -422 870 -441 ct 885 -460 903 -474 924 -481 ct 945 -489 967 -493 992 -493 ct 
1015 -493 1037 -489 1057 -481 ct 1077 -474 1095 -460 1110 -441 ct 1125 -422 1137 -397 1146 -365 ct 
1155 -332 1159 -292 1159 -243 ct p
1096 -243 m  1096 -282 1094 -314 1089 -339 ct 1084 -365 1078 -385 1069 -401 ct 
1060 -416 1049 -427 1036 -433 ct 1023 -440 1008 -443 992 -443 ct 974 -443 959 -439 945 -433 ct 
932 -427 921 -416 912 -400 ct 903 -385 896 -365 891 -339 ct 887 -313 884 -281 884 -243 ct 
884 -206 887 -174 891 -149 ct 896 -123 903 -103 912 -87 ct 921 -72 932 -61 945 -54 ct 
958 -47 973 -44 990 -44 ct 1006 -44 1021 -47 1034 -54 ct 1047 -61 1058 -72 1068 -87 ct 
1077 -103 1084 -123 1089 -149 ct 1094 -174 1096 -206 1096 -243 ct p ef
1556 -243 m  1556 -196 1552 -157 1543 -125 ct 1534 -93 1522 -68 1507 -48 ct 
1491 -28 1473 -14 1453 -6 ct 1432 3 1410 7 1386 7 ct 1363 7 1341 3 1320 -6 ct 1300 -14 1282 -28 1267 -48 ct 
1252 -67 1240 -93 1232 -125 ct 1223 -157 1219 -196 1219 -243 ct 1219 -292 1223 -332 1232 -365 ct 
1240 -397 1252 -422 1267 -441 ct 1282 -460 1300 -474 1321 -481 ct 1342 -489 1364 -493 1389 -493 ct 
1412 -493 1434 -489 1454 -481 ct 1474 -474 1492 -460 1507 -441 ct 1522 -422 1534 -397 1543 -365 ct 
1552 -332 1556 -292 1556 -243 ct p
1493 -243 m  1493 -282 1491 -314 1486 -339 ct 1481 -365 1475 -385 1466 -401 ct 
1457 -416 1446 -427 1433 -433 ct 1420 -440 1405 -443 1389 -443 ct 1371 -443 1356 -439 1342 -433 ct 
1329 -427 1318 -416 1309 -400 ct 1300 -385 1293 -365 1288 -339 ct 1284 -313 1281 -281 1281 -243 ct 
1281 -206 1284 -174 1288 -149 ct 1293 -123 1300 -103 1309 -87 ct 1318 -72 1329 -61 1342 -54 ct 
1355 -47 1370 -44 1387 -44 ct 1403 -44 1418 -47 1431 -54 ct 1444 -61 1455 -72 1465 -87 ct 
1474 -103 1481 -123 1486 -149 ct 1491 -174 1493 -206 1493 -243 ct p ef
pom
pum
3066 6030 t
362 -134 m  362 -112 358 -92 351 -74 ct 344 -57 333 -42 319 -30 ct 305 -18 288 -9 267 -2 ct 
247 4 223 7 197 7 ct 167 7 141 3 121 -4 ct 100 -12 83 -22 70 -34 ct 57 -46 47 -60 40 -76 ct 
33 -92 29 -108 27 -125 ct 91 -131 l  93 -118 96 -106 101 -95 ct 106 -85 113 -76 121 -68 ct 
130 -61 140 -55 153 -51 ct 165 -46 180 -44 197 -44 ct 228 -44 253 -52 270 -67 ct 
288 -83 297 -106 297 -136 ct 297 -154 293 -168 285 -179 ct 277 -190 267 -199 256 -205 ct 
244 -211 231 -215 217 -217 ct 203 -219 190 -220 179 -220 ct 143 -220 l  143 -274 l 
177 -274 l  189 -274 201 -275 214 -278 ct 226 -280 238 -284 248 -291 ct 259 -297 267 -306 274 -316 ct 
281 -327 284 -341 284 -358 ct 284 -384 277 -404 261 -419 ct 246 -434 224 -442 193 -442 ct 
166 -442 144 -435 127 -421 ct 110 -407 100 -387 98 -362 ct 35 -366 l  38 -388 44 -406 53 -422 ct 
62 -438 74 -451 88 -462 ct 102 -472 118 -480 136 -485 ct 154 -490 174 -493 194 -493 ct 
221 -493 245 -490 264 -483 ct 284 -476 300 -467 312 -455 ct 324 -444 334 -430 339 -414 ct 
345 -399 348 -382 348 -364 ct 348 -350 346 -337 342 -324 ct 338 -312 332 -301 324 -291 ct 
316 -281 305 -273 293 -265 ct 280 -258 264 -253 246 -249 ct 246 -248 l  266 -246 283 -241 298 -235 ct 
312 -228 324 -219 333 -209 ct 343 -199 350 -188 355 -175 ct 359 -162 362 -148 362 -134 ct 
p ef
762 -243 m  762 -196 758 -157 749 -125 ct 740 -93 728 -68 713 -48 ct 697 -28 679 -14 659 -6 ct 
638 3 616 7 592 7 ct 569 7 547 3 526 -6 ct 506 -14 488 -28 473 -48 ct 458 -67 446 -93 438 -125 ct 
429 -157 425 -196 425 -243 ct 425 -292 429 -332 438 -365 ct 446 -397 458 -422 473 -441 ct 
488 -460 506 -474 527 -481 ct 548 -489 570 -493 595 -493 ct 618 -493 640 -489 660 -481 ct 
680 -474 698 -460 713 -441 ct 728 -422 740 -397 749 -365 ct 758 -332 762 -292 762 -243 ct 
p
699 -243 m  699 -282 697 -314 692 -339 ct 687 -365 681 -385 672 -401 ct 663 -416 652 -427 639 -433 ct 
626 -440 611 -443 595 -443 ct 577 -443 562 -439 548 -433 ct 535 -427 524 -416 515 -400 ct 
506 -385 499 -365 494 -339 ct 490 -313 487 -281 487 -243 ct 487 -206 490 -174 494 -149 ct 
499 -123 506 -103 515 -87 ct 524 -72 535 -61 548 -54 ct 561 -47 576 -44 593 -44 ct 
609 -44 624 -47 637 -54 ct 650 -61 661 -72 671 -87 ct 680 -103 687 -123 692 -149 ct 
697 -174 699 -206 699 -243 ct p ef
1159 -243 m  1159 -196 1155 -157 1146 -125 ct 1137 -93 1125 -68 1110 -48 ct 
1094 -28 1076 -14 1056 -6 ct 1035 3 1013 7 989 7 ct 966 7 944 3 923 -6 ct 903 -14 885 -28 870 -48 ct 
855 -67 843 -93 835 -125 ct 826 -157 822 -196 822 -243 ct 822 -292 826 -332 835 -365 ct 
843 -397 855 -422 870 -441 ct 885 -460 903 -474 924 -481 ct 945 -489 967 -493 992 -493 ct 
1015 -493 1037 -489 1057 -481 ct 1077 -474 1095 -460 1110 -441 ct 1125 -422 1137 -397 1146 -365 ct 
1155 -332 1159 -292 1159 -243 ct p
1096 -243 m  1096 -282 1094 -314 1089 -339 ct 1084 -365 1078 -385 1069 -401 ct 
1060 -416 1049 -427 1036 -433 ct 1023 -440 1008 -443 992 -443 ct 974 -443 959 -439 945 -433 ct 
932 -427 921 -416 912 -400 ct 903 -385 896 -365 891 -339 ct 887 -313 884 -281 884 -243 ct 
884 -206 887 -174 891 -149 ct 896 -123 903 -103 912 -87 ct 921 -72 932 -61 945 -54 ct 
958 -47 973 -44 990 -44 ct 1006 -44 1021 -47 1034 -54 ct 1047 -61 1058 -72 1068 -87 ct 
1077 -103 1084 -123 1089 -149 ct 1094 -174 1096 -206 1096 -243 ct p ef
1556 -243 m  1556 -196 1552 -157 1543 -125 ct 1534 -93 1522 -68 1507 -48 ct 
1491 -28 1473 -14 1453 -6 ct 1432 3 1410 7 1386 7 ct 1363 7 1341 3 1320 -6 ct 1300 -14 1282 -28 1267 -48 ct 
1252 -67 1240 -93 1232 -125 ct 1223 -157 1219 -196 1219 -243 ct 1219 -292 1223 -332 1232 -365 ct 
1240 -397 1252 -422 1267 -441 ct 1282 -460 1300 -474 1321 -481 ct 1342 -489 1364 -493 1389 -493 ct 
1412 -493 1434 -489 1454 -481 ct 1474 -474 1492 -460 1507 -441 ct 1522 -422 1534 -397 1543 -365 ct 
1552 -332 1556 -292 1556 -243 ct p
1493 -243 m  1493 -282 1491 -314 1486 -339 ct 1481 -365 1475 -385 1466 -401 ct 
1457 -416 1446 -427 1433 -433 ct 1420 -440 1405 -443 1389 -443 ct 1371 -443 1356 -439 1342 -433 ct 
1329 -427 1318 -416 1309 -400 ct 1300 -385 1293 -365 1288 -339 ct 1284 -313 1281 -281 1281 -243 ct 
1281 -206 1284 -174 1288 -149 ct 1293 -123 1300 -103 1309 -87 ct 1318 -72 1329 -61 1342 -54 ct 
1355 -47 1370 -44 1387 -44 ct 1403 -44 1418 -47 1431 -54 ct 1444 -61 1455 -72 1465 -87 ct 
1474 -103 1481 -123 1486 -149 ct 1491 -174 1493 -206 1493 -243 ct p ef
pom
pum
3066 5048 t
304 -110 m  304 0 l  245 0 l  245 -110 l  16 -110 l  16 -158 l  239 -486 l 
304 -486 l  304 -159 l  372 -159 l  372 -110 l  304 -110 l  p
245 -416 m  245 -415 243 -413 242 -409 ct 240 -406 238 -402 235 -398 ct 233 -394 231 -390 228 -385 ct 
226 -381 224 -377 222 -375 ct 98 -190 l  96 -188 95 -186 93 -183 ct 90 -180 88 -177 86 -174 ct 
84 -171 81 -168 79 -165 ct 77 -162 75 -160 73 -160 ct 245 -160 l  245 -416 l 
p ef
762 -243 m  762 -196 758 -157 749 -125 ct 740 -93 728 -68 713 -48 ct 697 -28 679 -14 659 -6 ct 
638 3 616 7 592 7 ct 569 7 547 3 526 -6 ct 506 -14 488 -28 473 -48 ct 458 -67 446 -93 438 -125 ct 
429 -157 425 -196 425 -243 ct 425 -292 429 -332 438 -365 ct 446 -397 458 -422 473 -441 ct 
488 -460 506 -474 527 -481 ct 548 -489 570 -493 595 -493 ct 618 -493 640 -489 660 -481 ct 
680 -474 698 -460 713 -441 ct 728 -422 740 -397 749 -365 ct 758 -332 762 -292 762 -243 ct 
p
699 -243 m  699 -282 697 -314 692 -339 ct 687 -365 681 -385 672 -401 ct 663 -416 652 -427 639 -433 ct 
626 -440 611 -443 595 -443 ct 577 -443 562 -439 548 -433 ct 535 -427 524 -416 515 -400 ct 
506 -385 499 -365 494 -339 ct 490 -313 487 -281 487 -243 ct 487 -206 490 -174 494 -149 ct 
499 -123 506 -103 515 -87 ct 524 -72 535 -61 548 -54 ct 561 -47 576 -44 593 -44 ct 
609 -44 624 -47 637 -54 ct 650 -61 661 -72 671 -87 ct 680 -103 687 -123 692 -149 ct 
697 -174 699 -206 699 -243 ct p ef
1159 -243 m  1159 -196 1155 -157 1146 -125 ct 1137 -93 1125 -68 1110 -48 ct 
1094 -28 1076 -14 1056 -6 ct 1035 3 1013 7 989 7 ct 966 7 944 3 923 -6 ct 903 -14 885 -28 870 -48 ct 
855 -67 843 -93 835 -125 ct 826 -157 822 -196 822 -243 ct 822 -292 826 -332 835 -365 ct 
843 -397 855 -422 870 -441 ct 885 -460 903 -474 924 -481 ct 945 -489 967 -493 992 -493 ct 
1015 -493 1037 -489 1057 -481 ct 1077 -474 1095 -460 1110 -441 ct 1125 -422 1137 -397 1146 -365 ct 
1155 -332 1159 -292 1159 -243 ct p
1096 -243 m  1096 -282 1094 -314 1089 -339 ct 1084 -365 1078 -385 1069 -401 ct 
1060 -416 1049 -427 1036 -433 ct 1023 -440 1008 -443 992 -443 ct 974 -443 959 -439 945 -433 ct 
932 -427 921 -416 912 -400 ct 903 -385 896 -365 891 -339 ct 887 -313 884 -281 884 -243 ct 
884 -206 887 -174 891 -149 ct 896 -123 903 -103 912 -87 ct 921 -72 932 -61 945 -54 ct 
958 -47 973 -44 990 -44 ct 1006 -44 1021 -47 1034 -54 ct 1047 -61 1058 -72 1068 -87 ct 
1077 -103 1084 -123 1089 -149 ct 1094 -174 1096 -206 1096 -243 ct p ef
1556 -243 m  1556 -196 1552 -157 1543 -125 ct 1534 -93 1522 -68 1507 -48 ct 
1491 -28 1473 -14 1453 -6 ct 1432 3 1410 7 1386 7 ct 1363 7 1341 3 1320 -6 ct 1300 -14 1282 -28 1267 -48 ct 
1252 -67 1240 -93 1232 -125 ct 1223 -157 1219 -196 1219 -243 ct 1219 -292 1223 -332 1232 -365 ct 
1240 -397 1252 -422 1267 -441 ct 1282 -460 1300 -474 1321 -481 ct 1342 -489 1364 -493 1389 -493 ct 
1412 -493 1434 -489 1454 -481 ct 1474 -474 1492 -460 1507 -441 ct 1522 -422 1534 -397 1543 -365 ct 
1552 -332 1556 -292 1556 -243 ct p
1493 -243 m  1493 -282 1491 -314 1486 -339 ct 1481 -365 1475 -385 1466 -401 ct 
1457 -416 1446 -427 1433 -433 ct 1420 -440 1405 -443 1389 -443 ct 1371 -443 1356 -439 1342 -433 ct 
1329 -427 1318 -416 1309 -400 ct 1300 -385 1293 -365 1288 -339 ct 1284 -313 1281 -281 1281 -243 ct 
1281 -206 1284 -174 1288 -149 ct 1293 -123 1300 -103 1309 -87 ct 1318 -72 1329 -61 1342 -54 ct 
1355 -47 1370 -44 1387 -44 ct 1403 -44 1418 -47 1431 -54 ct 1444 -61 1455 -72 1465 -87 ct 
1474 -103 1481 -123 1486 -149 ct 1491 -174 1493 -206 1493 -243 ct p ef
pom
pum
5924 3861 t
476 -248 m  476 -207 470 -172 458 -141 ct 446 -110 429 -84 408 -63 ct 387 -42 362 -27 333 -16 ct 
304 -5 273 0 240 0 ct 58 0 l  58 -486 l  219 -486 l  256 -486 291 -481 322 -472 ct 
354 -462 381 -448 404 -429 ct 426 -409 444 -385 457 -355 ct 470 -325 476 -289 476 -248 ct 
p
410 -248 m  410 -281 405 -309 396 -332 ct 386 -355 373 -375 356 -390 ct 339 -405 319 -415 295 -422 ct 
271 -430 245 -433 217 -433 ct 124 -433 l  124 -53 l  232 -53 l  258 -53 281 -57 303 -65 ct 
325 -73 343 -86 359 -102 ct 375 -118 387 -139 396 -163 ct 405 -187 410 -216 410 -248 ct 
p ef
672 7 m  634 7 606 -3 587 -23 ct 568 -43 559 -70 559 -105 ct 559 -129 564 -149 573 -165 ct 
582 -181 594 -194 610 -203 ct 625 -212 642 -218 661 -221 ct 680 -225 700 -226 720 -226 ct 
804 -226 l  804 -247 l  804 -263 802 -276 799 -287 ct 796 -298 791 -307 784 -313 ct 
777 -320 769 -325 759 -328 ct 749 -331 737 -333 724 -333 ct 712 -333 701 -332 691 -330 ct 
682 -328 673 -325 666 -321 ct 659 -316 653 -310 649 -303 ct 645 -295 642 -285 640 -273 ct 
576 -279 l  578 -294 582 -307 589 -320 ct 595 -332 604 -343 616 -352 ct 628 -361 643 -368 661 -373 ct 
678 -378 700 -380 725 -380 ct 772 -380 807 -369 831 -348 ct 855 -326 866 -295 866 -254 ct 
866 -94 l  866 -75 869 -61 874 -52 ct 879 -43 888 -38 901 -38 ct 905 -38 908 -38 912 -39 ct 
915 -39 918 -40 922 -40 ct 922 -2 l  914 0 906 1 898 2 ct 891 3 882 4 874 4 ct 
862 4 852 2 844 -1 ct 835 -4 828 -9 823 -15 ct 818 -21 814 -29 811 -39 ct 808 -48 807 -59 806 -71 ct 
804 -71 l  797 -59 790 -49 782 -39 ct 774 -29 765 -21 754 -14 ct 744 -7 732 -2 718 1 ct 
705 5 689 7 672 7 ct p
686 -40 m  706 -40 723 -43 738 -50 ct 753 -58 765 -67 775 -78 ct 784 -89 792 -101 797 -115 ct 
801 -128 804 -140 804 -153 ct 804 -183 l  736 -183 l  721 -183 706 -182 693 -180 ct 
679 -178 667 -174 657 -168 ct 646 -163 638 -155 632 -144 ct 626 -134 623 -120 623 -103 ct 
623 -83 628 -67 639 -56 ct 650 -45 666 -40 686 -40 ct p ef
1117 -2 m  1108 0 1098 2 1088 4 ct 1078 5 1067 6 1054 6 ct 1005 6 980 -22 980 -79 ct 
980 -328 l  937 -328 l  937 -373 l  982 -373 l  1000 -456 l  1042 -456 l 
1042 -373 l  1111 -373 l  1111 -328 l  1042 -328 l  1042 -92 l  1042 -74 1045 -61 1051 -54 ct 
1056 -47 1067 -43 1081 -43 ct 1087 -43 1093 -44 1099 -45 ct 1104 -46 1110 -47 1117 -48 ct 
1117 -2 l  p ef
1281 7 m  1243 7 1215 -3 1196 -23 ct 1177 -43 1168 -70 1168 -105 ct 1168 -129 1173 -149 1182 -165 ct 
1191 -181 1203 -194 1219 -203 ct 1234 -212 1251 -218 1270 -221 ct 1289 -225 1309 -226 1329 -226 ct 
1413 -226 l  1413 -247 l  1413 -263 1411 -276 1408 -287 ct 1405 -298 1400 -307 1393 -313 ct 
1386 -320 1378 -325 1368 -328 ct 1358 -331 1346 -333 1333 -333 ct 1321 -333 1310 -332 1300 -330 ct 
1291 -328 1282 -325 1275 -321 ct 1268 -316 1262 -310 1258 -303 ct 1254 -295 1251 -285 1249 -273 ct 
1185 -279 l  1187 -294 1191 -307 1198 -320 ct 1204 -332 1213 -343 1225 -352 ct 
1237 -361 1252 -368 1270 -373 ct 1287 -378 1309 -380 1334 -380 ct 1381 -380 1416 -369 1440 -348 ct 
1464 -326 1475 -295 1475 -254 ct 1475 -94 l  1475 -75 1478 -61 1483 -52 ct 1488 -43 1497 -38 1510 -38 ct 
1514 -38 1517 -38 1521 -39 ct 1524 -39 1527 -40 1531 -40 ct 1531 -2 l  1523 0 1515 1 1507 2 ct 
1500 3 1491 4 1483 4 ct 1471 4 1461 2 1453 -1 ct 1444 -4 1437 -9 1432 -15 ct 1427 -21 1423 -29 1420 -39 ct 
1417 -48 1416 -59 1415 -71 ct 1413 -71 l  1406 -59 1399 -49 1391 -39 ct 1383 -29 1374 -21 1363 -14 ct 
1353 -7 1341 -2 1327 1 ct 1314 5 1298 7 1281 7 ct p
1295 -40 m  1315 -40 1332 -43 1347 -50 ct 1362 -58 1374 -67 1384 -78 ct 1393 -89 1401 -101 1406 -115 ct 
1410 -128 1413 -140 1413 -153 ct 1413 -183 l  1345 -183 l  1330 -183 1315 -182 1302 -180 ct 
1288 -178 1276 -174 1266 -168 ct 1255 -163 1247 -155 1241 -144 ct 1235 -134 1232 -120 1232 -103 ct 
1232 -83 1237 -67 1248 -56 ct 1259 -45 1275 -40 1295 -40 ct p ef
1862 -103 m  1862 -86 1859 -70 1852 -56 ct 1846 -43 1836 -31 1823 -22 ct 1810 -12 1794 -5 1775 0 ct 
1757 5 1735 7 1711 7 ct 1690 7 1670 5 1653 2 ct 1635 -1 1620 -7 1607 -14 ct 1594 -21 1583 -31 1574 -43 ct 
1565 -55 1559 -70 1555 -87 ct 1609 -98 l  1615 -78 1626 -64 1642 -54 ct 1659 -45 1682 -40 1711 -40 ct 
1724 -40 1737 -41 1748 -43 ct 1759 -45 1769 -48 1777 -52 ct 1785 -57 1791 -63 1795 -70 ct 
1800 -78 1802 -87 1802 -98 ct 1802 -109 1800 -119 1794 -126 ct 1789 -133 1782 -139 1772 -144 ct 
1763 -149 1751 -153 1738 -157 ct 1724 -160 1710 -164 1694 -169 ct 1679 -172 1664 -177 1649 -182 ct 
1634 -186 1621 -193 1609 -201 ct 1597 -209 1588 -219 1581 -230 ct 1573 -242 1569 -257 1569 -274 ct 
1569 -308 1582 -334 1606 -352 ct 1630 -370 1665 -379 1712 -379 ct 1753 -379 1786 -372 1810 -357 ct 
1834 -343 1850 -319 1856 -288 ct 1800 -281 l  1798 -290 1794 -298 1789 -305 ct 
1783 -311 1777 -317 1769 -321 ct 1761 -325 1752 -328 1742 -329 ct 1733 -331 1722 -332 1712 -332 ct 
1684 -332 1663 -328 1650 -319 ct 1636 -311 1630 -298 1630 -281 ct 1630 -271 1632 -262 1637 -256 ct 
1642 -249 1649 -244 1658 -239 ct 1667 -235 1677 -231 1690 -227 ct 1702 -224 1716 -220 1731 -217 ct 
1741 -214 1751 -212 1761 -209 ct 1771 -206 1782 -202 1791 -198 ct 1801 -194 1810 -190 1819 -184 ct 
1828 -179 1835 -172 1841 -165 ct 1848 -157 1853 -148 1857 -138 ct 1861 -128 1862 -116 1862 -103 ct 
p ef
2000 -173 m  2000 -154 2002 -136 2006 -119 ct 2010 -103 2016 -89 2025 -77 ct 
2033 -65 2044 -56 2057 -49 ct 2070 -43 2086 -40 2104 -40 ct 2131 -40 2153 -45 2169 -56 ct 
2185 -67 2196 -80 2202 -97 ct 2256 -81 l  2252 -71 2247 -61 2240 -50 ct 2233 -40 2224 -30 2212 -22 ct 
2200 -13 2185 -7 2168 -1 ct 2150 4 2129 7 2104 7 ct 2049 7 2007 -9 1978 -42 ct 
1949 -75 1935 -124 1935 -189 ct 1935 -224 1939 -253 1948 -278 ct 1957 -302 1969 -322 1984 -337 ct 
1999 -352 2017 -363 2037 -370 ct 2057 -376 2079 -380 2102 -380 ct 2133 -380 2159 -375 2180 -365 ct 
2201 -355 2218 -341 2231 -323 ct 2244 -305 2253 -284 2258 -260 ct 2264 -236 2266 -210 2266 -182 ct 
2266 -173 l  2000 -173 l  p
2202 -221 m  2199 -260 2189 -289 2172 -307 ct 2156 -325 2132 -334 2101 -334 ct 
2090 -334 2080 -332 2068 -329 ct 2057 -326 2046 -320 2037 -311 ct 2027 -303 2019 -291 2012 -277 ct 
2006 -262 2002 -244 2001 -221 ct 2202 -221 l  p ef
2493 -2 m  2484 0 2474 2 2464 4 ct 2454 5 2443 6 2430 6 ct 2381 6 2356 -22 2356 -79 ct 
2356 -328 l  2313 -328 l  2313 -373 l  2358 -373 l  2376 -456 l  2418 -456 l 
2418 -373 l  2487 -373 l  2487 -328 l  2418 -328 l  2418 -92 l  2418 -74 2421 -61 2427 -54 ct 
2432 -47 2443 -43 2457 -43 ct 2463 -43 2469 -44 2475 -45 ct 2480 -46 2486 -47 2493 -48 ct 
2493 -2 l  p ef
2789 -302 m  2789 -373 l  2857 -373 l  2857 -302 l  2789 -302 l  p
2789 0 m  2789 -71 l  2857 -71 l  2857 0 l  2789 0 l  p ef
3588 -134 m  3588 -114 3584 -95 3576 -77 ct 3568 -60 3555 -45 3539 -33 ct 3522 -20 3501 -11 3476 -4 ct 
3451 3 3421 7 3387 7 ct 3326 7 3279 -4 3246 -25 ct 3212 -46 3190 -76 3181 -116 ct 
3245 -129 l  3248 -117 3253 -105 3260 -95 ct 3266 -84 3275 -75 3287 -68 ct 3298 -61 3312 -55 3329 -51 ct 
3346 -46 3366 -44 3389 -44 ct 3409 -44 3427 -46 3443 -49 ct 3459 -53 3473 -58 3485 -65 ct 
3497 -72 3506 -81 3513 -91 ct 3519 -102 3522 -115 3522 -131 ct 3522 -146 3519 -159 3511 -169 ct 
3504 -179 3494 -187 3481 -194 ct 3468 -200 3452 -206 3434 -210 ct 3416 -214 3396 -219 3374 -224 ct 
3360 -227 3347 -230 3333 -234 ct 3319 -237 3306 -242 3294 -247 ct 3281 -252 3269 -257 3258 -264 ct 
3247 -271 3238 -279 3230 -288 ct 3222 -297 3215 -308 3211 -320 ct 3206 -333 3204 -347 3204 -363 ct 
3204 -386 3208 -406 3218 -422 ct 3227 -439 3240 -452 3257 -463 ct 3273 -473 3293 -481 3315 -486 ct 
3338 -491 3362 -493 3388 -493 ct 3418 -493 3444 -491 3465 -486 ct 3487 -481 3505 -474 3520 -465 ct 
3534 -455 3546 -444 3555 -430 ct 3564 -416 3571 -400 3576 -381 ct 3511 -370 l 
3508 -382 3503 -392 3497 -401 ct 3491 -410 3483 -418 3473 -424 ct 3464 -431 3452 -435 3437 -439 ct 
3423 -442 3407 -443 3388 -443 ct 3365 -443 3346 -441 3331 -437 ct 3316 -433 3303 -428 3294 -421 ct 
3285 -414 3278 -406 3274 -397 ct 3270 -387 3268 -377 3268 -366 ct 3268 -352 3272 -340 3279 -331 ct 
3286 -321 3296 -314 3308 -307 ct 3321 -301 3335 -296 3351 -292 ct 3368 -288 3385 -284 3403 -280 ct 
3418 -276 3433 -273 3448 -269 ct 3463 -265 3477 -261 3491 -256 ct 3504 -251 3517 -246 3529 -239 ct 
3541 -232 3551 -224 3560 -214 ct 3568 -205 3575 -193 3580 -180 ct 3585 -167 3588 -152 3588 -134 ct 
p ef
3679 0 m  3679 -53 l  3803 -53 l  3803 -427 l  3693 -348 l  3693 -407 l 
3808 -486 l  3865 -486 l  3865 -53 l  3983 -53 l  3983 0 l  3679 0 l  p ef
4058 0 m  4058 -44 l  4069 -71 4084 -94 4100 -115 ct 4117 -136 4135 -154 4154 -171 ct 
4172 -188 4191 -203 4209 -217 ct 4227 -231 4244 -246 4258 -260 ct 4273 -274 4285 -289 4294 -305 ct 
4303 -320 4308 -338 4308 -358 ct 4308 -372 4306 -384 4302 -394 ct 4297 -405 4291 -414 4284 -421 ct 
4276 -428 4266 -433 4256 -437 ct 4245 -440 4233 -442 4219 -442 ct 4207 -442 4195 -440 4184 -437 ct 
4173 -433 4164 -428 4155 -421 ct 4147 -414 4140 -406 4134 -396 ct 4129 -385 4125 -374 4124 -360 ct 
4060 -366 l  4062 -383 4067 -400 4075 -415 ct 4082 -431 4093 -444 4106 -456 ct 
4119 -467 4135 -476 4154 -483 ct 4173 -490 4195 -493 4219 -493 ct 4243 -493 4265 -490 4284 -484 ct 
4303 -479 4318 -470 4331 -459 ct 4344 -448 4354 -434 4361 -417 ct 4368 -401 4372 -382 4372 -360 ct 
4372 -344 4369 -328 4363 -313 ct 4357 -299 4349 -285 4339 -271 ct 4330 -258 4318 -245 4305 -233 ct 
4293 -220 4279 -208 4265 -196 ct 4251 -185 4237 -173 4223 -161 ct 4208 -150 4195 -138 4182 -126 ct 
4170 -114 4159 -103 4149 -91 ct 4139 -78 4131 -66 4126 -53 ct 4379 -53 l  4379 0 l 
4058 0 l  p ef
pom
pum
4504 10887 t
477 -373 m  477 -350 473 -328 465 -308 ct 457 -288 446 -271 431 -256 ct 415 -241 396 -229 373 -221 ct 
350 -212 323 -208 293 -208 ct 136 -208 l  136 0 l  64 0 l  64 -534 l  288 -534 l 
320 -534 347 -530 371 -522 ct 394 -515 414 -504 430 -490 ct 445 -476 457 -459 465 -439 ct 
473 -419 477 -397 477 -373 ct p
404 -373 m  404 -406 394 -432 373 -450 ct 352 -467 321 -476 280 -476 ct 136 -476 l 
136 -265 l  283 -265 l  324 -265 355 -275 375 -293 ct 394 -311 404 -338 404 -373 ct 
p ef
660 8 m  619 8 588 -3 567 -25 ct 546 -47 536 -77 536 -115 ct 536 -142 541 -164 551 -182 ct 
562 -199 575 -213 591 -223 ct 608 -232 627 -239 648 -243 ct 669 -247 691 -249 713 -249 ct 
805 -249 l  805 -271 l  805 -289 803 -303 800 -315 ct 796 -327 791 -337 783 -344 ct 
776 -352 767 -357 756 -361 ct 745 -364 732 -366 717 -366 ct 704 -366 692 -365 681 -363 ct 
671 -361 662 -358 654 -353 ct 646 -348 640 -341 635 -333 ct 630 -324 627 -313 625 -301 ct 
554 -307 l  557 -323 561 -338 569 -352 ct 576 -365 586 -377 599 -387 ct 612 -397 628 -404 648 -410 ct 
667 -415 691 -418 719 -418 ct 770 -418 809 -406 835 -382 ct 861 -359 874 -325 874 -280 ct 
874 -103 l  874 -83 877 -68 882 -57 ct 887 -47 897 -42 912 -42 ct 916 -42 920 -42 924 -43 ct 
927 -43 931 -44 935 -45 ct 935 -2 l  926 0 917 1 909 2 ct 901 3 892 4 882 4 ct 
869 4 858 2 849 -1 ct 840 -5 832 -10 826 -17 ct 820 -24 816 -32 813 -42 ct 810 -53 808 -64 807 -78 ct 
805 -78 l  798 -65 790 -53 781 -42 ct 772 -32 762 -23 750 -15 ct 739 -8 726 -2 711 2 ct 
696 6 679 8 660 8 ct p
675 -43 m  697 -43 716 -47 732 -55 ct 749 -63 762 -73 773 -85 ct 784 -98 792 -111 797 -126 ct 
802 -140 805 -154 805 -168 ct 805 -201 l  730 -201 l  714 -201 698 -200 683 -198 ct 
668 -196 655 -191 643 -185 ct 632 -179 623 -170 616 -158 ct 609 -147 606 -132 606 -113 ct 
606 -91 612 -74 624 -62 ct 636 -49 653 -43 675 -43 ct p ef
980 0 m  980 -315 l  980 -323 980 -332 980 -341 ct 979 -350 979 -359 979 -367 ct 
979 -376 979 -383 978 -391 ct 978 -398 978 -405 978 -410 ct 1042 -410 l  1042 -405 1043 -398 1043 -390 ct 
1043 -383 1044 -375 1044 -368 ct 1044 -360 1045 -352 1045 -345 ct 1045 -338 1045 -332 1045 -327 ct 
1047 -327 l  1051 -342 1056 -356 1062 -367 ct 1067 -379 1074 -388 1081 -396 ct 
1088 -403 1097 -409 1107 -413 ct 1117 -416 1129 -418 1144 -418 ct 1149 -418 1155 -418 1160 -417 ct 
1165 -416 1169 -415 1172 -414 ct 1172 -352 l  1167 -353 1162 -354 1156 -354 ct 
1150 -355 1143 -355 1135 -355 ct 1120 -355 1106 -352 1095 -345 ct 1084 -338 1075 -328 1068 -315 ct 
1061 -303 1056 -288 1053 -271 ct 1050 -253 1048 -234 1048 -214 ct 1048 0 l  980 0 l 
p ef
1401 -3 m  1391 0 1380 2 1369 4 ct 1359 5 1346 6 1332 6 ct 1277 6 1250 -25 1250 -87 ct 
1250 -361 l  1203 -361 l  1203 -411 l  1253 -411 l  1273 -503 l  1318 -503 l 
1318 -411 l  1394 -411 l  1394 -361 l  1318 -361 l  1318 -102 l  1318 -82 1322 -68 1328 -60 ct 
1334 -52 1346 -48 1362 -48 ct 1368 -48 1374 -49 1381 -50 ct 1387 -51 1394 -52 1401 -54 ct 
1401 -3 l  p ef
1454 -498 m  1454 -563 l  1522 -563 l  1522 -498 l  1454 -498 l  p
1454 0 m  1454 -410 l  1522 -410 l  1522 0 l  1454 0 l  p ef
1665 -207 m  1665 -183 1667 -162 1670 -142 ct 1674 -122 1679 -105 1688 -91 ct 
1696 -77 1706 -65 1720 -58 ct 1733 -50 1749 -46 1769 -46 ct 1793 -46 1813 -52 1829 -65 ct 
1846 -78 1856 -97 1860 -124 ct 1929 -124 l  1926 -107 1921 -90 1914 -74 ct 1906 -58 1896 -44 1883 -32 ct 
1870 -20 1854 -10 1835 -3 ct 1817 4 1795 8 1771 8 ct 1738 8 1711 3 1689 -8 ct 1666 -19 1648 -34 1634 -53 ct 
1620 -72 1610 -95 1603 -121 ct 1597 -147 1594 -175 1594 -205 ct 1594 -233 1596 -257 1601 -278 ct 
1605 -299 1612 -318 1620 -333 ct 1628 -349 1638 -363 1649 -373 ct 1660 -384 1672 -393 1685 -399 ct 
1698 -406 1712 -410 1726 -413 ct 1741 -416 1755 -417 1770 -417 ct 1793 -417 1813 -414 1831 -408 ct 
1849 -402 1865 -393 1878 -382 ct 1891 -371 1901 -358 1909 -343 ct 1917 -328 1923 -312 1926 -295 ct 
1856 -290 l  1853 -312 1844 -331 1829 -344 ct 1815 -357 1794 -364 1768 -364 ct 
1748 -364 1732 -361 1719 -354 ct 1706 -348 1696 -338 1688 -325 ct 1679 -312 1674 -296 1670 -276 ct 
1667 -256 1665 -233 1665 -207 ct p ef
2010 -498 m  2010 -563 l  2078 -563 l  2078 -498 l  2010 -498 l  p
2010 0 m  2010 -410 l  2078 -410 l  2078 0 l  2010 0 l  p ef
2516 -207 m  2516 -176 2513 -147 2508 -121 ct 2503 -95 2495 -72 2483 -53 ct 
2471 -34 2456 -19 2437 -9 ct 2417 2 2393 7 2365 7 ct 2336 7 2310 2 2288 -9 ct 2266 -20 2249 -39 2238 -64 ct 
2236 -64 l  2236 -63 2236 -61 2237 -57 ct 2237 -53 2237 -48 2237 -42 ct 2237 -36 2237 -29 2237 -22 ct 
2237 -14 2238 -7 2238 1 ct 2238 161 l  2169 161 l  2169 -328 l  2169 -338 2169 -347 2169 -357 ct 
2169 -366 2169 -374 2169 -381 ct 2168 -389 2168 -395 2168 -401 ct 2168 -406 2167 -409 2167 -409 ct 
2233 -409 l  2233 -408 2234 -405 2234 -401 ct 2234 -396 2235 -391 2235 -385 ct 
2235 -379 2236 -372 2236 -365 ct 2237 -358 2237 -351 2237 -345 ct 2238 -345 l 
2245 -358 2252 -369 2260 -378 ct 2268 -387 2277 -395 2288 -401 ct 2298 -407 2309 -411 2322 -414 ct 
2335 -416 2349 -418 2365 -418 ct 2393 -418 2417 -413 2437 -403 ct 2456 -392 2471 -378 2483 -360 ct 
2495 -342 2503 -319 2508 -294 ct 2513 -268 2516 -239 2516 -207 ct p
2444 -206 m  2444 -231 2443 -254 2440 -273 ct 2437 -293 2432 -310 2424 -323 ct 
2417 -337 2407 -347 2394 -354 ct 2382 -361 2366 -365 2348 -365 ct 2333 -365 2318 -363 2305 -359 ct 
2292 -354 2280 -346 2270 -334 ct 2260 -322 2252 -305 2246 -284 ct 2240 -262 2238 -235 2238 -200 ct 
2238 -171 2240 -147 2245 -127 ct 2249 -107 2257 -90 2266 -78 ct 2275 -66 2286 -57 2300 -51 ct 
2314 -46 2329 -43 2347 -43 ct 2366 -43 2382 -47 2394 -54 ct 2407 -61 2417 -72 2424 -86 ct 
2432 -100 2437 -117 2440 -137 ct 2443 -157 2444 -180 2444 -206 ct p ef
2697 8 m  2656 8 2625 -3 2604 -25 ct 2583 -47 2573 -77 2573 -115 ct 2573 -142 2578 -164 2588 -182 ct 
2599 -199 2612 -213 2628 -223 ct 2645 -232 2664 -239 2685 -243 ct 2706 -247 2728 -249 2750 -249 ct 
2842 -249 l  2842 -271 l  2842 -289 2840 -303 2837 -315 ct 2833 -327 2828 -337 2820 -344 ct 
2813 -352 2804 -357 2793 -361 ct 2782 -364 2769 -366 2754 -366 ct 2741 -366 2729 -365 2718 -363 ct 
2708 -361 2699 -358 2691 -353 ct 2683 -348 2677 -341 2672 -333 ct 2667 -324 2664 -313 2662 -301 ct 
2591 -307 l  2594 -323 2598 -338 2606 -352 ct 2613 -365 2623 -377 2636 -387 ct 
2649 -397 2665 -404 2685 -410 ct 2704 -415 2728 -418 2756 -418 ct 2807 -418 2846 -406 2872 -382 ct 
2898 -359 2911 -325 2911 -280 ct 2911 -103 l  2911 -83 2914 -68 2919 -57 ct 
2924 -47 2934 -42 2949 -42 ct 2953 -42 2957 -42 2961 -43 ct 2964 -43 2968 -44 2972 -45 ct 
2972 -2 l  2963 0 2954 1 2946 2 ct 2938 3 2929 4 2919 4 ct 2906 4 2895 2 2886 -1 ct 
2877 -5 2869 -10 2863 -17 ct 2857 -24 2853 -32 2850 -42 ct 2847 -53 2845 -64 2844 -78 ct 
2842 -78 l  2835 -65 2827 -53 2818 -42 ct 2809 -32 2799 -23 2787 -15 ct 2776 -8 2763 -2 2748 2 ct 
2733 6 2716 8 2697 8 ct p
2712 -43 m  2734 -43 2753 -47 2769 -55 ct 2786 -63 2799 -73 2810 -85 ct 2821 -98 2829 -111 2834 -126 ct 
2839 -140 2842 -154 2842 -168 ct 2842 -201 l  2767 -201 l  2751 -201 2735 -200 2720 -198 ct 
2705 -196 2692 -191 2680 -185 ct 2669 -179 2660 -170 2653 -158 ct 2646 -147 2643 -132 2643 -113 ct 
2643 -91 2649 -74 2661 -62 ct 2673 -49 2690 -43 2712 -43 ct p ef
3173 -3 m  3163 0 3152 2 3141 4 ct 3131 5 3118 6 3104 6 ct 3049 6 3022 -25 3022 -87 ct 
3022 -361 l  2975 -361 l  2975 -411 l  3025 -411 l  3045 -503 l  3090 -503 l 
3090 -411 l  3166 -411 l  3166 -361 l  3090 -361 l  3090 -102 l  3090 -82 3094 -68 3100 -60 ct 
3106 -52 3118 -48 3134 -48 ct 3140 -48 3146 -49 3153 -50 ct 3159 -51 3166 -52 3173 -54 ct 
3173 -3 l  p ef
3227 -498 m  3227 -563 l  3295 -563 l  3295 -498 l  3227 -498 l  p
3227 0 m  3227 -410 l  3295 -410 l  3295 0 l  3227 0 l  p ef
3733 -205 m  3733 -133 3717 -80 3686 -45 ct 3654 -10 3608 8 3548 8 ct 3520 8 3494 4 3472 -5 ct 
3449 -13 3430 -27 3415 -44 ct 3399 -62 3387 -84 3379 -111 ct 3371 -138 3367 -169 3367 -205 ct 
3367 -347 3428 -417 3550 -417 ct 3582 -417 3610 -413 3633 -404 ct 3656 -395 3675 -382 3690 -364 ct 
3704 -347 3715 -325 3722 -298 ct 3729 -271 3733 -240 3733 -205 ct p
3661 -205 m  3661 -237 3659 -263 3654 -284 ct 3649 -305 3642 -321 3632 -334 ct 
3623 -346 3611 -355 3598 -360 ct 3584 -365 3569 -367 3552 -367 ct 3534 -367 3518 -364 3504 -359 ct 
3490 -354 3478 -345 3469 -333 ct 3459 -320 3451 -304 3446 -283 ct 3441 -262 3438 -236 3438 -205 ct 
3438 -173 3441 -147 3447 -126 ct 3452 -105 3460 -89 3469 -76 ct 3479 -64 3491 -55 3504 -50 ct 
3517 -45 3532 -42 3547 -42 ct 3565 -42 3581 -45 3595 -50 ct 3609 -55 3621 -63 3631 -76 ct 
3641 -88 3648 -105 3653 -126 ct 3659 -147 3661 -173 3661 -205 ct p ef
4070 0 m  4070 -260 l  4070 -280 4068 -297 4065 -310 ct 4062 -324 4058 -335 4051 -343 ct 
4044 -351 4036 -357 4025 -360 ct 4014 -364 4001 -365 3985 -365 ct 3969 -365 3954 -362 3941 -357 ct 
3928 -351 3917 -343 3908 -332 ct 3899 -321 3892 -308 3887 -292 ct 3882 -276 3879 -258 3879 -238 ct 
3879 0 l  3811 0 l  3811 -324 l  3811 -332 3811 -341 3811 -351 ct 3810 -360 3810 -369 3810 -378 ct 
3810 -386 3810 -394 3809 -400 ct 3809 -406 3809 -409 3809 -409 ct 3873 -409 l 
3873 -408 3873 -404 3874 -399 ct 3874 -393 3874 -387 3875 -380 ct 3875 -373 3875 -366 3876 -359 ct 
3876 -351 3876 -345 3876 -340 ct 3877 -340 l  3884 -352 3891 -363 3899 -372 ct 
3907 -382 3916 -390 3926 -397 ct 3936 -404 3948 -409 3962 -413 ct 3975 -416 3991 -418 4008 -418 ct 
4031 -418 4051 -415 4067 -410 ct 4083 -404 4097 -396 4107 -384 ct 4118 -372 4126 -357 4131 -339 ct 
4136 -321 4138 -299 4138 -274 ct 4138 0 l  4070 0 l  p ef
4464 0 m  4464 -535 l  4536 -535 l  4536 0 l  4464 0 l  p ef
4917 0 m  4917 -260 l  4917 -280 4915 -297 4912 -310 ct 4909 -324 4905 -335 4898 -343 ct 
4891 -351 4883 -357 4872 -360 ct 4861 -364 4848 -365 4832 -365 ct 4816 -365 4801 -362 4788 -357 ct 
4775 -351 4764 -343 4755 -332 ct 4746 -321 4739 -308 4734 -292 ct 4729 -276 4726 -258 4726 -238 ct 
4726 0 l  4658 0 l  4658 -324 l  4658 -332 4658 -341 4658 -351 ct 4657 -360 4657 -369 4657 -378 ct 
4657 -386 4657 -394 4656 -400 ct 4656 -406 4656 -409 4656 -409 ct 4720 -409 l 
4720 -408 4720 -404 4721 -399 ct 4721 -393 4721 -387 4722 -380 ct 4722 -373 4722 -366 4723 -359 ct 
4723 -351 4723 -345 4723 -340 ct 4724 -340 l  4731 -352 4738 -363 4746 -372 ct 
4754 -382 4763 -390 4773 -397 ct 4783 -404 4795 -409 4809 -413 ct 4822 -416 4838 -418 4855 -418 ct 
4878 -418 4898 -415 4914 -410 ct 4930 -404 4944 -396 4954 -384 ct 4965 -372 4973 -357 4978 -339 ct 
4983 -321 4985 -299 4985 -274 ct 4985 0 l  4917 0 l  p ef
5338 -66 m  5325 -40 5309 -21 5288 -9 ct 5267 2 5241 8 5210 8 ct 5159 8 5121 -10 5096 -45 ct 
5072 -80 5060 -132 5060 -203 ct 5060 -346 5110 -418 5210 -418 ct 5241 -418 5267 -412 5288 -401 ct 
5309 -390 5325 -371 5338 -347 ct 5339 -347 l  5339 -349 5339 -353 5339 -359 ct 
5339 -364 5338 -370 5338 -376 ct 5338 -382 5338 -387 5338 -393 ct 5338 -398 5338 -402 5338 -404 ct 
5338 -563 l  5406 -563 l  5406 -83 l  5406 -73 5406 -63 5406 -54 ct 5407 -45 5407 -37 5407 -29 ct 
5407 -22 5408 -15 5408 -10 ct 5408 -4 5408 -1 5409 -1 ct 5343 -1 l  5343 -4 5342 -7 5342 -12 ct 
5342 -17 5341 -22 5341 -28 ct 5341 -34 5340 -40 5340 -46 ct 5340 -53 5340 -59 5340 -66 ct 
5338 -66 l  p
5131 -206 m  5131 -177 5133 -153 5137 -133 ct 5140 -112 5146 -96 5154 -83 ct 
5161 -70 5171 -60 5183 -54 ct 5196 -48 5210 -45 5228 -45 ct 5246 -45 5262 -48 5275 -54 ct 
5289 -60 5301 -69 5310 -82 ct 5319 -95 5326 -112 5331 -133 ct 5336 -154 5338 -180 5338 -210 ct 
5338 -239 5336 -264 5331 -284 ct 5326 -304 5319 -320 5310 -333 ct 5300 -345 5289 -354 5275 -359 ct 
5262 -365 5246 -368 5229 -368 ct 5212 -368 5198 -365 5185 -359 ct 5173 -353 5163 -344 5155 -331 ct 
5147 -318 5141 -301 5137 -280 ct 5133 -260 5131 -235 5131 -206 ct p ef
5555 -191 m  5555 -169 5557 -149 5561 -131 ct 5566 -113 5572 -97 5582 -84 ct 
5591 -71 5603 -61 5617 -54 ct 5632 -47 5649 -43 5669 -43 ct 5699 -43 5722 -49 5740 -61 ct 
5758 -73 5770 -88 5776 -106 ct 5836 -89 l  5832 -78 5826 -66 5818 -55 ct 5810 -43 5800 -33 5787 -24 ct 
5774 -14 5758 -7 5739 -1 ct 5720 5 5696 8 5669 8 ct 5608 8 5562 -10 5531 -46 ct 
5499 -82 5483 -136 5483 -207 ct 5483 -246 5488 -278 5497 -305 ct 5507 -332 5520 -353 5537 -370 ct 
5553 -387 5573 -399 5595 -406 ct 5617 -414 5641 -417 5666 -417 ct 5701 -417 5729 -412 5753 -401 ct 
5776 -390 5794 -374 5808 -355 ct 5822 -335 5832 -312 5838 -286 ct 5844 -259 5847 -231 5847 -200 ct 
5847 -191 l  5555 -191 l  p
5777 -243 m  5773 -286 5762 -318 5744 -337 ct 5725 -357 5699 -367 5665 -367 ct 
5654 -367 5642 -365 5629 -362 ct 5617 -358 5605 -351 5595 -342 ct 5584 -333 5575 -320 5568 -304 ct 
5561 -288 5556 -268 5555 -243 ct 5777 -243 l  p ef
6178 0 m  6067 -168 l  5956 0 l  5883 0 l  6029 -211 l  5890 -410 l  5965 -410 l 
6067 -251 l  6169 -410 l  6245 -410 l  6106 -212 l  6254 0 l  6178 0 l 
p ef
6729 -475 m  6729 1 l  6657 1 l  6657 -475 l  6473 -475 l  6473 -534 l 
6912 -534 l  6912 -475 l  6729 -475 l  p ef
7052 -340 m  7060 -354 7068 -366 7077 -376 ct 7086 -385 7095 -393 7106 -400 ct 
7117 -406 7128 -411 7141 -414 ct 7153 -417 7168 -418 7183 -418 ct 7209 -418 7231 -414 7248 -407 ct 
7265 -400 7278 -390 7288 -378 ct 7297 -365 7304 -350 7308 -332 ct 7311 -314 7313 -295 7313 -274 ct 
7313 0 l  7245 0 l  7245 -260 l  7245 -278 7244 -293 7241 -306 ct 7239 -319 7235 -330 7229 -339 ct 
7223 -348 7214 -354 7203 -359 ct 7192 -363 7178 -365 7160 -365 ct 7144 -365 7129 -362 7116 -357 ct 
7103 -351 7092 -343 7083 -332 ct 7074 -321 7067 -308 7062 -293 ct 7057 -278 7054 -261 7054 -242 ct 
7054 0 l  6986 0 l  6986 -563 l  7054 -563 l  7054 -416 l  7054 -408 7054 -400 7054 -391 ct 
7053 -383 7053 -375 7053 -368 ct 7052 -361 7052 -355 7052 -350 ct 7051 -345 7051 -342 7051 -340 ct 
7052 -340 l  p ef
7409 0 m  7409 -315 l  7409 -323 7409 -332 7409 -341 ct 7408 -350 7408 -359 7408 -367 ct 
7408 -376 7408 -383 7407 -391 ct 7407 -398 7407 -405 7407 -410 ct 7471 -410 l 
7471 -405 7472 -398 7472 -390 ct 7472 -383 7473 -375 7473 -368 ct 7473 -360 7474 -352 7474 -345 ct 
7474 -338 7474 -332 7474 -327 ct 7476 -327 l  7480 -342 7485 -356 7491 -367 ct 
7496 -379 7503 -388 7510 -396 ct 7517 -403 7526 -409 7536 -413 ct 7546 -416 7558 -418 7573 -418 ct 
7578 -418 7584 -418 7589 -417 ct 7594 -416 7598 -415 7601 -414 ct 7601 -352 l 
7596 -353 7591 -354 7585 -354 ct 7579 -355 7572 -355 7564 -355 ct 7549 -355 7535 -352 7524 -345 ct 
7513 -338 7504 -328 7497 -315 ct 7490 -303 7485 -288 7482 -271 ct 7479 -253 7477 -234 7477 -214 ct 
7477 0 l  7409 0 l  p ef
7725 -191 m  7725 -169 7727 -149 7731 -131 ct 7736 -113 7742 -97 7752 -84 ct 
7761 -71 7773 -61 7787 -54 ct 7802 -47 7819 -43 7839 -43 ct 7869 -43 7892 -49 7910 -61 ct 
7928 -73 7940 -88 7946 -106 ct 8006 -89 l  8002 -78 7996 -66 7988 -55 ct 7980 -43 7970 -33 7957 -24 ct 
7944 -14 7928 -7 7909 -1 ct 7890 5 7866 8 7839 8 ct 7778 8 7732 -10 7701 -46 ct 
7669 -82 7653 -136 7653 -207 ct 7653 -246 7658 -278 7667 -305 ct 7677 -332 7690 -353 7707 -370 ct 
7723 -387 7743 -399 7765 -406 ct 7787 -414 7811 -417 7836 -417 ct 7871 -417 7899 -412 7923 -401 ct 
7946 -390 7964 -374 7978 -355 ct 7992 -335 8002 -312 8008 -286 ct 8014 -259 8017 -231 8017 -200 ct 
8017 -191 l  7725 -191 l  p
7947 -243 m  7943 -286 7932 -318 7914 -337 ct 7895 -357 7869 -367 7835 -367 ct 
7824 -367 7812 -365 7799 -362 ct 7787 -358 7775 -351 7765 -342 ct 7754 -333 7745 -320 7738 -304 ct 
7731 -288 7726 -268 7725 -243 ct 7947 -243 l  p ef
8402 -113 m  8402 -94 8398 -77 8391 -62 ct 8383 -47 8373 -34 8358 -24 ct 8344 -13 8327 -6 8306 0 ct 
8286 5 8262 8 8236 8 ct 8212 8 8190 6 8171 3 ct 8152 -1 8136 -7 8121 -15 ct 8107 -23 8095 -34 8085 -47 ct 
8075 -60 8068 -77 8064 -96 ct 8124 -108 l  8130 -86 8142 -70 8160 -59 ct 8178 -49 8203 -44 8236 -44 ct 
8250 -44 8264 -45 8276 -47 ct 8288 -49 8299 -53 8308 -57 ct 8316 -62 8323 -69 8328 -77 ct 
8333 -85 8336 -96 8336 -108 ct 8336 -120 8333 -130 8327 -138 ct 8321 -146 8313 -153 8303 -158 ct 
8292 -164 8280 -168 8265 -172 ct 8250 -176 8234 -180 8216 -185 ct 8200 -189 8184 -194 8167 -200 ct 
8151 -205 8137 -212 8124 -221 ct 8111 -229 8100 -240 8092 -253 ct 8084 -266 8080 -282 8080 -302 ct 
8080 -339 8093 -368 8120 -387 ct 8147 -407 8185 -417 8236 -417 ct 8282 -417 8318 -409 8344 -393 ct 
8371 -377 8388 -351 8395 -316 ct 8333 -308 l  8331 -319 8327 -328 8321 -335 ct 
8315 -342 8307 -348 8299 -353 ct 8290 -357 8281 -360 8270 -362 ct 8259 -364 8248 -365 8236 -365 ct 
8206 -365 8183 -360 8168 -351 ct 8154 -342 8146 -327 8146 -308 ct 8146 -297 8149 -288 8154 -281 ct 
8160 -274 8167 -268 8177 -263 ct 8187 -258 8198 -254 8212 -250 ct 8226 -246 8241 -242 8257 -238 ct 
8268 -235 8279 -233 8291 -229 ct 8302 -226 8313 -222 8324 -218 ct 8334 -214 8345 -208 8354 -202 ct 
8364 -196 8372 -189 8379 -181 ct 8386 -173 8392 -163 8396 -152 ct 8400 -141 8402 -128 8402 -113 ct 
p ef
8559 -340 m  8567 -354 8575 -366 8584 -376 ct 8593 -385 8602 -393 8613 -400 ct 
8624 -406 8635 -411 8648 -414 ct 8660 -417 8675 -418 8690 -418 ct 8716 -418 8738 -414 8755 -407 ct 
8772 -400 8785 -390 8795 -378 ct 8804 -365 8811 -350 8815 -332 ct 8818 -314 8820 -295 8820 -274 ct 
8820 0 l  8752 0 l  8752 -260 l  8752 -278 8751 -293 8748 -306 ct 8746 -319 8742 -330 8736 -339 ct 
8730 -348 8721 -354 8710 -359 ct 8699 -363 8685 -365 8667 -365 ct 8651 -365 8636 -362 8623 -357 ct 
8610 -351 8599 -343 8590 -332 ct 8581 -321 8574 -308 8569 -293 ct 8564 -278 8561 -261 8561 -242 ct 
8561 0 l  8493 0 l  8493 -563 l  8561 -563 l  8561 -416 l  8561 -408 8561 -400 8561 -391 ct 
8560 -383 8560 -375 8560 -368 ct 8559 -361 8559 -355 8559 -350 ct 8558 -345 8558 -342 8558 -340 ct 
8559 -340 l  p ef
9262 -205 m  9262 -133 9246 -80 9215 -45 ct 9183 -10 9137 8 9077 8 ct 9049 8 9023 4 9001 -5 ct 
8978 -13 8959 -27 8944 -44 ct 8928 -62 8916 -84 8908 -111 ct 8900 -138 8896 -169 8896 -205 ct 
8896 -347 8957 -417 9079 -417 ct 9111 -417 9139 -413 9162 -404 ct 9185 -395 9204 -382 9219 -364 ct 
9233 -347 9244 -325 9251 -298 ct 9258 -271 9262 -240 9262 -205 ct p
9190 -205 m  9190 -237 9188 -263 9183 -284 ct 9178 -305 9171 -321 9161 -334 ct 
9152 -346 9140 -355 9127 -360 ct 9113 -365 9098 -367 9081 -367 ct 9063 -367 9047 -364 9033 -359 ct 
9019 -354 9007 -345 8998 -333 ct 8988 -320 8980 -304 8975 -283 ct 8970 -262 8967 -236 8967 -205 ct 
8967 -173 8970 -147 8976 -126 ct 8981 -105 8989 -89 8998 -76 ct 9008 -64 9020 -55 9033 -50 ct 
9046 -45 9061 -42 9076 -42 ct 9094 -42 9110 -45 9124 -50 ct 9138 -55 9150 -63 9160 -76 ct 
9170 -88 9177 -105 9182 -126 ct 9188 -147 9190 -173 9190 -205 ct p ef
9338 0 m  9338 -563 l  9407 -563 l  9407 0 l  9338 0 l  p ef
9756 -66 m  9743 -40 9727 -21 9706 -9 ct 9685 2 9659 8 9628 8 ct 9577 8 9539 -10 9514 -45 ct 
9490 -80 9478 -132 9478 -203 ct 9478 -346 9528 -418 9628 -418 ct 9659 -418 9685 -412 9706 -401 ct 
9727 -390 9743 -371 9756 -347 ct 9757 -347 l  9757 -349 9757 -353 9757 -359 ct 
9757 -364 9756 -370 9756 -376 ct 9756 -382 9756 -387 9756 -393 ct 9756 -398 9756 -402 9756 -404 ct 
9756 -563 l  9824 -563 l  9824 -83 l  9824 -73 9824 -63 9824 -54 ct 9825 -45 9825 -37 9825 -29 ct 
9825 -22 9826 -15 9826 -10 ct 9826 -4 9826 -1 9827 -1 ct 9761 -1 l  9761 -4 9760 -7 9760 -12 ct 
9760 -17 9759 -22 9759 -28 ct 9759 -34 9758 -40 9758 -46 ct 9758 -53 9758 -59 9758 -66 ct 
9756 -66 l  p
9549 -206 m  9549 -177 9551 -153 9555 -133 ct 9558 -112 9564 -96 9572 -83 ct 
9579 -70 9589 -60 9601 -54 ct 9614 -48 9628 -45 9646 -45 ct 9664 -45 9680 -48 9693 -54 ct 
9707 -60 9719 -69 9728 -82 ct 9737 -95 9744 -112 9749 -133 ct 9754 -154 9756 -180 9756 -210 ct 
9756 -239 9754 -264 9749 -284 ct 9744 -304 9737 -320 9728 -333 ct 9718 -345 9707 -354 9693 -359 ct 
9680 -365 9664 -368 9647 -368 ct 9630 -368 9616 -365 9603 -359 ct 9591 -353 9581 -344 9573 -331 ct 
9565 -318 9559 -301 9555 -280 ct 9551 -260 9549 -235 9549 -206 ct p ef
pom
pum
1506 8620 t
89.9 r 441 0 m  302 -222 l  136 -222 l  136 0 l  64 0 l  64 -535 l  315 -535 l 
345 -535 372 -532 395 -525 ct 419 -518 438 -508 454 -494 ct 470 -481 482 -465 491 -446 ct 
499 -427 503 -406 503 -382 ct 503 -365 501 -348 496 -332 ct 491 -315 483 -300 472 -287 ct 
462 -273 448 -261 432 -251 ct 416 -241 396 -234 373 -230 ct 524 0 l  441 0 l 
p
430 -381 m  430 -397 428 -411 422 -423 ct 417 -435 408 -445 398 -453 ct 387 -461 374 -467 359 -471 ct 
344 -475 327 -477 308 -477 ct 136 -477 l  136 -279 l  311 -279 l  331 -279 349 -282 365 -287 ct 
380 -292 392 -299 402 -309 ct 412 -318 419 -328 423 -341 ct 428 -353 430 -367 430 -381 ct 
p ef
675 -410 m  675 -150 l  675 -130 676 -113 679 -100 ct 682 -86 687 -76 694 -67 ct 
700 -59 709 -53 720 -50 ct 730 -46 744 -45 759 -45 ct 776 -45 790 -48 803 -53 ct 
816 -59 827 -67 837 -78 ct 846 -89 853 -102 858 -118 ct 863 -134 866 -152 866 -172 ct 
866 -410 l  934 -410 l  934 -86 l  934 -77 934 -68 934 -59 ct 934 -49 934 -40 935 -32 ct 
935 -23 935 -16 935 -10 ct 936 -4 936 -1 936 -1 ct 872 -1 l  871 -2 871 -5 871 -11 ct 
871 -16 870 -23 870 -30 ct 870 -37 869 -44 869 -51 ct 869 -59 869 -65 869 -70 ct 
867 -70 l  861 -58 854 -47 846 -38 ct 838 -28 829 -20 819 -13 ct 808 -6 796 -1 783 3 ct 
770 6 754 8 736 8 ct 714 8 694 5 678 0 ct 661 -6 648 -15 637 -26 ct 626 -38 619 -53 614 -71 ct 
609 -89 606 -111 606 -137 ct 606 -410 l  675 -410 l  p ef
1292 0 m  1292 -260 l  1292 -280 1290 -297 1287 -310 ct 1284 -324 1280 -335 1273 -343 ct 
1266 -351 1258 -357 1247 -360 ct 1236 -364 1223 -365 1207 -365 ct 1191 -365 1176 -362 1163 -357 ct 
1150 -351 1139 -343 1130 -332 ct 1121 -321 1114 -308 1109 -292 ct 1104 -276 1101 -258 1101 -238 ct 
1101 0 l  1033 0 l  1033 -324 l  1033 -332 1033 -341 1033 -351 ct 1032 -360 1032 -369 1032 -378 ct 
1032 -386 1032 -394 1031 -400 ct 1031 -406 1031 -409 1031 -409 ct 1095 -409 l 
1095 -408 1095 -404 1096 -399 ct 1096 -393 1096 -387 1097 -380 ct 1097 -373 1097 -366 1098 -359 ct 
1098 -351 1098 -345 1098 -340 ct 1099 -340 l  1106 -352 1113 -363 1121 -372 ct 
1129 -382 1138 -390 1148 -397 ct 1158 -404 1170 -409 1184 -413 ct 1197 -416 1213 -418 1230 -418 ct 
1253 -418 1273 -415 1289 -410 ct 1305 -404 1319 -396 1329 -384 ct 1340 -372 1348 -357 1353 -339 ct 
1358 -321 1360 -299 1360 -274 ct 1360 0 l  1292 0 l  p ef
1612 -3 m  1602 0 1591 2 1580 4 ct 1570 5 1557 6 1543 6 ct 1488 6 1461 -25 1461 -87 ct 
1461 -361 l  1414 -361 l  1414 -411 l  1464 -411 l  1484 -503 l  1529 -503 l 
1529 -411 l  1605 -411 l  1605 -361 l  1529 -361 l  1529 -102 l  1529 -82 1533 -68 1539 -60 ct 
1545 -52 1557 -48 1573 -48 ct 1579 -48 1585 -49 1592 -50 ct 1598 -51 1605 -52 1612 -54 ct 
1612 -3 l  p ef
1666 -498 m  1666 -563 l  1734 -563 l  1734 -498 l  1666 -498 l  p
1666 0 m  1666 -410 l  1734 -410 l  1734 0 l  1666 0 l  p ef
2064 0 m  2064 -260 l  2064 -280 2063 -297 2060 -310 ct 2058 -324 2053 -335 2048 -343 ct 
2042 -351 2034 -357 2024 -360 ct 2015 -364 2003 -365 1989 -365 ct 1975 -365 1962 -362 1950 -357 ct 
1938 -351 1928 -343 1920 -332 ct 1912 -321 1906 -308 1901 -292 ct 1897 -276 1895 -258 1895 -238 ct 
1895 0 l  1827 0 l  1827 -324 l  1827 -332 1827 -341 1827 -351 ct 1826 -360 1826 -369 1826 -378 ct 
1826 -386 1826 -394 1825 -400 ct 1825 -406 1825 -409 1825 -409 ct 1889 -409 l 
1889 -408 1889 -404 1890 -399 ct 1890 -393 1890 -387 1891 -380 ct 1891 -373 1891 -366 1892 -359 ct 
1892 -351 1892 -345 1892 -340 ct 1893 -340 l  1899 -352 1906 -363 1913 -372 ct 
1920 -382 1928 -390 1938 -397 ct 1947 -404 1958 -409 1970 -413 ct 1982 -416 1997 -418 2013 -418 ct 
2044 -418 2068 -412 2087 -399 ct 2105 -387 2117 -367 2124 -340 ct 2125 -340 l 
2131 -352 2138 -363 2146 -372 ct 2153 -382 2162 -390 2172 -397 ct 2182 -404 2194 -409 2206 -413 ct 
2219 -416 2234 -418 2250 -418 ct 2270 -418 2288 -415 2303 -410 ct 2318 -404 2331 -396 2340 -384 ct 
2350 -372 2357 -357 2361 -339 ct 2366 -321 2368 -299 2368 -274 ct 2368 0 l  2301 0 l 
2301 -260 l  2301 -280 2300 -297 2297 -310 ct 2295 -324 2290 -335 2284 -343 ct 
2278 -351 2271 -357 2261 -360 ct 2251 -364 2240 -365 2226 -365 ct 2211 -365 2198 -363 2187 -357 ct 
2175 -352 2165 -344 2157 -333 ct 2149 -322 2143 -309 2138 -293 ct 2134 -277 2131 -259 2131 -238 ct 
2131 0 l  2064 0 l  p ef
2513 -191 m  2513 -169 2515 -149 2519 -131 ct 2524 -113 2530 -97 2540 -84 ct 
2549 -71 2561 -61 2575 -54 ct 2590 -47 2607 -43 2627 -43 ct 2657 -43 2680 -49 2698 -61 ct 
2716 -73 2728 -88 2734 -106 ct 2794 -89 l  2790 -78 2784 -66 2776 -55 ct 2768 -43 2758 -33 2745 -24 ct 
2732 -14 2716 -7 2697 -1 ct 2678 5 2654 8 2627 8 ct 2566 8 2520 -10 2489 -46 ct 
2457 -82 2441 -136 2441 -207 ct 2441 -246 2446 -278 2455 -305 ct 2465 -332 2478 -353 2495 -370 ct 
2511 -387 2531 -399 2553 -406 ct 2575 -414 2599 -417 2624 -417 ct 2659 -417 2687 -412 2711 -401 ct 
2734 -390 2752 -374 2766 -355 ct 2780 -335 2790 -312 2796 -286 ct 2802 -259 2805 -231 2805 -200 ct 
2805 -191 l  2513 -191 l  p
2735 -243 m  2731 -286 2720 -318 2702 -337 ct 2683 -357 2657 -367 2623 -367 ct 
2612 -367 2600 -365 2587 -362 ct 2575 -358 2563 -351 2553 -342 ct 2542 -333 2533 -320 2526 -304 ct 
2519 -288 2514 -268 2513 -243 ct 2735 -243 l  p ef
pom
pum
2353 9255 t
89.9 r 48 -202 m  48 -237 51 -271 56 -303 ct 61 -335 70 -366 81 -395 ct 92 -425 107 -454 125 -481 ct 
142 -509 163 -536 188 -563 ct 254 -563 l  230 -536 210 -509 192 -481 ct 175 -453 161 -424 150 -395 ct 
139 -365 130 -334 125 -302 ct 119 -270 117 -236 117 -201 ct 117 -166 119 -132 125 -100 ct 
130 -68 139 -37 150 -7 ct 161 23 175 52 192 79 ct 210 107 230 134 254 161 ct 188 161 l 
163 134 142 107 125 79 ct 107 52 92 23 81 -7 ct 70 -36 61 -67 56 -99 ct 51 -131 48 -165 48 -200 ct 
48 -202 l  p ef
317 -498 m  317 -563 l  385 -563 l  385 -498 l  317 -498 l  p
317 0 m  317 -410 l  385 -410 l  385 0 l  317 0 l  p ef
736 0 m  736 -260 l  736 -280 734 -297 731 -310 ct 728 -324 724 -335 717 -343 ct 
710 -351 702 -357 691 -360 ct 680 -364 667 -365 651 -365 ct 635 -365 620 -362 607 -357 ct 
594 -351 583 -343 574 -332 ct 565 -321 558 -308 553 -292 ct 548 -276 545 -258 545 -238 ct 
545 0 l  477 0 l  477 -324 l  477 -332 477 -341 477 -351 ct 476 -360 476 -369 476 -378 ct 
476 -386 476 -394 475 -400 ct 475 -406 475 -409 475 -409 ct 539 -409 l  539 -408 539 -404 540 -399 ct 
540 -393 540 -387 541 -380 ct 541 -373 541 -366 542 -359 ct 542 -351 542 -345 542 -340 ct 
543 -340 l  550 -352 557 -363 565 -372 ct 573 -382 582 -390 592 -397 ct 602 -404 614 -409 628 -413 ct 
641 -416 657 -418 674 -418 ct 697 -418 717 -415 733 -410 ct 749 -404 763 -396 773 -384 ct 
784 -372 792 -357 797 -339 ct 802 -321 804 -299 804 -274 ct 804 0 l  736 0 l 
p ef
1540 -147 m  1540 -125 1536 -104 1527 -85 ct 1518 -66 1505 -50 1487 -36 ct 1468 -22 1445 -11 1418 -4 ct 
1390 4 1357 8 1319 8 ct 1253 8 1201 -4 1164 -27 ct 1127 -50 1103 -84 1093 -128 ct 
1163 -142 l  1167 -128 1172 -115 1180 -104 ct 1187 -93 1197 -83 1209 -75 ct 
1222 -66 1237 -60 1256 -55 ct 1274 -51 1296 -49 1322 -49 ct 1344 -49 1363 -50 1381 -54 ct 
1399 -58 1415 -63 1427 -71 ct 1440 -78 1450 -88 1458 -100 ct 1465 -112 1468 -127 1468 -143 ct 
1468 -161 1464 -175 1456 -186 ct 1448 -197 1437 -206 1423 -213 ct 1409 -220 1391 -226 1371 -231 ct 
1351 -235 1329 -241 1305 -246 ct 1290 -249 1275 -253 1260 -257 ct 1245 -261 1231 -266 1217 -271 ct 
1203 -276 1190 -283 1178 -290 ct 1166 -297 1156 -306 1147 -317 ct 1138 -327 1131 -339 1126 -352 ct 
1121 -366 1118 -381 1118 -399 ct 1118 -424 1123 -446 1134 -464 ct 1144 -482 1158 -497 1176 -509 ct 
1194 -520 1216 -529 1241 -534 ct 1265 -539 1292 -542 1321 -542 ct 1354 -542 1382 -539 1406 -534 ct 
1429 -529 1449 -521 1465 -511 ct 1482 -501 1494 -488 1504 -472 ct 1514 -457 1522 -439 1527 -419 ct 
1456 -407 l  1453 -419 1448 -431 1441 -441 ct 1434 -451 1425 -460 1415 -467 ct 
1404 -473 1391 -479 1375 -482 ct 1359 -486 1341 -487 1320 -487 ct 1295 -487 1275 -485 1258 -481 ct 
1241 -476 1228 -470 1217 -463 ct 1207 -455 1200 -446 1195 -436 ct 1191 -426 1189 -415 1189 -403 ct 
1189 -387 1193 -374 1201 -364 ct 1209 -353 1219 -345 1233 -338 ct 1247 -331 1262 -325 1280 -321 ct 
1298 -316 1317 -312 1338 -307 ct 1354 -303 1370 -300 1387 -296 ct 1403 -292 1419 -287 1434 -282 ct 
1448 -276 1462 -270 1475 -262 ct 1488 -255 1500 -246 1509 -236 ct 1519 -225 1526 -212 1532 -198 ct 
1537 -184 1540 -167 1540 -147 ct p ef
1666 -191 m  1666 -169 1668 -149 1672 -131 ct 1677 -113 1683 -97 1693 -84 ct 
1702 -71 1714 -61 1728 -54 ct 1743 -47 1760 -43 1780 -43 ct 1810 -43 1833 -49 1851 -61 ct 
1869 -73 1881 -88 1887 -106 ct 1947 -89 l  1943 -78 1937 -66 1929 -55 ct 1921 -43 1911 -33 1898 -24 ct 
1885 -14 1869 -7 1850 -1 ct 1831 5 1807 8 1780 8 ct 1719 8 1673 -10 1642 -46 ct 
1610 -82 1594 -136 1594 -207 ct 1594 -246 1599 -278 1608 -305 ct 1618 -332 1631 -353 1648 -370 ct 
1664 -387 1684 -399 1706 -406 ct 1728 -414 1752 -417 1777 -417 ct 1812 -417 1840 -412 1864 -401 ct 
1887 -390 1905 -374 1919 -355 ct 1933 -335 1943 -312 1949 -286 ct 1955 -259 1958 -231 1958 -200 ct 
1958 -191 l  1666 -191 l  p
1888 -243 m  1884 -286 1873 -318 1855 -337 ct 1836 -357 1810 -367 1776 -367 ct 
1765 -367 1753 -365 1740 -362 ct 1728 -358 1716 -351 1706 -342 ct 1695 -333 1686 -320 1679 -304 ct 
1672 -288 1667 -268 1666 -243 ct 1888 -243 l  p ef
2088 -207 m  2088 -183 2090 -162 2093 -142 ct 2097 -122 2102 -105 2111 -91 ct 
2119 -77 2129 -65 2143 -58 ct 2156 -50 2172 -46 2192 -46 ct 2216 -46 2236 -52 2252 -65 ct 
2269 -78 2279 -97 2283 -124 ct 2352 -124 l  2349 -107 2344 -90 2337 -74 ct 2329 -58 2319 -44 2306 -32 ct 
2293 -20 2277 -10 2258 -3 ct 2240 4 2218 8 2194 8 ct 2161 8 2134 3 2112 -8 ct 2089 -19 2071 -34 2057 -53 ct 
2043 -72 2033 -95 2026 -121 ct 2020 -147 2017 -175 2017 -205 ct 2017 -233 2019 -257 2024 -278 ct 
2028 -299 2035 -318 2043 -333 ct 2051 -349 2061 -363 2072 -373 ct 2083 -384 2095 -393 2108 -399 ct 
2121 -406 2135 -410 2149 -413 ct 2164 -416 2178 -417 2193 -417 ct 2216 -417 2236 -414 2254 -408 ct 
2272 -402 2288 -393 2301 -382 ct 2314 -371 2324 -358 2332 -343 ct 2340 -328 2346 -312 2349 -295 ct 
2279 -290 l  2276 -312 2267 -331 2252 -344 ct 2238 -357 2217 -364 2191 -364 ct 
2171 -364 2155 -361 2142 -354 ct 2129 -348 2119 -338 2111 -325 ct 2102 -312 2097 -296 2093 -276 ct 
2090 -256 2088 -233 2088 -207 ct p ef
2780 -205 m  2780 -133 2764 -80 2733 -45 ct 2701 -10 2655 8 2595 8 ct 2567 8 2541 4 2519 -5 ct 
2496 -13 2477 -27 2462 -44 ct 2446 -62 2434 -84 2426 -111 ct 2418 -138 2414 -169 2414 -205 ct 
2414 -347 2475 -417 2597 -417 ct 2629 -417 2657 -413 2680 -404 ct 2703 -395 2722 -382 2737 -364 ct 
2751 -347 2762 -325 2769 -298 ct 2776 -271 2780 -240 2780 -205 ct p
2708 -205 m  2708 -237 2706 -263 2701 -284 ct 2696 -305 2689 -321 2679 -334 ct 
2670 -346 2658 -355 2645 -360 ct 2631 -365 2616 -367 2599 -367 ct 2581 -367 2565 -364 2551 -359 ct 
2537 -354 2525 -345 2516 -333 ct 2506 -320 2498 -304 2493 -283 ct 2488 -262 2485 -236 2485 -205 ct 
2485 -173 2488 -147 2494 -126 ct 2499 -105 2507 -89 2516 -76 ct 2526 -64 2538 -55 2551 -50 ct 
2564 -45 2579 -42 2594 -42 ct 2612 -42 2628 -45 2642 -50 ct 2656 -55 2668 -63 2678 -76 ct 
2688 -88 2695 -105 2700 -126 ct 2706 -147 2708 -173 2708 -205 ct p ef
3118 0 m  3118 -260 l  3118 -280 3116 -297 3113 -310 ct 3110 -324 3106 -335 3099 -343 ct 
3092 -351 3084 -357 3073 -360 ct 3062 -364 3049 -365 3033 -365 ct 3017 -365 3002 -362 2989 -357 ct 
2976 -351 2965 -343 2956 -332 ct 2947 -321 2940 -308 2935 -292 ct 2930 -276 2927 -258 2927 -238 ct 
2927 0 l  2859 0 l  2859 -324 l  2859 -332 2859 -341 2859 -351 ct 2858 -360 2858 -369 2858 -378 ct 
2858 -386 2858 -394 2857 -400 ct 2857 -406 2857 -409 2857 -409 ct 2921 -409 l 
2921 -408 2921 -404 2922 -399 ct 2922 -393 2922 -387 2923 -380 ct 2923 -373 2923 -366 2924 -359 ct 
2924 -351 2924 -345 2924 -340 ct 2925 -340 l  2932 -352 2939 -363 2947 -372 ct 
2955 -382 2964 -390 2974 -397 ct 2984 -404 2996 -409 3010 -413 ct 3023 -416 3039 -418 3056 -418 ct 
3079 -418 3099 -415 3115 -410 ct 3131 -404 3145 -396 3155 -384 ct 3166 -372 3174 -357 3179 -339 ct 
3184 -321 3186 -299 3186 -274 ct 3186 0 l  3118 0 l  p ef
3539 -66 m  3526 -40 3510 -21 3489 -9 ct 3468 2 3442 8 3411 8 ct 3360 8 3322 -10 3297 -45 ct 
3273 -80 3261 -132 3261 -203 ct 3261 -346 3311 -418 3411 -418 ct 3442 -418 3468 -412 3489 -401 ct 
3510 -390 3526 -371 3539 -347 ct 3540 -347 l  3540 -349 3540 -353 3540 -359 ct 
3540 -364 3539 -370 3539 -376 ct 3539 -382 3539 -387 3539 -393 ct 3539 -398 3539 -402 3539 -404 ct 
3539 -563 l  3607 -563 l  3607 -83 l  3607 -73 3607 -63 3607 -54 ct 3608 -45 3608 -37 3608 -29 ct 
3608 -22 3609 -15 3609 -10 ct 3609 -4 3609 -1 3610 -1 ct 3544 -1 l  3544 -4 3543 -7 3543 -12 ct 
3543 -17 3542 -22 3542 -28 ct 3542 -34 3541 -40 3541 -46 ct 3541 -53 3541 -59 3541 -66 ct 
3539 -66 l  p
3332 -206 m  3332 -177 3334 -153 3338 -133 ct 3341 -112 3347 -96 3355 -83 ct 
3362 -70 3372 -60 3384 -54 ct 3397 -48 3411 -45 3429 -45 ct 3447 -45 3463 -48 3476 -54 ct 
3490 -60 3502 -69 3511 -82 ct 3520 -95 3527 -112 3532 -133 ct 3537 -154 3539 -180 3539 -210 ct 
3539 -239 3537 -264 3532 -284 ct 3527 -304 3520 -320 3511 -333 ct 3501 -345 3490 -354 3476 -359 ct 
3463 -365 3447 -368 3430 -368 ct 3413 -368 3399 -365 3386 -359 ct 3374 -353 3364 -344 3356 -331 ct 
3348 -318 3342 -301 3338 -280 ct 3334 -260 3332 -235 3332 -206 ct p ef
4011 -113 m  4011 -94 4007 -77 4000 -62 ct 3992 -47 3982 -34 3967 -24 ct 3953 -13 3936 -6 3915 0 ct 
3895 5 3871 8 3845 8 ct 3821 8 3799 6 3780 3 ct 3761 -1 3745 -7 3730 -15 ct 3716 -23 3704 -34 3694 -47 ct 
3684 -60 3677 -77 3673 -96 ct 3733 -108 l  3739 -86 3751 -70 3769 -59 ct 3787 -49 3812 -44 3845 -44 ct 
3859 -44 3873 -45 3885 -47 ct 3897 -49 3908 -53 3917 -57 ct 3925 -62 3932 -69 3937 -77 ct 
3942 -85 3945 -96 3945 -108 ct 3945 -120 3942 -130 3936 -138 ct 3930 -146 3922 -153 3912 -158 ct 
3901 -164 3889 -168 3874 -172 ct 3859 -176 3843 -180 3825 -185 ct 3809 -189 3793 -194 3776 -200 ct 
3760 -205 3746 -212 3733 -221 ct 3720 -229 3709 -240 3701 -253 ct 3693 -266 3689 -282 3689 -302 ct 
3689 -339 3702 -368 3729 -387 ct 3756 -407 3794 -417 3845 -417 ct 3891 -417 3927 -409 3953 -393 ct 
3980 -377 3997 -351 4004 -316 ct 3942 -308 l  3940 -319 3936 -328 3930 -335 ct 
3924 -342 3916 -348 3908 -353 ct 3899 -357 3890 -360 3879 -362 ct 3868 -364 3857 -365 3845 -365 ct 
3815 -365 3792 -360 3777 -351 ct 3763 -342 3755 -327 3755 -308 ct 3755 -297 3758 -288 3763 -281 ct 
3769 -274 3776 -268 3786 -263 ct 3796 -258 3807 -254 3821 -250 ct 3835 -246 3850 -242 3866 -238 ct 
3877 -235 3888 -233 3900 -229 ct 3911 -226 3922 -222 3933 -218 ct 3943 -214 3954 -208 3963 -202 ct 
3973 -196 3981 -189 3988 -181 ct 3995 -173 4001 -163 4005 -152 ct 4009 -141 4011 -128 4011 -113 ct 
p ef
4258 -200 m  4258 -165 4256 -131 4250 -99 ct 4245 -67 4237 -36 4225 -7 ct 4214 23 4199 52 4182 79 ct 
4164 107 4143 134 4118 161 ct 4053 161 l  4076 134 4097 107 4114 79 ct 4131 52 4146 23 4157 -7 ct 
4168 -37 4176 -68 4182 -100 ct 4187 -132 4190 -166 4190 -201 ct 4190 -236 4187 -270 4182 -302 ct 
4176 -334 4168 -365 4157 -395 ct 4146 -424 4131 -453 4114 -481 ct 4097 -509 4076 -536 4053 -563 ct 
4118 -563 l  4143 -536 4164 -509 4182 -481 ct 4199 -454 4214 -425 4225 -395 ct 
4237 -366 4245 -335 4250 -303 ct 4256 -271 4258 -237 4258 -202 ct 4258 -200 l 
p ef
pom
0 9000 t 
pom
count op_count sub {pop} repeat countdictstack dict_count sub {end} repeat b4_inc_state restore
%%PageTrailer
%%Trailer
%%EOF
