%!PS-Adobe-3.0 EPSF-3.0 
%%BoundingBox: 0 0 454 255
%%Pages: 0
%%Creator: LibreOffice 5.1
%%Title: none
%%CreationDate: none
%%LanguageLevel: 2
%%EndComments
%%BeginProlog
%%BeginResource: procset SDRes-Prolog 1.0 0
/b4_inc_state save def
/dict_count countdictstack def
/op_count count 1 sub def
userdict begin
0 setgray 0 setlinecap 1 setlinewidth 0 setlinejoin 10 setmiterlimit[] 0 setdash newpath
/languagelevel where {pop languagelevel 1 ne {false setstrokeadjust false setoverprint} if} if
/bdef {bind def} bind def
/c {setrgbcolor} bdef
/l {neg lineto} bdef
/rl {neg rlineto} bdef
/lc {setlinecap} bdef
/lj {setlinejoin} bdef
/lw {setlinewidth} bdef
/ml {setmiterlimit} bdef
/ld {setdash} bdef
/m {neg moveto} bdef
/ct {6 2 roll neg 6 2 roll neg 6 2 roll neg curveto} bdef
/r {rotate} bdef
/t {neg translate} bdef
/s {scale} bdef
/sw {show} bdef
/gs {gsave} bdef
/gr {grestore} bdef
/f {findfont dup length dict begin
{1 index /FID ne {def} {pop pop} ifelse} forall /Encoding ISOLatin1Encoding def
currentdict end /NFont exch definefont pop /NFont findfont} bdef
/p {closepath} bdef
/sf {scalefont setfont} bdef
/ef {eofill}bdef
/pc {closepath stroke}bdef
/ps {stroke}bdef
/pum {matrix currentmatrix}bdef
/pom {setmatrix}bdef
/bs {/aString exch def /nXOfs exch def /nWidth exch def currentpoint nXOfs 0 rmoveto pum nWidth aString stringwidth pop div 1 scale aString show pom moveto} bdef
%%EndResource
%%EndProlog
%%BeginSetup
%%EndSetup
%%Page: 1 1
%%BeginPageSetup
%%EndPageSetup
pum
0.02837 0.02833 s 
0 -9000 t
/tm matrix currentmatrix def
tm setmatrix
0 -3600 t 
1 1 s 
1.000 1.000 1.000 c 8000 12599 m  0 12599 l  0 3600 l  15999 3600 l  15999 12599 l 
8000 12599 l  p ef
0 lw 1 lj 0.703 0.703 0.703 c 10026 9615 m  4373 9615 l  4373 5712 l  15679 5712 l 
15679 9615 l  10026 9615 l  pc
15679 9614 m  4373 9614 l  ps
15679 8638 m  4373 8638 l  ps
15679 7663 m  4373 7663 l  ps
15679 6687 m  4373 6687 l  ps
15679 5711 m  4373 5711 l  ps
4373 9764 m  4373 9614 l  ps
4373 9764 m  4373 9614 l  ps
7199 9764 m  7199 9614 l  ps
7199 9764 m  7199 9614 l  ps
10025 9764 m  10025 9614 l  ps
10025 9764 m  10025 9614 l  ps
12852 9764 m  12852 9614 l  ps
12852 9764 m  12852 9614 l  ps
15679 9764 m  15679 9614 l  ps
15679 9764 m  15679 9614 l  ps
4373 9614 m  15679 9614 l  ps
4223 9614 m  4373 9614 l  ps
4223 9614 m  4373 9614 l  ps
4223 8638 m  4373 8638 l  ps
4223 8638 m  4373 8638 l  ps
4223 7663 m  4373 7663 l  ps
4223 7663 m  4373 7663 l  ps
4223 6687 m  4373 6687 l  ps
4223 6687 m  4373 6687 l  ps
4223 5711 m  4373 5711 l  ps
4223 5711 m  4373 5711 l  ps
4373 9614 m  4373 5711 l  ps
0.003 0.003 0.003 c 13323 9614 m  14265 9614 l  14265 6183 l  13323 6183 l 
13323 9614 l  p ef
10496 9614 m  11438 9614 l  11438 6132 l  10496 6132 l  10496 9614 l  p ef
7670 9614 m  8612 9614 l  8612 6191 l  7670 6191 l  7670 9614 l  p ef
4844 9614 m  5786 9614 l  5786 6107 l  4844 6107 l  4844 9614 l  p ef
0.503 0.503 0.503 c 14265 9614 m  15207 9614 l  15207 8917 l  14265 8917 l 
14265 9614 l  p ef
11438 9614 m  12381 9614 l  12381 7720 l  11438 7720 l  11438 9614 l  p ef
8612 9614 m  9554 9614 l  9554 6814 l  8612 6814 l  8612 9614 l  p ef
5786 9614 m  6728 9614 l  6728 6158 l  5786 6158 l  5786 9614 l  p ef
pum
5085 10499 t
0.003 0.003 0.003 c 365 -243 m  365 -196 361 -157 352 -125 ct 343 -93 331 -68 316 -48 ct 
300 -28 282 -14 262 -6 ct 241 3 219 7 195 7 ct 172 7 150 3 129 -6 ct 109 -14 91 -28 76 -48 ct 
61 -67 49 -93 41 -125 ct 32 -157 28 -196 28 -243 ct 28 -292 32 -332 41 -365 ct 
49 -397 61 -422 76 -441 ct 91 -460 109 -474 130 -481 ct 151 -489 173 -493 198 -493 ct 
221 -493 243 -489 263 -481 ct 283 -474 301 -460 316 -441 ct 331 -422 343 -397 352 -365 ct 
361 -332 365 -292 365 -243 ct p
302 -243 m  302 -282 300 -314 295 -339 ct 290 -365 284 -385 275 -401 ct 266 -416 255 -427 242 -433 ct 
229 -440 214 -443 198 -443 ct 180 -443 165 -439 151 -433 ct 138 -427 127 -416 118 -400 ct 
109 -385 102 -365 97 -339 ct 93 -313 90 -281 90 -243 ct 90 -206 93 -174 97 -149 ct 
102 -123 109 -103 118 -87 ct 127 -72 138 -61 151 -54 ct 164 -47 179 -44 196 -44 ct 
212 -44 227 -47 240 -54 ct 253 -61 264 -72 274 -87 ct 283 -103 290 -123 295 -149 ct 
300 -174 302 -206 302 -243 ct p ef
461 0 m  461 -76 l  529 -76 l  529 0 l  461 0 l  p ef
974 -243 m  974 -196 970 -157 961 -125 ct 952 -93 940 -68 925 -48 ct 909 -28 891 -14 871 -6 ct 
850 3 828 7 804 7 ct 781 7 759 3 738 -6 ct 718 -14 700 -28 685 -48 ct 670 -67 658 -93 650 -125 ct 
641 -157 637 -196 637 -243 ct 637 -292 641 -332 650 -365 ct 658 -397 670 -422 685 -441 ct 
700 -460 718 -474 739 -481 ct 760 -489 782 -493 807 -493 ct 830 -493 852 -489 872 -481 ct 
892 -474 910 -460 925 -441 ct 940 -422 952 -397 961 -365 ct 970 -332 974 -292 974 -243 ct 
p
911 -243 m  911 -282 909 -314 904 -339 ct 899 -365 893 -385 884 -401 ct 875 -416 864 -427 851 -433 ct 
838 -440 823 -443 807 -443 ct 789 -443 774 -439 760 -433 ct 747 -427 736 -416 727 -400 ct 
718 -385 711 -365 706 -339 ct 702 -313 699 -281 699 -243 ct 699 -206 702 -174 706 -149 ct 
711 -123 718 -103 727 -87 ct 736 -72 747 -61 760 -54 ct 773 -47 788 -44 805 -44 ct 
821 -44 836 -47 849 -54 ct 862 -61 873 -72 883 -87 ct 892 -103 899 -123 904 -149 ct 
909 -174 911 -206 911 -243 ct p ef
1368 -158 m  1368 -134 1364 -112 1357 -91 ct 1350 -71 1339 -54 1324 -39 ct 1310 -24 1292 -13 1270 -5 ct 
1249 3 1224 7 1196 7 ct 1170 7 1148 4 1129 -2 ct 1110 -8 1094 -16 1081 -27 ct 1068 -37 1057 -49 1050 -63 ct 
1042 -77 1036 -92 1033 -109 ct 1096 -116 l  1099 -107 1102 -98 1107 -89 ct 1111 -80 1118 -73 1125 -66 ct 
1133 -59 1143 -54 1155 -50 ct 1166 -46 1180 -44 1197 -44 ct 1213 -44 1228 -46 1241 -51 ct 
1254 -56 1265 -63 1274 -73 ct 1284 -83 1291 -95 1296 -109 ct 1301 -123 1304 -139 1304 -157 ct 
1304 -172 1301 -186 1296 -198 ct 1291 -211 1285 -221 1276 -231 ct 1267 -240 1256 -247 1243 -252 ct 
1230 -257 1215 -259 1198 -259 ct 1188 -259 1179 -258 1170 -257 ct 1161 -255 1153 -252 1145 -249 ct 
1138 -246 1131 -242 1125 -238 ct 1119 -233 1113 -229 1108 -224 ct 1047 -224 l 
1064 -486 l  1340 -486 l  1340 -433 l  1120 -433 l  1111 -279 l  1122 -287 1136 -295 1152 -301 ct 
1169 -307 1188 -310 1211 -310 ct 1235 -310 1257 -306 1276 -299 ct 1296 -292 1312 -281 1326 -268 ct 
1339 -254 1350 -238 1357 -220 ct 1364 -201 1368 -181 1368 -158 ct p ef
pom
pum
8110 10499 t
365 -243 m  365 -196 361 -157 352 -125 ct 343 -93 331 -68 316 -48 ct 300 -28 282 -14 262 -6 ct 
241 3 219 7 195 7 ct 172 7 150 3 129 -6 ct 109 -14 91 -28 76 -48 ct 61 -67 49 -93 41 -125 ct 
32 -157 28 -196 28 -243 ct 28 -292 32 -332 41 -365 ct 49 -397 61 -422 76 -441 ct 
91 -460 109 -474 130 -481 ct 151 -489 173 -493 198 -493 ct 221 -493 243 -489 263 -481 ct 
283 -474 301 -460 316 -441 ct 331 -422 343 -397 352 -365 ct 361 -332 365 -292 365 -243 ct 
p
302 -243 m  302 -282 300 -314 295 -339 ct 290 -365 284 -385 275 -401 ct 266 -416 255 -427 242 -433 ct 
229 -440 214 -443 198 -443 ct 180 -443 165 -439 151 -433 ct 138 -427 127 -416 118 -400 ct 
109 -385 102 -365 97 -339 ct 93 -313 90 -281 90 -243 ct 90 -206 93 -174 97 -149 ct 
102 -123 109 -103 118 -87 ct 127 -72 138 -61 151 -54 ct 164 -47 179 -44 196 -44 ct 
212 -44 227 -47 240 -54 ct 253 -61 264 -72 274 -87 ct 283 -103 290 -123 295 -149 ct 
300 -174 302 -206 302 -243 ct p ef
461 0 m  461 -76 l  529 -76 l  529 0 l  461 0 l  p ef
663 0 m  663 -53 l  787 -53 l  787 -427 l  677 -348 l  677 -407 l  792 -486 l 
849 -486 l  849 -53 l  967 -53 l  967 0 l  663 0 l  p ef
pom
pum
10738 10499 t
365 -243 m  365 -196 361 -157 352 -125 ct 343 -93 331 -68 316 -48 ct 300 -28 282 -14 262 -6 ct 
241 3 219 7 195 7 ct 172 7 150 3 129 -6 ct 109 -14 91 -28 76 -48 ct 61 -67 49 -93 41 -125 ct 
32 -157 28 -196 28 -243 ct 28 -292 32 -332 41 -365 ct 49 -397 61 -422 76 -441 ct 
91 -460 109 -474 130 -481 ct 151 -489 173 -493 198 -493 ct 221 -493 243 -489 263 -481 ct 
283 -474 301 -460 316 -441 ct 331 -422 343 -397 352 -365 ct 361 -332 365 -292 365 -243 ct 
p
302 -243 m  302 -282 300 -314 295 -339 ct 290 -365 284 -385 275 -401 ct 266 -416 255 -427 242 -433 ct 
229 -440 214 -443 198 -443 ct 180 -443 165 -439 151 -433 ct 138 -427 127 -416 118 -400 ct 
109 -385 102 -365 97 -339 ct 93 -313 90 -281 90 -243 ct 90 -206 93 -174 97 -149 ct 
102 -123 109 -103 118 -87 ct 127 -72 138 -61 151 -54 ct 164 -47 179 -44 196 -44 ct 
212 -44 227 -47 240 -54 ct 253 -61 264 -72 274 -87 ct 283 -103 290 -123 295 -149 ct 
300 -174 302 -206 302 -243 ct p ef
461 0 m  461 -76 l  529 -76 l  529 0 l  461 0 l  p ef
663 0 m  663 -53 l  787 -53 l  787 -427 l  677 -348 l  677 -407 l  792 -486 l 
849 -486 l  849 -53 l  967 -53 l  967 0 l  663 0 l  p ef
1368 -158 m  1368 -134 1364 -112 1357 -91 ct 1350 -71 1339 -54 1324 -39 ct 1310 -24 1292 -13 1270 -5 ct 
1249 3 1224 7 1196 7 ct 1170 7 1148 4 1129 -2 ct 1110 -8 1094 -16 1081 -27 ct 1068 -37 1057 -49 1050 -63 ct 
1042 -77 1036 -92 1033 -109 ct 1096 -116 l  1099 -107 1102 -98 1107 -89 ct 1111 -80 1118 -73 1125 -66 ct 
1133 -59 1143 -54 1155 -50 ct 1166 -46 1180 -44 1197 -44 ct 1213 -44 1228 -46 1241 -51 ct 
1254 -56 1265 -63 1274 -73 ct 1284 -83 1291 -95 1296 -109 ct 1301 -123 1304 -139 1304 -157 ct 
1304 -172 1301 -186 1296 -198 ct 1291 -211 1285 -221 1276 -231 ct 1267 -240 1256 -247 1243 -252 ct 
1230 -257 1215 -259 1198 -259 ct 1188 -259 1179 -258 1170 -257 ct 1161 -255 1153 -252 1145 -249 ct 
1138 -246 1131 -242 1125 -238 ct 1119 -233 1113 -229 1108 -224 ct 1047 -224 l 
1064 -486 l  1340 -486 l  1340 -433 l  1120 -433 l  1111 -279 l  1122 -287 1136 -295 1152 -301 ct 
1169 -307 1188 -310 1211 -310 ct 1235 -310 1257 -306 1276 -299 ct 1296 -292 1312 -281 1326 -268 ct 
1339 -254 1350 -238 1357 -220 ct 1364 -201 1368 -181 1368 -158 ct p ef
pom
pum
13763 10499 t
365 -243 m  365 -196 361 -157 352 -125 ct 343 -93 331 -68 316 -48 ct 300 -28 282 -14 262 -6 ct 
241 3 219 7 195 7 ct 172 7 150 3 129 -6 ct 109 -14 91 -28 76 -48 ct 61 -67 49 -93 41 -125 ct 
32 -157 28 -196 28 -243 ct 28 -292 32 -332 41 -365 ct 49 -397 61 -422 76 -441 ct 
91 -460 109 -474 130 -481 ct 151 -489 173 -493 198 -493 ct 221 -493 243 -489 263 -481 ct 
283 -474 301 -460 316 -441 ct 331 -422 343 -397 352 -365 ct 361 -332 365 -292 365 -243 ct 
p
302 -243 m  302 -282 300 -314 295 -339 ct 290 -365 284 -385 275 -401 ct 266 -416 255 -427 242 -433 ct 
229 -440 214 -443 198 -443 ct 180 -443 165 -439 151 -433 ct 138 -427 127 -416 118 -400 ct 
109 -385 102 -365 97 -339 ct 93 -313 90 -281 90 -243 ct 90 -206 93 -174 97 -149 ct 
102 -123 109 -103 118 -87 ct 127 -72 138 -61 151 -54 ct 164 -47 179 -44 196 -44 ct 
212 -44 227 -47 240 -54 ct 253 -61 264 -72 274 -87 ct 283 -103 290 -123 295 -149 ct 
300 -174 302 -206 302 -243 ct p ef
461 0 m  461 -76 l  529 -76 l  529 0 l  461 0 l  p ef
645 0 m  645 -44 l  656 -71 671 -94 687 -115 ct 704 -136 722 -154 741 -171 ct 
759 -188 778 -203 796 -217 ct 814 -231 831 -246 845 -260 ct 860 -274 872 -289 881 -305 ct 
890 -320 895 -338 895 -358 ct 895 -372 893 -384 889 -394 ct 884 -405 878 -414 871 -421 ct 
863 -428 853 -433 843 -437 ct 832 -440 820 -442 806 -442 ct 794 -442 782 -440 771 -437 ct 
760 -433 751 -428 742 -421 ct 734 -414 727 -406 721 -396 ct 716 -385 712 -374 711 -360 ct 
647 -366 l  649 -383 654 -400 662 -415 ct 669 -431 680 -444 693 -456 ct 706 -467 722 -476 741 -483 ct 
760 -490 782 -493 806 -493 ct 830 -493 852 -490 871 -484 ct 890 -479 905 -470 918 -459 ct 
931 -448 941 -434 948 -417 ct 955 -401 959 -382 959 -360 ct 959 -344 956 -328 950 -313 ct 
944 -299 936 -285 926 -271 ct 917 -258 905 -245 892 -233 ct 880 -220 866 -208 852 -196 ct 
838 -185 824 -173 810 -161 ct 795 -150 782 -138 769 -126 ct 757 -114 746 -103 736 -91 ct 
726 -78 718 -66 713 -53 ct 966 -53 l  966 0 l  645 0 l  p ef
pom
pum
3726 9853 t
365 -243 m  365 -196 361 -157 352 -125 ct 343 -93 331 -68 316 -48 ct 300 -28 282 -14 262 -6 ct 
241 3 219 7 195 7 ct 172 7 150 3 129 -6 ct 109 -14 91 -28 76 -48 ct 61 -67 49 -93 41 -125 ct 
32 -157 28 -196 28 -243 ct 28 -292 32 -332 41 -365 ct 49 -397 61 -422 76 -441 ct 
91 -460 109 -474 130 -481 ct 151 -489 173 -493 198 -493 ct 221 -493 243 -489 263 -481 ct 
283 -474 301 -460 316 -441 ct 331 -422 343 -397 352 -365 ct 361 -332 365 -292 365 -243 ct 
p
302 -243 m  302 -282 300 -314 295 -339 ct 290 -365 284 -385 275 -401 ct 266 -416 255 -427 242 -433 ct 
229 -440 214 -443 198 -443 ct 180 -443 165 -439 151 -433 ct 138 -427 127 -416 118 -400 ct 
109 -385 102 -365 97 -339 ct 93 -313 90 -281 90 -243 ct 90 -206 93 -174 97 -149 ct 
102 -123 109 -103 118 -87 ct 127 -72 138 -61 151 -54 ct 164 -47 179 -44 196 -44 ct 
212 -44 227 -47 240 -54 ct 253 -61 264 -72 274 -87 ct 283 -103 290 -123 295 -149 ct 
300 -174 302 -206 302 -243 ct p ef
pom
pum
2932 8877 t
36 0 m  36 -44 l  47 -71 62 -94 78 -115 ct 95 -136 113 -154 132 -171 ct 150 -188 169 -203 187 -217 ct 
205 -231 222 -246 236 -260 ct 251 -274 263 -289 272 -305 ct 281 -320 286 -338 286 -358 ct 
286 -372 284 -384 280 -394 ct 275 -405 269 -414 262 -421 ct 254 -428 244 -433 234 -437 ct 
223 -440 211 -442 197 -442 ct 185 -442 173 -440 162 -437 ct 151 -433 142 -428 133 -421 ct 
125 -414 118 -406 112 -396 ct 107 -385 103 -374 102 -360 ct 38 -366 l  40 -383 45 -400 53 -415 ct 
60 -431 71 -444 84 -456 ct 97 -467 113 -476 132 -483 ct 151 -490 173 -493 197 -493 ct 
221 -493 243 -490 262 -484 ct 281 -479 296 -470 309 -459 ct 322 -448 332 -434 339 -417 ct 
346 -401 350 -382 350 -360 ct 350 -344 347 -328 341 -313 ct 335 -299 327 -285 317 -271 ct 
308 -258 296 -245 283 -233 ct 271 -220 257 -208 243 -196 ct 229 -185 215 -173 201 -161 ct 
186 -150 173 -138 160 -126 ct 148 -114 137 -103 127 -91 ct 117 -78 109 -66 104 -53 ct 
357 -53 l  357 0 l  36 0 l  p ef
762 -243 m  762 -196 758 -157 749 -125 ct 740 -93 728 -68 713 -48 ct 697 -28 679 -14 659 -6 ct 
638 3 616 7 592 7 ct 569 7 547 3 526 -6 ct 506 -14 488 -28 473 -48 ct 458 -67 446 -93 438 -125 ct 
429 -157 425 -196 425 -243 ct 425 -292 429 -332 438 -365 ct 446 -397 458 -422 473 -441 ct 
488 -460 506 -474 527 -481 ct 548 -489 570 -493 595 -493 ct 618 -493 640 -489 660 -481 ct 
680 -474 698 -460 713 -441 ct 728 -422 740 -397 749 -365 ct 758 -332 762 -292 762 -243 ct 
p
699 -243 m  699 -282 697 -314 692 -339 ct 687 -365 681 -385 672 -401 ct 663 -416 652 -427 639 -433 ct 
626 -440 611 -443 595 -443 ct 577 -443 562 -439 548 -433 ct 535 -427 524 -416 515 -400 ct 
506 -385 499 -365 494 -339 ct 490 -313 487 -281 487 -243 ct 487 -206 490 -174 494 -149 ct 
499 -123 506 -103 515 -87 ct 524 -72 535 -61 548 -54 ct 561 -47 576 -44 593 -44 ct 
609 -44 624 -47 637 -54 ct 650 -61 661 -72 671 -87 ct 680 -103 687 -123 692 -149 ct 
697 -174 699 -206 699 -243 ct p ef
1159 -243 m  1159 -196 1155 -157 1146 -125 ct 1137 -93 1125 -68 1110 -48 ct 
1094 -28 1076 -14 1056 -6 ct 1035 3 1013 7 989 7 ct 966 7 944 3 923 -6 ct 903 -14 885 -28 870 -48 ct 
855 -67 843 -93 835 -125 ct 826 -157 822 -196 822 -243 ct 822 -292 826 -332 835 -365 ct 
843 -397 855 -422 870 -441 ct 885 -460 903 -474 924 -481 ct 945 -489 967 -493 992 -493 ct 
1015 -493 1037 -489 1057 -481 ct 1077 -474 1095 -460 1110 -441 ct 1125 -422 1137 -397 1146 -365 ct 
1155 -332 1159 -292 1159 -243 ct p
1096 -243 m  1096 -282 1094 -314 1089 -339 ct 1084 -365 1078 -385 1069 -401 ct 
1060 -416 1049 -427 1036 -433 ct 1023 -440 1008 -443 992 -443 ct 974 -443 959 -439 945 -433 ct 
932 -427 921 -416 912 -400 ct 903 -385 896 -365 891 -339 ct 887 -313 884 -281 884 -243 ct 
884 -206 887 -174 891 -149 ct 896 -123 903 -103 912 -87 ct 921 -72 932 -61 945 -54 ct 
958 -47 973 -44 990 -44 ct 1006 -44 1021 -47 1034 -54 ct 1047 -61 1058 -72 1068 -87 ct 
1077 -103 1084 -123 1089 -149 ct 1094 -174 1096 -206 1096 -243 ct p ef
pom
pum
2932 7901 t
304 -110 m  304 0 l  245 0 l  245 -110 l  16 -110 l  16 -158 l  239 -486 l 
304 -486 l  304 -159 l  372 -159 l  372 -110 l  304 -110 l  p
245 -416 m  245 -415 243 -413 242 -409 ct 240 -406 238 -402 235 -398 ct 233 -394 231 -390 228 -385 ct 
226 -381 224 -377 222 -375 ct 98 -190 l  96 -188 95 -186 93 -183 ct 90 -180 88 -177 86 -174 ct 
84 -171 81 -168 79 -165 ct 77 -162 75 -160 73 -160 ct 245 -160 l  245 -416 l 
p ef
762 -243 m  762 -196 758 -157 749 -125 ct 740 -93 728 -68 713 -48 ct 697 -28 679 -14 659 -6 ct 
638 3 616 7 592 7 ct 569 7 547 3 526 -6 ct 506 -14 488 -28 473 -48 ct 458 -67 446 -93 438 -125 ct 
429 -157 425 -196 425 -243 ct 425 -292 429 -332 438 -365 ct 446 -397 458 -422 473 -441 ct 
488 -460 506 -474 527 -481 ct 548 -489 570 -493 595 -493 ct 618 -493 640 -489 660 -481 ct 
680 -474 698 -460 713 -441 ct 728 -422 740 -397 749 -365 ct 758 -332 762 -292 762 -243 ct 
p
699 -243 m  699 -282 697 -314 692 -339 ct 687 -365 681 -385 672 -401 ct 663 -416 652 -427 639 -433 ct 
626 -440 611 -443 595 -443 ct 577 -443 562 -439 548 -433 ct 535 -427 524 -416 515 -400 ct 
506 -385 499 -365 494 -339 ct 490 -313 487 -281 487 -243 ct 487 -206 490 -174 494 -149 ct 
499 -123 506 -103 515 -87 ct 524 -72 535 -61 548 -54 ct 561 -47 576 -44 593 -44 ct 
609 -44 624 -47 637 -54 ct 650 -61 661 -72 671 -87 ct 680 -103 687 -123 692 -149 ct 
697 -174 699 -206 699 -243 ct p ef
1159 -243 m  1159 -196 1155 -157 1146 -125 ct 1137 -93 1125 -68 1110 -48 ct 
1094 -28 1076 -14 1056 -6 ct 1035 3 1013 7 989 7 ct 966 7 944 3 923 -6 ct 903 -14 885 -28 870 -48 ct 
855 -67 843 -93 835 -125 ct 826 -157 822 -196 822 -243 ct 822 -292 826 -332 835 -365 ct 
843 -397 855 -422 870 -441 ct 885 -460 903 -474 924 -481 ct 945 -489 967 -493 992 -493 ct 
1015 -493 1037 -489 1057 -481 ct 1077 -474 1095 -460 1110 -441 ct 1125 -422 1137 -397 1146 -365 ct 
1155 -332 1159 -292 1159 -243 ct p
1096 -243 m  1096 -282 1094 -314 1089 -339 ct 1084 -365 1078 -385 1069 -401 ct 
1060 -416 1049 -427 1036 -433 ct 1023 -440 1008 -443 992 -443 ct 974 -443 959 -439 945 -433 ct 
932 -427 921 -416 912 -400 ct 903 -385 896 -365 891 -339 ct 887 -313 884 -281 884 -243 ct 
884 -206 887 -174 891 -149 ct 896 -123 903 -103 912 -87 ct 921 -72 932 -61 945 -54 ct 
958 -47 973 -44 990 -44 ct 1006 -44 1021 -47 1034 -54 ct 1047 -61 1058 -72 1068 -87 ct 
1077 -103 1084 -123 1089 -149 ct 1094 -174 1096 -206 1096 -243 ct p ef
pom
pum
2932 6925 t
362 -159 m  362 -134 358 -112 351 -92 ct 345 -71 335 -54 321 -39 ct 308 -25 292 -13 272 -5 ct 
253 3 230 7 205 7 ct 177 7 152 2 131 -9 ct 110 -20 92 -36 78 -56 ct 64 -76 53 -101 46 -131 ct 
39 -160 36 -194 36 -232 ct 36 -275 40 -313 48 -345 ct 56 -378 67 -405 82 -427 ct 
97 -449 115 -465 137 -476 ct 158 -487 182 -493 210 -493 ct 226 -493 242 -491 256 -488 ct 
271 -484 284 -479 296 -471 ct 307 -463 318 -453 327 -441 ct 336 -428 343 -412 348 -394 ct 
289 -383 l  282 -404 272 -419 258 -429 ct 244 -438 228 -443 209 -443 ct 192 -443 177 -439 163 -431 ct 
149 -423 137 -411 128 -395 ct 118 -379 110 -359 105 -334 ct 100 -310 98 -282 98 -250 ct 
109 -271 125 -287 145 -298 ct 166 -309 189 -314 215 -314 ct 238 -314 258 -310 275 -303 ct 
293 -296 309 -286 321 -272 ct 334 -259 344 -243 351 -223 ct 358 -204 362 -183 362 -159 ct 
p
299 -156 m  299 -173 296 -188 292 -202 ct 288 -215 282 -227 274 -236 ct 265 -246 255 -253 243 -258 ct 
231 -263 217 -266 201 -266 ct 189 -266 178 -264 167 -261 ct 155 -258 145 -252 135 -245 ct 
126 -237 118 -228 113 -215 ct 107 -203 104 -188 104 -171 ct 104 -153 106 -136 111 -121 ct 
115 -105 122 -92 130 -80 ct 139 -69 150 -60 162 -53 ct 174 -46 188 -43 203 -43 ct 
218 -43 231 -46 243 -51 ct 255 -56 265 -63 273 -73 ct 281 -83 288 -95 292 -109 ct 
296 -123 299 -139 299 -156 ct p ef
762 -243 m  762 -196 758 -157 749 -125 ct 740 -93 728 -68 713 -48 ct 697 -28 679 -14 659 -6 ct 
638 3 616 7 592 7 ct 569 7 547 3 526 -6 ct 506 -14 488 -28 473 -48 ct 458 -67 446 -93 438 -125 ct 
429 -157 425 -196 425 -243 ct 425 -292 429 -332 438 -365 ct 446 -397 458 -422 473 -441 ct 
488 -460 506 -474 527 -481 ct 548 -489 570 -493 595 -493 ct 618 -493 640 -489 660 -481 ct 
680 -474 698 -460 713 -441 ct 728 -422 740 -397 749 -365 ct 758 -332 762 -292 762 -243 ct 
p
699 -243 m  699 -282 697 -314 692 -339 ct 687 -365 681 -385 672 -401 ct 663 -416 652 -427 639 -433 ct 
626 -440 611 -443 595 -443 ct 577 -443 562 -439 548 -433 ct 535 -427 524 -416 515 -400 ct 
506 -385 499 -365 494 -339 ct 490 -313 487 -281 487 -243 ct 487 -206 490 -174 494 -149 ct 
499 -123 506 -103 515 -87 ct 524 -72 535 -61 548 -54 ct 561 -47 576 -44 593 -44 ct 
609 -44 624 -47 637 -54 ct 650 -61 661 -72 671 -87 ct 680 -103 687 -123 692 -149 ct 
697 -174 699 -206 699 -243 ct p ef
1159 -243 m  1159 -196 1155 -157 1146 -125 ct 1137 -93 1125 -68 1110 -48 ct 
1094 -28 1076 -14 1056 -6 ct 1035 3 1013 7 989 7 ct 966 7 944 3 923 -6 ct 903 -14 885 -28 870 -48 ct 
855 -67 843 -93 835 -125 ct 826 -157 822 -196 822 -243 ct 822 -292 826 -332 835 -365 ct 
843 -397 855 -422 870 -441 ct 885 -460 903 -474 924 -481 ct 945 -489 967 -493 992 -493 ct 
1015 -493 1037 -489 1057 -481 ct 1077 -474 1095 -460 1110 -441 ct 1125 -422 1137 -397 1146 -365 ct 
1155 -332 1159 -292 1159 -243 ct p
1096 -243 m  1096 -282 1094 -314 1089 -339 ct 1084 -365 1078 -385 1069 -401 ct 
1060 -416 1049 -427 1036 -433 ct 1023 -440 1008 -443 992 -443 ct 974 -443 959 -439 945 -433 ct 
932 -427 921 -416 912 -400 ct 903 -385 896 -365 891 -339 ct 887 -313 884 -281 884 -243 ct 
884 -206 887 -174 891 -149 ct 896 -123 903 -103 912 -87 ct 921 -72 932 -61 945 -54 ct 
958 -47 973 -44 990 -44 ct 1006 -44 1021 -47 1034 -54 ct 1047 -61 1058 -72 1068 -87 ct 
1077 -103 1084 -123 1089 -149 ct 1094 -174 1096 -206 1096 -243 ct p ef
pom
pum
2932 5949 t
362 -135 m  362 -115 359 -96 352 -78 ct 346 -61 336 -46 322 -33 ct 309 -21 292 -11 271 -4 ct 
250 3 225 7 197 7 ct 168 7 143 3 123 -4 ct 102 -11 85 -21 71 -33 ct 57 -46 47 -61 41 -78 ct 
34 -95 31 -114 31 -135 ct 31 -153 33 -168 39 -182 ct 44 -196 51 -208 61 -218 ct 
70 -228 80 -236 92 -242 ct 103 -248 115 -252 128 -254 ct 128 -256 l  114 -259 102 -264 91 -271 ct 
81 -278 72 -287 64 -297 ct 57 -307 52 -318 48 -330 ct 44 -342 42 -355 42 -369 ct 
42 -386 45 -402 52 -417 ct 58 -432 68 -445 81 -456 ct 94 -468 110 -477 129 -483 ct 
148 -490 170 -493 195 -493 ct 222 -493 244 -490 264 -483 ct 283 -476 299 -467 312 -456 ct 
325 -445 334 -431 341 -416 ct 347 -401 350 -385 350 -368 ct 350 -355 348 -342 344 -330 ct 
340 -317 335 -306 328 -296 ct 320 -286 311 -278 301 -271 ct 290 -264 278 -259 264 -256 ct 
264 -255 l  278 -253 291 -248 303 -242 ct 315 -236 325 -228 334 -218 ct 342 -208 349 -196 354 -182 ct 
359 -169 362 -153 362 -135 ct p
285 -364 m  285 -377 284 -388 281 -398 ct 278 -408 273 -417 265 -424 ct 258 -431 249 -437 238 -441 ct 
226 -445 212 -447 195 -447 ct 179 -447 165 -445 154 -441 ct 142 -437 133 -431 126 -424 ct 
119 -417 114 -408 110 -398 ct 107 -388 105 -377 105 -364 ct 105 -355 107 -345 109 -335 ct 
112 -325 116 -316 123 -307 ct 130 -299 139 -292 151 -287 ct 162 -282 177 -279 196 -279 ct 
215 -279 231 -282 243 -287 ct 255 -292 264 -299 270 -307 ct 276 -316 281 -325 283 -335 ct 
284 -345 285 -355 285 -364 ct p
298 -141 m  298 -153 296 -164 293 -175 ct 289 -186 284 -196 276 -204 ct 268 -213 258 -220 245 -225 ct 
231 -230 215 -232 195 -232 ct 177 -232 162 -230 149 -225 ct 136 -220 126 -213 118 -204 ct 
110 -196 104 -186 100 -175 ct 97 -164 95 -152 95 -140 ct 95 -125 97 -111 100 -99 ct 
104 -87 110 -76 118 -67 ct 126 -58 137 -52 150 -47 ct 163 -42 179 -40 197 -40 ct 
216 -40 232 -42 245 -47 ct 258 -52 268 -58 276 -67 ct 284 -76 289 -87 293 -99 ct 
296 -112 298 -126 298 -141 ct p ef
762 -243 m  762 -196 758 -157 749 -125 ct 740 -93 728 -68 713 -48 ct 697 -28 679 -14 659 -6 ct 
638 3 616 7 592 7 ct 569 7 547 3 526 -6 ct 506 -14 488 -28 473 -48 ct 458 -67 446 -93 438 -125 ct 
429 -157 425 -196 425 -243 ct 425 -292 429 -332 438 -365 ct 446 -397 458 -422 473 -441 ct 
488 -460 506 -474 527 -481 ct 548 -489 570 -493 595 -493 ct 618 -493 640 -489 660 -481 ct 
680 -474 698 -460 713 -441 ct 728 -422 740 -397 749 -365 ct 758 -332 762 -292 762 -243 ct 
p
699 -243 m  699 -282 697 -314 692 -339 ct 687 -365 681 -385 672 -401 ct 663 -416 652 -427 639 -433 ct 
626 -440 611 -443 595 -443 ct 577 -443 562 -439 548 -433 ct 535 -427 524 -416 515 -400 ct 
506 -385 499 -365 494 -339 ct 490 -313 487 -281 487 -243 ct 487 -206 490 -174 494 -149 ct 
499 -123 506 -103 515 -87 ct 524 -72 535 -61 548 -54 ct 561 -47 576 -44 593 -44 ct 
609 -44 624 -47 637 -54 ct 650 -61 661 -72 671 -87 ct 680 -103 687 -123 692 -149 ct 
697 -174 699 -206 699 -243 ct p ef
1159 -243 m  1159 -196 1155 -157 1146 -125 ct 1137 -93 1125 -68 1110 -48 ct 
1094 -28 1076 -14 1056 -6 ct 1035 3 1013 7 989 7 ct 966 7 944 3 923 -6 ct 903 -14 885 -28 870 -48 ct 
855 -67 843 -93 835 -125 ct 826 -157 822 -196 822 -243 ct 822 -292 826 -332 835 -365 ct 
843 -397 855 -422 870 -441 ct 885 -460 903 -474 924 -481 ct 945 -489 967 -493 992 -493 ct 
1015 -493 1037 -489 1057 -481 ct 1077 -474 1095 -460 1110 -441 ct 1125 -422 1137 -397 1146 -365 ct 
1155 -332 1159 -292 1159 -243 ct p
1096 -243 m  1096 -282 1094 -314 1089 -339 ct 1084 -365 1078 -385 1069 -401 ct 
1060 -416 1049 -427 1036 -433 ct 1023 -440 1008 -443 992 -443 ct 974 -443 959 -439 945 -433 ct 
932 -427 921 -416 912 -400 ct 903 -385 896 -365 891 -339 ct 887 -313 884 -281 884 -243 ct 
884 -206 887 -174 891 -149 ct 896 -123 903 -103 912 -87 ct 921 -72 932 -61 945 -54 ct 
958 -47 973 -44 990 -44 ct 1006 -44 1021 -47 1034 -54 ct 1047 -61 1058 -72 1068 -87 ct 
1077 -103 1084 -123 1089 -149 ct 1094 -174 1096 -206 1096 -243 ct p ef
pom
pum
5989 4762 t
476 -248 m  476 -207 470 -172 458 -141 ct 446 -110 429 -84 408 -63 ct 387 -42 362 -27 333 -16 ct 
304 -5 273 0 240 0 ct 58 0 l  58 -486 l  219 -486 l  256 -486 291 -481 322 -472 ct 
354 -462 381 -448 404 -429 ct 426 -409 444 -385 457 -355 ct 470 -325 476 -289 476 -248 ct 
p
410 -248 m  410 -281 405 -309 396 -332 ct 386 -355 373 -375 356 -390 ct 339 -405 319 -415 295 -422 ct 
271 -430 245 -433 217 -433 ct 124 -433 l  124 -53 l  232 -53 l  258 -53 281 -57 303 -65 ct 
325 -73 343 -86 359 -102 ct 375 -118 387 -139 396 -163 ct 405 -187 410 -216 410 -248 ct 
p ef
672 7 m  634 7 606 -3 587 -23 ct 568 -43 559 -70 559 -105 ct 559 -129 564 -149 573 -165 ct 
582 -181 594 -194 610 -203 ct 625 -212 642 -218 661 -221 ct 680 -225 700 -226 720 -226 ct 
804 -226 l  804 -247 l  804 -263 802 -276 799 -287 ct 796 -298 791 -307 784 -313 ct 
777 -320 769 -325 759 -328 ct 749 -331 737 -333 724 -333 ct 712 -333 701 -332 691 -330 ct 
682 -328 673 -325 666 -321 ct 659 -316 653 -310 649 -303 ct 645 -295 642 -285 640 -273 ct 
576 -279 l  578 -294 582 -307 589 -320 ct 595 -332 604 -343 616 -352 ct 628 -361 643 -368 661 -373 ct 
678 -378 700 -380 725 -380 ct 772 -380 807 -369 831 -348 ct 855 -326 866 -295 866 -254 ct 
866 -94 l  866 -75 869 -61 874 -52 ct 879 -43 888 -38 901 -38 ct 905 -38 908 -38 912 -39 ct 
915 -39 918 -40 922 -40 ct 922 -2 l  914 0 906 1 898 2 ct 891 3 882 4 874 4 ct 
862 4 852 2 844 -1 ct 835 -4 828 -9 823 -15 ct 818 -21 814 -29 811 -39 ct 808 -48 807 -59 806 -71 ct 
804 -71 l  797 -59 790 -49 782 -39 ct 774 -29 765 -21 754 -14 ct 744 -7 732 -2 718 1 ct 
705 5 689 7 672 7 ct p
686 -40 m  706 -40 723 -43 738 -50 ct 753 -58 765 -67 775 -78 ct 784 -89 792 -101 797 -115 ct 
801 -128 804 -140 804 -153 ct 804 -183 l  736 -183 l  721 -183 706 -182 693 -180 ct 
679 -178 667 -174 657 -168 ct 646 -163 638 -155 632 -144 ct 626 -134 623 -120 623 -103 ct 
623 -83 628 -67 639 -56 ct 650 -45 666 -40 686 -40 ct p ef
1117 -2 m  1108 0 1098 2 1088 4 ct 1078 5 1067 6 1054 6 ct 1005 6 980 -22 980 -79 ct 
980 -328 l  937 -328 l  937 -373 l  982 -373 l  1000 -456 l  1042 -456 l 
1042 -373 l  1111 -373 l  1111 -328 l  1042 -328 l  1042 -92 l  1042 -74 1045 -61 1051 -54 ct 
1056 -47 1067 -43 1081 -43 ct 1087 -43 1093 -44 1099 -45 ct 1104 -46 1110 -47 1117 -48 ct 
1117 -2 l  p ef
1281 7 m  1243 7 1215 -3 1196 -23 ct 1177 -43 1168 -70 1168 -105 ct 1168 -129 1173 -149 1182 -165 ct 
1191 -181 1203 -194 1219 -203 ct 1234 -212 1251 -218 1270 -221 ct 1289 -225 1309 -226 1329 -226 ct 
1413 -226 l  1413 -247 l  1413 -263 1411 -276 1408 -287 ct 1405 -298 1400 -307 1393 -313 ct 
1386 -320 1378 -325 1368 -328 ct 1358 -331 1346 -333 1333 -333 ct 1321 -333 1310 -332 1300 -330 ct 
1291 -328 1282 -325 1275 -321 ct 1268 -316 1262 -310 1258 -303 ct 1254 -295 1251 -285 1249 -273 ct 
1185 -279 l  1187 -294 1191 -307 1198 -320 ct 1204 -332 1213 -343 1225 -352 ct 
1237 -361 1252 -368 1270 -373 ct 1287 -378 1309 -380 1334 -380 ct 1381 -380 1416 -369 1440 -348 ct 
1464 -326 1475 -295 1475 -254 ct 1475 -94 l  1475 -75 1478 -61 1483 -52 ct 1488 -43 1497 -38 1510 -38 ct 
1514 -38 1517 -38 1521 -39 ct 1524 -39 1527 -40 1531 -40 ct 1531 -2 l  1523 0 1515 1 1507 2 ct 
1500 3 1491 4 1483 4 ct 1471 4 1461 2 1453 -1 ct 1444 -4 1437 -9 1432 -15 ct 1427 -21 1423 -29 1420 -39 ct 
1417 -48 1416 -59 1415 -71 ct 1413 -71 l  1406 -59 1399 -49 1391 -39 ct 1383 -29 1374 -21 1363 -14 ct 
1353 -7 1341 -2 1327 1 ct 1314 5 1298 7 1281 7 ct p
1295 -40 m  1315 -40 1332 -43 1347 -50 ct 1362 -58 1374 -67 1384 -78 ct 1393 -89 1401 -101 1406 -115 ct 
1410 -128 1413 -140 1413 -153 ct 1413 -183 l  1345 -183 l  1330 -183 1315 -182 1302 -180 ct 
1288 -178 1276 -174 1266 -168 ct 1255 -163 1247 -155 1241 -144 ct 1235 -134 1232 -120 1232 -103 ct 
1232 -83 1237 -67 1248 -56 ct 1259 -45 1275 -40 1295 -40 ct p ef
1862 -103 m  1862 -86 1859 -70 1852 -56 ct 1846 -43 1836 -31 1823 -22 ct 1810 -12 1794 -5 1775 0 ct 
1757 5 1735 7 1711 7 ct 1690 7 1670 5 1653 2 ct 1635 -1 1620 -7 1607 -14 ct 1594 -21 1583 -31 1574 -43 ct 
1565 -55 1559 -70 1555 -87 ct 1609 -98 l  1615 -78 1626 -64 1642 -54 ct 1659 -45 1682 -40 1711 -40 ct 
1724 -40 1737 -41 1748 -43 ct 1759 -45 1769 -48 1777 -52 ct 1785 -57 1791 -63 1795 -70 ct 
1800 -78 1802 -87 1802 -98 ct 1802 -109 1800 -119 1794 -126 ct 1789 -133 1782 -139 1772 -144 ct 
1763 -149 1751 -153 1738 -157 ct 1724 -160 1710 -164 1694 -169 ct 1679 -172 1664 -177 1649 -182 ct 
1634 -186 1621 -193 1609 -201 ct 1597 -209 1588 -219 1581 -230 ct 1573 -242 1569 -257 1569 -274 ct 
1569 -308 1582 -334 1606 -352 ct 1630 -370 1665 -379 1712 -379 ct 1753 -379 1786 -372 1810 -357 ct 
1834 -343 1850 -319 1856 -288 ct 1800 -281 l  1798 -290 1794 -298 1789 -305 ct 
1783 -311 1777 -317 1769 -321 ct 1761 -325 1752 -328 1742 -329 ct 1733 -331 1722 -332 1712 -332 ct 
1684 -332 1663 -328 1650 -319 ct 1636 -311 1630 -298 1630 -281 ct 1630 -271 1632 -262 1637 -256 ct 
1642 -249 1649 -244 1658 -239 ct 1667 -235 1677 -231 1690 -227 ct 1702 -224 1716 -220 1731 -217 ct 
1741 -214 1751 -212 1761 -209 ct 1771 -206 1782 -202 1791 -198 ct 1801 -194 1810 -190 1819 -184 ct 
1828 -179 1835 -172 1841 -165 ct 1848 -157 1853 -148 1857 -138 ct 1861 -128 1862 -116 1862 -103 ct 
p ef
2000 -173 m  2000 -154 2002 -136 2006 -119 ct 2010 -103 2016 -89 2025 -77 ct 
2033 -65 2044 -56 2057 -49 ct 2070 -43 2086 -40 2104 -40 ct 2131 -40 2153 -45 2169 -56 ct 
2185 -67 2196 -80 2202 -97 ct 2256 -81 l  2252 -71 2247 -61 2240 -50 ct 2233 -40 2224 -30 2212 -22 ct 
2200 -13 2185 -7 2168 -1 ct 2150 4 2129 7 2104 7 ct 2049 7 2007 -9 1978 -42 ct 
1949 -75 1935 -124 1935 -189 ct 1935 -224 1939 -253 1948 -278 ct 1957 -302 1969 -322 1984 -337 ct 
1999 -352 2017 -363 2037 -370 ct 2057 -376 2079 -380 2102 -380 ct 2133 -380 2159 -375 2180 -365 ct 
2201 -355 2218 -341 2231 -323 ct 2244 -305 2253 -284 2258 -260 ct 2264 -236 2266 -210 2266 -182 ct 
2266 -173 l  2000 -173 l  p
2202 -221 m  2199 -260 2189 -289 2172 -307 ct 2156 -325 2132 -334 2101 -334 ct 
2090 -334 2080 -332 2068 -329 ct 2057 -326 2046 -320 2037 -311 ct 2027 -303 2019 -291 2012 -277 ct 
2006 -262 2002 -244 2001 -221 ct 2202 -221 l  p ef
2493 -2 m  2484 0 2474 2 2464 4 ct 2454 5 2443 6 2430 6 ct 2381 6 2356 -22 2356 -79 ct 
2356 -328 l  2313 -328 l  2313 -373 l  2358 -373 l  2376 -456 l  2418 -456 l 
2418 -373 l  2487 -373 l  2487 -328 l  2418 -328 l  2418 -92 l  2418 -74 2421 -61 2427 -54 ct 
2432 -47 2443 -43 2457 -43 ct 2463 -43 2469 -44 2475 -45 ct 2480 -46 2486 -47 2493 -48 ct 
2493 -2 l  p ef
2789 -302 m  2789 -373 l  2857 -373 l  2857 -302 l  2789 -302 l  p
2789 0 m  2789 -71 l  2857 -71 l  2857 0 l  2789 0 l  p ef
3588 -134 m  3588 -114 3584 -95 3576 -77 ct 3568 -60 3555 -45 3539 -33 ct 3522 -20 3501 -11 3476 -4 ct 
3451 3 3421 7 3387 7 ct 3326 7 3279 -4 3246 -25 ct 3212 -46 3190 -76 3181 -116 ct 
3245 -129 l  3248 -117 3253 -105 3260 -95 ct 3266 -84 3275 -75 3287 -68 ct 3298 -61 3312 -55 3329 -51 ct 
3346 -46 3366 -44 3389 -44 ct 3409 -44 3427 -46 3443 -49 ct 3459 -53 3473 -58 3485 -65 ct 
3497 -72 3506 -81 3513 -91 ct 3519 -102 3522 -115 3522 -131 ct 3522 -146 3519 -159 3511 -169 ct 
3504 -179 3494 -187 3481 -194 ct 3468 -200 3452 -206 3434 -210 ct 3416 -214 3396 -219 3374 -224 ct 
3360 -227 3347 -230 3333 -234 ct 3319 -237 3306 -242 3294 -247 ct 3281 -252 3269 -257 3258 -264 ct 
3247 -271 3238 -279 3230 -288 ct 3222 -297 3215 -308 3211 -320 ct 3206 -333 3204 -347 3204 -363 ct 
3204 -386 3208 -406 3218 -422 ct 3227 -439 3240 -452 3257 -463 ct 3273 -473 3293 -481 3315 -486 ct 
3338 -491 3362 -493 3388 -493 ct 3418 -493 3444 -491 3465 -486 ct 3487 -481 3505 -474 3520 -465 ct 
3534 -455 3546 -444 3555 -430 ct 3564 -416 3571 -400 3576 -381 ct 3511 -370 l 
3508 -382 3503 -392 3497 -401 ct 3491 -410 3483 -418 3473 -424 ct 3464 -431 3452 -435 3437 -439 ct 
3423 -442 3407 -443 3388 -443 ct 3365 -443 3346 -441 3331 -437 ct 3316 -433 3303 -428 3294 -421 ct 
3285 -414 3278 -406 3274 -397 ct 3270 -387 3268 -377 3268 -366 ct 3268 -352 3272 -340 3279 -331 ct 
3286 -321 3296 -314 3308 -307 ct 3321 -301 3335 -296 3351 -292 ct 3368 -288 3385 -284 3403 -280 ct 
3418 -276 3433 -273 3448 -269 ct 3463 -265 3477 -261 3491 -256 ct 3504 -251 3517 -246 3529 -239 ct 
3541 -232 3551 -224 3560 -214 ct 3568 -205 3575 -193 3580 -180 ct 3585 -167 3588 -152 3588 -134 ct 
p ef
3987 -134 m  3987 -112 3983 -92 3976 -74 ct 3969 -57 3958 -42 3944 -30 ct 3930 -18 3913 -9 3892 -2 ct 
3872 4 3848 7 3822 7 ct 3792 7 3766 3 3746 -4 ct 3725 -12 3708 -22 3695 -34 ct 
3682 -46 3672 -60 3665 -76 ct 3658 -92 3654 -108 3652 -125 ct 3716 -131 l  3718 -118 3721 -106 3726 -95 ct 
3731 -85 3738 -76 3746 -68 ct 3755 -61 3765 -55 3778 -51 ct 3790 -46 3805 -44 3822 -44 ct 
3853 -44 3878 -52 3895 -67 ct 3913 -83 3922 -106 3922 -136 ct 3922 -154 3918 -168 3910 -179 ct 
3902 -190 3892 -199 3881 -205 ct 3869 -211 3856 -215 3842 -217 ct 3828 -219 3815 -220 3804 -220 ct 
3768 -220 l  3768 -274 l  3802 -274 l  3814 -274 3826 -275 3839 -278 ct 3851 -280 3863 -284 3873 -291 ct 
3884 -297 3892 -306 3899 -316 ct 3906 -327 3909 -341 3909 -358 ct 3909 -384 3902 -404 3886 -419 ct 
3871 -434 3849 -442 3818 -442 ct 3791 -442 3769 -435 3752 -421 ct 3735 -407 3725 -387 3723 -362 ct 
3660 -366 l  3663 -388 3669 -406 3678 -422 ct 3687 -438 3699 -451 3713 -462 ct 
3727 -472 3743 -480 3761 -485 ct 3779 -490 3799 -493 3819 -493 ct 3846 -493 3870 -490 3889 -483 ct 
3909 -476 3925 -467 3937 -455 ct 3949 -444 3959 -430 3964 -414 ct 3970 -399 3973 -382 3973 -364 ct 
3973 -350 3971 -337 3967 -324 ct 3963 -312 3957 -301 3949 -291 ct 3941 -281 3930 -273 3918 -265 ct 
3905 -258 3889 -253 3871 -249 ct 3871 -248 l  3891 -246 3908 -241 3923 -235 ct 
3937 -228 3949 -219 3958 -209 ct 3968 -199 3975 -188 3980 -175 ct 3984 -162 3987 -148 3987 -134 ct 
p ef
pom
pum
5692 11630 t
391 -373 m  391 -350 388 -328 381 -308 ct 375 -288 365 -271 353 -256 ct 340 -241 325 -229 306 -221 ct 
287 -212 265 -208 240 -208 ct 111 -208 l  111 0 l  52 0 l  52 -534 l  236 -534 l 
262 -534 285 -530 304 -522 ct 323 -515 340 -504 352 -490 ct 365 -476 375 -459 381 -439 ct 
388 -419 391 -397 391 -373 ct p
331 -373 m  331 -406 323 -432 306 -450 ct 289 -467 263 -476 229 -476 ct 111 -476 l 
111 -265 l  232 -265 l  266 -265 291 -275 307 -293 ct 323 -311 331 -338 331 -373 ct 
p ef
551 8 m  518 8 492 -3 475 -25 ct 458 -47 450 -77 450 -115 ct 450 -142 454 -164 463 -182 ct 
471 -199 482 -213 496 -223 ct 509 -232 525 -239 542 -243 ct 559 -247 577 -249 595 -249 ct 
671 -249 l  671 -271 l  671 -289 669 -303 666 -315 ct 664 -327 659 -337 653 -344 ct 
647 -352 639 -357 630 -361 ct 621 -364 611 -366 598 -366 ct 588 -366 578 -365 569 -363 ct 
561 -361 553 -358 547 -353 ct 540 -348 535 -341 531 -333 ct 527 -324 525 -313 523 -301 ct 
465 -307 l  467 -323 471 -338 477 -352 ct 483 -365 491 -377 501 -387 ct 512 -397 525 -404 541 -410 ct 
557 -415 577 -418 600 -418 ct 642 -418 674 -406 695 -382 ct 717 -359 727 -325 727 -280 ct 
727 -103 l  727 -83 729 -68 734 -57 ct 738 -47 746 -42 759 -42 ct 762 -42 765 -42 768 -43 ct 
771 -43 774 -44 777 -45 ct 777 -2 l  770 0 763 1 756 2 ct 749 3 742 4 734 4 ct 
723 4 714 2 706 -1 ct 699 -5 693 -10 688 -17 ct 683 -24 680 -32 677 -42 ct 675 -53 673 -64 672 -78 ct 
671 -78 l  665 -65 658 -53 651 -42 ct 644 -32 635 -23 626 -15 ct 616 -8 606 -2 593 2 ct 
581 6 567 8 551 8 ct p
564 -43 m  582 -43 598 -47 611 -55 ct 624 -63 635 -73 644 -85 ct 653 -98 660 -111 664 -126 ct 
669 -140 671 -154 671 -168 ct 671 -201 l  609 -201 l  596 -201 583 -200 570 -198 ct 
558 -196 547 -191 538 -185 ct 529 -179 521 -170 516 -158 ct 510 -147 508 -132 508 -113 ct 
508 -91 512 -74 522 -62 ct 532 -49 546 -43 564 -43 ct p ef
811 0 m  811 -315 l  811 -315 811 -324 811 -341 ct 811 -350 811 -359 811 -367 ct 
810 -376 810 -383 810 -391 ct 810 -398 809 -405 809 -410 ct 862 -410 l  862 -405 863 -398 863 -390 ct 
863 -383 863 -375 864 -368 ct 864 -360 864 -352 864 -345 ct 864 -327 l  866 -327 l 
870 -342 874 -356 878 -367 ct 883 -379 888 -388 894 -396 ct 900 -403 907 -409 916 -413 ct 
924 -416 934 -418 945 -418 ct 950 -418 954 -418 959 -417 ct 963 -416 966 -415 968 -414 ct 
968 -352 l  964 -353 960 -354 955 -354 ct 950 -355 945 -355 938 -355 ct 925 -355 914 -352 905 -345 ct 
897 -338 889 -328 884 -315 ct 878 -303 874 -288 871 -271 ct 868 -253 867 -234 867 -214 ct 
867 0 l  811 0 l  p ef
1151 -3 m  1143 0 1134 2 1125 4 ct 1116 5 1106 6 1095 6 ct 1050 6 1028 -25 1028 -87 ct 
1028 -361 l  988 -361 l  988 -411 l  1030 -411 l  1046 -503 l  1084 -503 l 
1084 -411 l  1146 -411 l  1146 -361 l  1084 -361 l  1084 -102 l  1084 -82 1086 -68 1092 -60 ct 
1097 -52 1106 -48 1119 -48 ct 1124 -48 1129 -49 1135 -50 ct 1140 -51 1145 -52 1151 -54 ct 
1151 -3 l  p ef
1206 -498 m  1206 -563 l  1263 -563 l  1263 -498 l  1206 -498 l  p
1206 0 m  1206 -410 l  1263 -410 l  1263 0 l  1206 0 l  p ef
1382 -207 m  1382 -183 1383 -162 1386 -142 ct 1389 -122 1393 -105 1400 -91 ct 
1406 -77 1415 -65 1426 -58 ct 1437 -50 1450 -46 1467 -46 ct 1486 -46 1503 -52 1516 -66 ct 
1530 -79 1538 -99 1541 -126 ct 1598 -122 l  1596 -105 1592 -88 1585 -73 ct 1579 -57 1571 -43 1560 -31 ct 
1549 -20 1536 -10 1521 -3 ct 1506 4 1488 8 1468 8 ct 1442 8 1419 3 1401 -8 ct 1382 -19 1367 -34 1356 -53 ct 
1344 -72 1336 -95 1331 -121 ct 1326 -147 1323 -175 1323 -205 ct 1323 -233 1325 -257 1329 -278 ct 
1332 -299 1338 -318 1344 -333 ct 1351 -349 1359 -363 1368 -373 ct 1377 -384 1387 -393 1398 -399 ct 
1408 -406 1420 -410 1431 -413 ct 1443 -416 1455 -417 1467 -417 ct 1486 -417 1503 -414 1518 -408 ct 
1532 -402 1545 -393 1556 -382 ct 1566 -371 1575 -358 1582 -343 ct 1588 -328 1593 -312 1596 -295 ct 
1538 -290 l  1535 -312 1528 -331 1516 -344 ct 1504 -357 1487 -364 1466 -364 ct 
1450 -364 1437 -361 1426 -354 ct 1415 -348 1406 -338 1400 -325 ct 1393 -312 1389 -296 1386 -276 ct 
1383 -256 1382 -233 1382 -207 ct p ef
1656 -498 m  1656 -563 l  1713 -563 l  1713 -498 l  1656 -498 l  p
1656 0 m  1656 -410 l  1713 -410 l  1713 0 l  1656 0 l  p ef
2073 -207 m  2073 -176 2071 -147 2067 -121 ct 2063 -95 2056 -72 2046 -53 ct 
2037 -34 2024 -19 2008 -9 ct 1992 2 1973 7 1949 7 ct 1925 7 1904 2 1886 -9 ct 1868 -20 1855 -39 1845 -64 ct 
1843 -64 l  1844 -63 1844 -61 1844 -57 ct 1844 -53 1844 -48 1844 -42 ct 1844 -36 1845 -29 1845 -22 ct 
1845 -14 1845 -7 1845 1 ct 1845 161 l  1789 161 l  1789 -328 l  1789 -338 1789 -347 1789 -357 ct 
1789 -366 1788 -374 1788 -381 ct 1788 -389 1788 -395 1788 -401 ct 1787 -406 1787 -409 1787 -409 ct 
1841 -409 l  1841 -408 1842 -406 1842 -403 ct 1843 -386 l  1843 -380 1844 -373 1844 -365 ct 
1844 -358 1844 -351 1844 -345 ct 1845 -345 l  1850 -358 1856 -369 1863 -378 ct 
1870 -387 1877 -395 1886 -401 ct 1894 -407 1904 -411 1914 -414 ct 1925 -416 1936 -418 1949 -418 ct 
1973 -418 1992 -413 2008 -403 ct 2024 -392 2037 -378 2046 -360 ct 2056 -342 2063 -319 2067 -294 ct 
2071 -268 2073 -239 2073 -207 ct p
2014 -206 m  2014 -231 2013 -254 2011 -273 ct 2008 -293 2004 -310 1998 -323 ct 
1992 -337 1983 -347 1973 -354 ct 1963 -361 1950 -365 1935 -365 ct 1923 -365 1911 -363 1900 -359 ct 
1889 -354 1879 -346 1871 -334 ct 1863 -322 1857 -305 1852 -284 ct 1847 -262 1845 -235 1845 -200 ct 
1845 -171 1847 -147 1851 -127 ct 1855 -107 1860 -90 1868 -78 ct 1876 -66 1885 -57 1896 -51 ct 
1907 -46 1920 -43 1935 -43 ct 1950 -43 1963 -47 1973 -54 ct 1983 -61 1992 -72 1998 -86 ct 
2004 -100 2008 -117 2011 -137 ct 2013 -157 2014 -180 2014 -206 ct p ef
2218 8 m  2185 8 2159 -3 2142 -25 ct 2125 -47 2117 -77 2117 -115 ct 2117 -142 2121 -164 2130 -182 ct 
2138 -199 2149 -213 2163 -223 ct 2176 -232 2192 -239 2209 -243 ct 2226 -247 2244 -249 2262 -249 ct 
2338 -249 l  2338 -271 l  2338 -289 2336 -303 2333 -315 ct 2331 -327 2326 -337 2320 -344 ct 
2314 -352 2306 -357 2297 -361 ct 2288 -364 2278 -366 2265 -366 ct 2255 -366 2245 -365 2236 -363 ct 
2228 -361 2220 -358 2214 -353 ct 2207 -348 2202 -341 2198 -333 ct 2194 -324 2192 -313 2190 -301 ct 
2132 -307 l  2134 -323 2138 -338 2144 -352 ct 2150 -365 2158 -377 2168 -387 ct 
2179 -397 2192 -404 2208 -410 ct 2224 -415 2244 -418 2267 -418 ct 2309 -418 2341 -406 2362 -382 ct 
2384 -359 2394 -325 2394 -280 ct 2394 -103 l  2394 -83 2396 -68 2401 -57 ct 
2405 -47 2413 -42 2426 -42 ct 2429 -42 2432 -42 2435 -43 ct 2438 -43 2441 -44 2444 -45 ct 
2444 -2 l  2437 0 2430 1 2423 2 ct 2416 3 2409 4 2401 4 ct 2390 4 2381 2 2373 -1 ct 
2366 -5 2360 -10 2355 -17 ct 2350 -24 2347 -32 2344 -42 ct 2342 -53 2340 -64 2339 -78 ct 
2338 -78 l  2332 -65 2325 -53 2318 -42 ct 2311 -32 2302 -23 2293 -15 ct 2283 -8 2273 -2 2260 2 ct 
2248 6 2234 8 2218 8 ct p
2231 -43 m  2249 -43 2265 -47 2278 -55 ct 2291 -63 2302 -73 2311 -85 ct 2320 -98 2327 -111 2331 -126 ct 
2336 -140 2338 -154 2338 -168 ct 2338 -201 l  2276 -201 l  2263 -201 2250 -200 2237 -198 ct 
2225 -196 2214 -191 2205 -185 ct 2196 -179 2188 -170 2183 -158 ct 2177 -147 2175 -132 2175 -113 ct 
2175 -91 2179 -74 2189 -62 ct 2199 -49 2213 -43 2231 -43 ct p ef
2606 -3 m  2598 0 2589 2 2580 4 ct 2571 5 2561 6 2550 6 ct 2505 6 2483 -25 2483 -87 ct 
2483 -361 l  2443 -361 l  2443 -411 l  2485 -411 l  2501 -503 l  2539 -503 l 
2539 -411 l  2601 -411 l  2601 -361 l  2539 -361 l  2539 -102 l  2539 -82 2541 -68 2547 -60 ct 
2552 -52 2561 -48 2574 -48 ct 2579 -48 2584 -49 2590 -50 ct 2595 -51 2600 -52 2606 -54 ct 
2606 -3 l  p ef
2661 -498 m  2661 -563 l  2718 -563 l  2718 -498 l  2661 -498 l  p
2661 0 m  2661 -410 l  2718 -410 l  2718 0 l  2661 0 l  p ef
3079 -205 m  3079 -133 3066 -80 3040 -45 ct 3014 -10 2977 8 2927 8 ct 2904 8 2883 4 2865 -5 ct 
2846 -13 2831 -27 2818 -44 ct 2805 -62 2796 -84 2789 -111 ct 2782 -138 2779 -169 2779 -205 ct 
2779 -347 2829 -417 2929 -417 ct 2955 -417 2978 -413 2997 -404 ct 3016 -395 3032 -382 3044 -364 ct 
3056 -347 3065 -325 3070 -298 ct 3076 -271 3079 -240 3079 -205 ct p
3020 -205 m  3020 -237 3018 -263 3014 -284 ct 3010 -305 3005 -321 2997 -334 ct 
2989 -346 2979 -355 2968 -360 ct 2957 -365 2944 -367 2930 -367 ct 2916 -367 2903 -364 2892 -359 ct 
2880 -354 2870 -345 2862 -333 ct 2854 -320 2848 -304 2844 -283 ct 2840 -262 2838 -236 2838 -205 ct 
2838 -173 2840 -147 2844 -126 ct 2849 -105 2855 -89 2863 -76 ct 2871 -64 2881 -55 2891 -50 ct 
2902 -45 2914 -42 2927 -42 ct 2941 -42 2954 -45 2966 -50 ct 2977 -55 2987 -63 2995 -76 ct 
3003 -88 3010 -105 3014 -126 ct 3018 -147 3020 -173 3020 -205 ct p ef
3353 0 m  3353 -260 l  3353 -280 3351 -297 3349 -310 ct 3347 -324 3343 -335 3337 -343 ct 
3332 -351 3325 -357 3316 -360 ct 3307 -364 3296 -365 3283 -365 ct 3270 -365 3258 -362 3247 -357 ct 
3237 -351 3227 -343 3220 -332 ct 3212 -321 3206 -308 3202 -292 ct 3198 -276 3196 -258 3196 -238 ct 
3196 0 l  3140 0 l  3140 -324 l  3140 -324 3140 -333 3140 -351 ct 3140 -360 3140 -369 3140 -378 ct 
3139 -386 3139 -394 3139 -400 ct 3139 -406 3138 -409 3138 -409 ct 3191 -409 l 
3191 -408 3192 -404 3192 -399 ct 3192 -393 3192 -387 3192 -380 ct 3193 -373 3193 -366 3193 -359 ct 
3193 -351 3193 -345 3193 -340 ct 3195 -340 l  3200 -352 3206 -363 3212 -372 ct 
3219 -382 3226 -390 3234 -397 ct 3243 -404 3253 -409 3264 -413 ct 3275 -416 3287 -418 3302 -418 ct 
3321 -418 3337 -415 3350 -410 ct 3364 -404 3375 -396 3383 -384 ct 3392 -372 3398 -357 3403 -339 ct 
3407 -321 3409 -299 3409 -274 ct 3409 0 l  3353 0 l  p ef
3684 0 m  3684 -535 l  3743 -535 l  3743 0 l  3684 0 l  p ef
4067 0 m  4067 -260 l  4067 -280 4065 -297 4063 -310 ct 4061 -324 4057 -335 4051 -343 ct 
4046 -351 4039 -357 4030 -360 ct 4021 -364 4010 -365 3997 -365 ct 3984 -365 3972 -362 3961 -357 ct 
3951 -351 3941 -343 3934 -332 ct 3926 -321 3920 -308 3916 -292 ct 3912 -276 3910 -258 3910 -238 ct 
3910 0 l  3854 0 l  3854 -324 l  3854 -324 3854 -333 3854 -351 ct 3854 -360 3854 -369 3854 -378 ct 
3853 -386 3853 -394 3853 -400 ct 3853 -406 3852 -409 3852 -409 ct 3905 -409 l 
3905 -408 3906 -404 3906 -399 ct 3906 -393 3906 -387 3906 -380 ct 3907 -373 3907 -366 3907 -359 ct 
3907 -351 3907 -345 3907 -340 ct 3909 -340 l  3914 -352 3920 -363 3926 -372 ct 
3933 -382 3940 -390 3948 -397 ct 3957 -404 3967 -409 3978 -413 ct 3989 -416 4001 -418 4016 -418 ct 
4035 -418 4051 -415 4064 -410 ct 4078 -404 4089 -396 4097 -384 ct 4106 -372 4112 -357 4117 -339 ct 
4121 -321 4123 -299 4123 -274 ct 4123 0 l  4067 0 l  p ef
4409 -66 m  4399 -40 4385 -21 4368 -9 ct 4351 2 4330 8 4304 8 ct 4262 8 4231 -10 4211 -45 ct 
4191 -80 4181 -132 4181 -203 ct 4181 -346 4222 -418 4304 -418 ct 4330 -418 4351 -412 4368 -401 ct 
4385 -390 4399 -371 4409 -347 ct 4410 -347 l  4410 -349 4410 -353 4409 -359 ct 
4409 -376 l  4409 -382 4409 -387 4409 -393 ct 4409 -404 l  4409 -563 l  4465 -563 l 
4465 -83 l  4465 -73 4465 -63 4465 -54 ct 4465 -45 4466 -37 4466 -29 ct 4466 -22 4466 -15 4466 -10 ct 
4466 -4 4467 -1 4467 -1 ct 4414 -1 l  4413 -4 4413 -7 4412 -12 ct 4412 -17 4412 -22 4411 -28 ct 
4411 -34 4411 -40 4411 -46 ct 4411 -53 4411 -59 4411 -66 ct 4409 -66 l  p
4240 -206 m  4240 -177 4241 -153 4244 -133 ct 4247 -112 4251 -96 4258 -83 ct 
4264 -70 4272 -60 4282 -54 ct 4292 -48 4304 -45 4319 -45 ct 4333 -45 4346 -48 4358 -54 ct 
4369 -60 4378 -69 4386 -82 ct 4393 -95 4399 -112 4403 -133 ct 4407 -154 4409 -180 4409 -210 ct 
4409 -239 4407 -264 4403 -284 ct 4399 -304 4393 -320 4386 -333 ct 4378 -345 4369 -354 4358 -359 ct 
4347 -365 4334 -368 4319 -368 ct 4306 -368 4294 -365 4284 -359 ct 4274 -353 4266 -344 4259 -331 ct 
4252 -318 4248 -301 4244 -280 ct 4241 -260 4240 -235 4240 -206 ct p ef
4581 -191 m  4581 -169 4583 -149 4588 -131 ct 4592 -113 4598 -97 4606 -84 ct 
4614 -71 4623 -61 4635 -54 ct 4647 -47 4661 -43 4678 -43 ct 4702 -43 4721 -49 4736 -61 ct 
4751 -73 4760 -88 4766 -106 ct 4815 -89 l  4811 -78 4806 -66 4800 -55 ct 4794 -43 4785 -33 4775 -24 ct 
4764 -14 4751 -7 4735 -1 ct 4719 5 4700 8 4678 8 ct 4628 8 4590 -10 4564 -46 ct 
4538 -82 4525 -136 4525 -207 ct 4525 -246 4529 -278 4537 -305 ct 4545 -332 4556 -353 4569 -370 ct 
4583 -387 4599 -399 4617 -406 ct 4635 -414 4655 -417 4675 -417 ct 4704 -417 4727 -412 4746 -401 ct 
4783 -379 4806 -341 4816 -286 ct 4821 -259 4823 -231 4823 -200 ct 4823 -191 l 
4581 -191 l  p
4767 -243 m  4767 -289 4759 -321 4742 -339 ct 4725 -358 4702 -367 4675 -367 ct 
4655 -367 4636 -359 4617 -342 ct 4594 -323 4582 -290 4581 -243 ct 4767 -243 l 
p ef
5091 0 m  5000 -168 l  4909 0 l  4849 0 l  4969 -211 l  4855 -410 l  4917 -410 l 
5000 -251 l  5084 -410 l  5146 -410 l  5032 -212 l  5153 0 l  5091 0 l 
p ef
5542 -475 m  5542 1 l  5483 1 l  5483 -475 l  5332 -475 l  5332 -534 l 
5692 -534 l  5692 -475 l  5542 -475 l  p ef
5814 -340 m  5820 -354 5827 -366 5834 -376 ct 5841 -385 5849 -393 5858 -400 ct 
5866 -406 5876 -411 5886 -414 ct 5897 -417 5908 -418 5921 -418 ct 5943 -418 5960 -414 5974 -407 ct 
5988 -400 5999 -390 6007 -378 ct 6015 -365 6020 -350 6023 -332 ct 6026 -314 6028 -295 6028 -274 ct 
6028 0 l  5972 0 l  5972 -260 l  5972 -278 5971 -293 5969 -306 ct 5967 -319 5964 -330 5959 -339 ct 
5954 -348 5947 -354 5937 -359 ct 5928 -363 5917 -365 5902 -365 ct 5889 -365 5877 -362 5866 -357 ct 
5856 -351 5846 -343 5839 -332 ct 5831 -321 5825 -308 5821 -293 ct 5817 -278 5815 -261 5815 -242 ct 
5815 0 l  5759 0 l  5759 -563 l  5815 -563 l  5815 -416 l  5815 -408 5815 -400 5815 -391 ct 
5814 -383 5814 -375 5814 -368 ct 5814 -361 5813 -355 5813 -350 ct 5813 -345 5813 -342 5812 -340 ct 
5814 -340 l  p ef
6103 0 m  6103 -315 l  6103 -315 6103 -324 6103 -341 ct 6103 -350 6103 -359 6103 -367 ct 
6102 -376 6102 -383 6102 -391 ct 6102 -398 6101 -405 6101 -410 ct 6154 -410 l 
6154 -405 6155 -398 6155 -390 ct 6155 -383 6155 -375 6156 -368 ct 6156 -360 6156 -352 6156 -345 ct 
6156 -327 l  6158 -327 l  6162 -342 6166 -356 6170 -367 ct 6175 -379 6180 -388 6186 -396 ct 
6192 -403 6199 -409 6208 -413 ct 6216 -416 6226 -418 6237 -418 ct 6242 -418 6246 -418 6251 -417 ct 
6255 -416 6258 -415 6260 -414 ct 6260 -352 l  6256 -353 6252 -354 6247 -354 ct 
6242 -355 6237 -355 6230 -355 ct 6217 -355 6206 -352 6197 -345 ct 6189 -338 6181 -328 6176 -315 ct 
6170 -303 6166 -288 6163 -271 ct 6160 -253 6159 -234 6159 -214 ct 6159 0 l  6103 0 l 
p ef
6354 -191 m  6354 -169 6356 -149 6361 -131 ct 6365 -113 6371 -97 6379 -84 ct 
6387 -71 6396 -61 6408 -54 ct 6420 -47 6434 -43 6451 -43 ct 6475 -43 6494 -49 6509 -61 ct 
6524 -73 6533 -88 6539 -106 ct 6588 -89 l  6584 -78 6579 -66 6573 -55 ct 6567 -43 6558 -33 6548 -24 ct 
6537 -14 6524 -7 6508 -1 ct 6492 5 6473 8 6451 8 ct 6401 8 6363 -10 6337 -46 ct 
6311 -82 6298 -136 6298 -207 ct 6298 -246 6302 -278 6310 -305 ct 6318 -332 6329 -353 6342 -370 ct 
6356 -387 6372 -399 6390 -406 ct 6408 -414 6428 -417 6448 -417 ct 6477 -417 6500 -412 6519 -401 ct 
6556 -379 6579 -341 6589 -286 ct 6594 -259 6596 -231 6596 -200 ct 6596 -191 l 
6354 -191 l  p
6540 -243 m  6540 -289 6532 -321 6515 -339 ct 6498 -358 6475 -367 6448 -367 ct 
6428 -367 6409 -359 6390 -342 ct 6367 -323 6355 -290 6354 -243 ct 6540 -243 l 
p ef
6910 -113 m  6910 -94 6907 -77 6901 -62 ct 6895 -47 6886 -34 6875 -24 ct 6863 -13 6849 -6 6832 0 ct 
6815 5 6795 8 6774 8 ct 6754 8 6737 6 6721 3 ct 6705 -1 6692 -7 6680 -15 ct 6668 -23 6658 -34 6650 -47 ct 
6642 -60 6637 -77 6633 -96 ct 6682 -108 l  6687 -86 6697 -70 6712 -59 ct 6727 -49 6747 -44 6774 -44 ct 
6786 -44 6797 -45 6807 -47 ct 6817 -49 6826 -53 6833 -57 ct 6840 -62 6846 -69 6850 -77 ct 
6854 -85 6856 -96 6856 -108 ct 6856 -120 6854 -130 6849 -138 ct 6844 -146 6837 -153 6829 -158 ct 
6820 -164 6810 -168 6798 -172 ct 6758 -185 l  6744 -189 6731 -194 6718 -200 ct 
6705 -205 6693 -212 6682 -221 ct 6671 -229 6663 -240 6656 -253 ct 6649 -266 6646 -282 6646 -302 ct 
6646 -339 6657 -368 6679 -387 ct 6701 -407 6733 -417 6775 -417 ct 6812 -417 6841 -409 6863 -393 ct 
6885 -377 6899 -351 6904 -316 ct 6854 -308 l  6852 -319 6849 -328 6844 -335 ct 
6839 -342 6833 -348 6826 -353 ct 6819 -357 6811 -360 6802 -362 ct 6793 -364 6784 -365 6775 -365 ct 
6749 -365 6731 -360 6719 -351 ct 6707 -342 6701 -327 6701 -308 ct 6701 -297 6703 -288 6707 -281 ct 
6712 -274 6718 -268 6726 -263 ct 6734 -258 6743 -254 6754 -250 ct 6792 -238 l 
6792 -238 6801 -235 6819 -230 ct 6828 -226 6837 -222 6846 -218 ct 6855 -214 6863 -208 6871 -202 ct 
6879 -196 6885 -189 6891 -181 ct 6897 -173 6902 -163 6905 -152 ct 6908 -141 6910 -128 6910 -113 ct 
p ef
7031 -340 m  7037 -354 7044 -366 7051 -376 ct 7058 -385 7066 -393 7075 -400 ct 
7083 -406 7093 -411 7103 -414 ct 7114 -417 7125 -418 7138 -418 ct 7160 -418 7177 -414 7191 -407 ct 
7205 -400 7216 -390 7224 -378 ct 7232 -365 7237 -350 7240 -332 ct 7243 -314 7245 -295 7245 -274 ct 
7245 0 l  7189 0 l  7189 -260 l  7189 -278 7188 -293 7186 -306 ct 7184 -319 7181 -330 7176 -339 ct 
7171 -348 7164 -354 7154 -359 ct 7145 -363 7134 -365 7119 -365 ct 7106 -365 7094 -362 7083 -357 ct 
7073 -351 7063 -343 7056 -332 ct 7048 -321 7042 -308 7038 -293 ct 7034 -278 7032 -261 7032 -242 ct 
7032 0 l  6976 0 l  6976 -563 l  7032 -563 l  7032 -416 l  7032 -408 7032 -400 7032 -391 ct 
7031 -383 7031 -375 7031 -368 ct 7031 -361 7030 -355 7030 -350 ct 7030 -345 7030 -342 7029 -340 ct 
7031 -340 l  p ef
7603 -205 m  7603 -133 7590 -80 7564 -45 ct 7538 -10 7501 8 7451 8 ct 7428 8 7407 4 7389 -5 ct 
7370 -13 7355 -27 7342 -44 ct 7329 -62 7320 -84 7313 -111 ct 7306 -138 7303 -169 7303 -205 ct 
7303 -347 7353 -417 7453 -417 ct 7479 -417 7502 -413 7521 -404 ct 7540 -395 7556 -382 7568 -364 ct 
7580 -347 7589 -325 7594 -298 ct 7600 -271 7603 -240 7603 -205 ct p
7544 -205 m  7544 -237 7542 -263 7538 -284 ct 7534 -305 7529 -321 7521 -334 ct 
7513 -346 7503 -355 7492 -360 ct 7481 -365 7468 -367 7454 -367 ct 7440 -367 7427 -364 7416 -359 ct 
7404 -354 7394 -345 7386 -333 ct 7378 -320 7372 -304 7368 -283 ct 7364 -262 7362 -236 7362 -205 ct 
7362 -173 7364 -147 7368 -126 ct 7373 -105 7379 -89 7387 -76 ct 7395 -64 7405 -55 7415 -50 ct 
7426 -45 7438 -42 7451 -42 ct 7465 -42 7478 -45 7490 -50 ct 7501 -55 7511 -63 7519 -76 ct 
7527 -88 7534 -105 7538 -126 ct 7542 -147 7544 -173 7544 -205 ct p ef
7663 0 m  7663 -563 l  7719 -563 l  7719 0 l  7663 0 l  p ef
8007 -66 m  7997 -40 7983 -21 7966 -9 ct 7949 2 7928 8 7902 8 ct 7860 8 7829 -10 7809 -45 ct 
7789 -80 7779 -132 7779 -203 ct 7779 -346 7820 -418 7902 -418 ct 7928 -418 7949 -412 7966 -401 ct 
7983 -390 7997 -371 8007 -347 ct 8008 -347 l  8008 -349 8008 -353 8007 -359 ct 
8007 -376 l  8007 -382 8007 -387 8007 -393 ct 8007 -404 l  8007 -563 l  8063 -563 l 
8063 -83 l  8063 -73 8063 -63 8063 -54 ct 8063 -45 8064 -37 8064 -29 ct 8064 -22 8064 -15 8064 -10 ct 
8064 -4 8065 -1 8065 -1 ct 8012 -1 l  8011 -4 8011 -7 8010 -12 ct 8010 -17 8010 -22 8009 -28 ct 
8009 -34 8009 -40 8009 -46 ct 8009 -53 8009 -59 8009 -66 ct 8007 -66 l  p
7838 -206 m  7838 -177 7839 -153 7842 -133 ct 7845 -112 7849 -96 7856 -83 ct 
7862 -70 7870 -60 7880 -54 ct 7890 -48 7902 -45 7917 -45 ct 7931 -45 7944 -48 7956 -54 ct 
7967 -60 7976 -69 7984 -82 ct 7991 -95 7997 -112 8001 -133 ct 8005 -154 8007 -180 8007 -210 ct 
8007 -239 8005 -264 8001 -284 ct 7997 -304 7991 -320 7984 -333 ct 7976 -345 7967 -354 7956 -359 ct 
7945 -365 7932 -368 7917 -368 ct 7904 -368 7892 -365 7882 -359 ct 7872 -353 7864 -344 7857 -331 ct 
7850 -318 7846 -301 7842 -280 ct 7839 -260 7838 -235 7838 -206 ct p ef
pom
pum
1372 9508 t
89.9 r 441 0 m  302 -222 l  136 -222 l  136 0 l  64 0 l  64 -535 l  315 -535 l 
345 -535 372 -532 395 -525 ct 419 -518 438 -508 454 -494 ct 470 -481 482 -465 491 -446 ct 
499 -427 503 -406 503 -382 ct 503 -365 501 -348 496 -332 ct 491 -315 483 -300 472 -287 ct 
462 -273 448 -261 432 -251 ct 416 -241 396 -234 373 -230 ct 524 0 l  441 0 l 
p
430 -381 m  430 -397 428 -411 422 -423 ct 417 -435 408 -445 398 -453 ct 387 -461 374 -467 359 -471 ct 
344 -475 327 -477 308 -477 ct 136 -477 l  136 -279 l  311 -279 l  331 -279 349 -282 365 -287 ct 
380 -292 392 -299 402 -309 ct 412 -318 419 -328 423 -341 ct 428 -353 430 -367 430 -381 ct 
p ef
675 -410 m  675 -150 l  675 -130 676 -113 679 -100 ct 682 -86 687 -76 694 -67 ct 
700 -59 709 -53 720 -50 ct 730 -46 744 -45 759 -45 ct 776 -45 790 -48 803 -53 ct 
816 -59 827 -67 837 -78 ct 846 -89 853 -102 858 -118 ct 863 -134 866 -152 866 -172 ct 
866 -410 l  934 -410 l  934 -86 l  934 -77 934 -68 934 -59 ct 934 -49 934 -40 935 -32 ct 
935 -23 935 -16 935 -10 ct 936 -4 936 -1 936 -1 ct 872 -1 l  871 -2 871 -5 871 -11 ct 
871 -16 870 -23 870 -30 ct 870 -37 869 -44 869 -51 ct 869 -59 869 -65 869 -70 ct 
867 -70 l  861 -58 854 -47 846 -38 ct 838 -28 829 -20 819 -13 ct 808 -6 796 -1 783 3 ct 
770 6 754 8 736 8 ct 714 8 694 5 678 0 ct 661 -6 648 -15 637 -26 ct 626 -38 619 -53 614 -71 ct 
609 -89 606 -111 606 -137 ct 606 -410 l  675 -410 l  p ef
1292 0 m  1292 -260 l  1292 -280 1290 -297 1287 -310 ct 1284 -324 1280 -335 1273 -343 ct 
1266 -351 1258 -357 1247 -360 ct 1236 -364 1223 -365 1207 -365 ct 1191 -365 1176 -362 1163 -357 ct 
1150 -351 1139 -343 1130 -332 ct 1121 -321 1114 -308 1109 -292 ct 1104 -276 1101 -258 1101 -238 ct 
1101 0 l  1033 0 l  1033 -324 l  1033 -332 1033 -341 1033 -351 ct 1032 -360 1032 -369 1032 -378 ct 
1032 -386 1032 -394 1031 -400 ct 1031 -406 1031 -409 1031 -409 ct 1095 -409 l 
1095 -408 1095 -404 1096 -399 ct 1096 -393 1096 -387 1097 -380 ct 1097 -373 1097 -366 1098 -359 ct 
1098 -351 1098 -345 1098 -340 ct 1099 -340 l  1106 -352 1113 -363 1121 -372 ct 
1129 -382 1138 -390 1148 -397 ct 1158 -404 1170 -409 1184 -413 ct 1197 -416 1213 -418 1230 -418 ct 
1253 -418 1273 -415 1289 -410 ct 1305 -404 1319 -396 1329 -384 ct 1340 -372 1348 -357 1353 -339 ct 
1358 -321 1360 -299 1360 -274 ct 1360 0 l  1292 0 l  p ef
1612 -3 m  1602 0 1591 2 1580 4 ct 1570 5 1557 6 1543 6 ct 1488 6 1461 -25 1461 -87 ct 
1461 -361 l  1414 -361 l  1414 -411 l  1464 -411 l  1484 -503 l  1529 -503 l 
1529 -411 l  1605 -411 l  1605 -361 l  1529 -361 l  1529 -102 l  1529 -82 1533 -68 1539 -60 ct 
1545 -52 1557 -48 1573 -48 ct 1579 -48 1585 -49 1592 -50 ct 1598 -51 1605 -52 1612 -54 ct 
1612 -3 l  p ef
1666 -498 m  1666 -563 l  1734 -563 l  1734 -498 l  1666 -498 l  p
1666 0 m  1666 -410 l  1734 -410 l  1734 0 l  1666 0 l  p ef
2064 0 m  2064 -260 l  2064 -280 2063 -297 2060 -310 ct 2058 -324 2053 -335 2048 -343 ct 
2042 -351 2034 -357 2024 -360 ct 2015 -364 2003 -365 1989 -365 ct 1975 -365 1962 -362 1950 -357 ct 
1938 -351 1928 -343 1920 -332 ct 1912 -321 1906 -308 1901 -292 ct 1897 -276 1895 -258 1895 -238 ct 
1895 0 l  1827 0 l  1827 -324 l  1827 -332 1827 -341 1827 -351 ct 1826 -360 1826 -369 1826 -378 ct 
1826 -386 1826 -394 1825 -400 ct 1825 -406 1825 -409 1825 -409 ct 1889 -409 l 
1889 -408 1889 -404 1890 -399 ct 1890 -393 1890 -387 1891 -380 ct 1891 -373 1891 -366 1892 -359 ct 
1892 -351 1892 -345 1892 -340 ct 1893 -340 l  1899 -352 1906 -363 1913 -372 ct 
1920 -382 1928 -390 1938 -397 ct 1947 -404 1958 -409 1970 -413 ct 1982 -416 1997 -418 2013 -418 ct 
2044 -418 2068 -412 2087 -399 ct 2105 -387 2117 -367 2124 -340 ct 2125 -340 l 
2131 -352 2138 -363 2146 -372 ct 2153 -382 2162 -390 2172 -397 ct 2182 -404 2194 -409 2206 -413 ct 
2219 -416 2234 -418 2250 -418 ct 2270 -418 2288 -415 2303 -410 ct 2318 -404 2331 -396 2340 -384 ct 
2350 -372 2357 -357 2361 -339 ct 2366 -321 2368 -299 2368 -274 ct 2368 0 l  2301 0 l 
2301 -260 l  2301 -280 2300 -297 2297 -310 ct 2295 -324 2290 -335 2284 -343 ct 
2278 -351 2271 -357 2261 -360 ct 2251 -364 2240 -365 2226 -365 ct 2211 -365 2198 -363 2187 -357 ct 
2175 -352 2165 -344 2157 -333 ct 2149 -322 2143 -309 2138 -293 ct 2134 -277 2131 -259 2131 -238 ct 
2131 0 l  2064 0 l  p ef
2513 -191 m  2513 -169 2515 -149 2519 -131 ct 2524 -113 2530 -97 2540 -84 ct 
2549 -71 2561 -61 2575 -54 ct 2590 -47 2607 -43 2627 -43 ct 2657 -43 2680 -49 2698 -61 ct 
2716 -73 2728 -88 2734 -106 ct 2794 -89 l  2790 -78 2784 -66 2776 -55 ct 2768 -43 2758 -33 2745 -24 ct 
2732 -14 2716 -7 2697 -1 ct 2678 5 2654 8 2627 8 ct 2566 8 2520 -10 2489 -46 ct 
2457 -82 2441 -136 2441 -207 ct 2441 -246 2446 -278 2455 -305 ct 2465 -332 2478 -353 2495 -370 ct 
2511 -387 2531 -399 2553 -406 ct 2575 -414 2599 -417 2624 -417 ct 2659 -417 2687 -412 2711 -401 ct 
2734 -390 2752 -374 2766 -355 ct 2780 -335 2790 -312 2796 -286 ct 2802 -259 2805 -231 2805 -200 ct 
2805 -191 l  2513 -191 l  p
2735 -243 m  2731 -286 2720 -318 2702 -337 ct 2683 -357 2657 -367 2623 -367 ct 
2612 -367 2600 -365 2587 -362 ct 2575 -358 2563 -351 2553 -342 ct 2542 -333 2533 -320 2526 -304 ct 
2519 -288 2514 -268 2513 -243 ct 2735 -243 l  p ef
pom
pum
2219 10143 t
89.9 r 48 -202 m  48 -237 51 -271 56 -303 ct 61 -335 70 -366 81 -395 ct 92 -425 107 -454 125 -481 ct 
142 -509 163 -536 188 -563 ct 254 -563 l  230 -536 210 -509 192 -481 ct 175 -453 161 -424 150 -395 ct 
139 -365 130 -334 125 -302 ct 119 -270 117 -236 117 -201 ct 117 -166 119 -132 125 -100 ct 
130 -68 139 -37 150 -7 ct 161 23 175 52 192 79 ct 210 107 230 134 254 161 ct 188 161 l 
163 134 142 107 125 79 ct 107 52 92 23 81 -7 ct 70 -36 61 -67 56 -99 ct 51 -131 48 -165 48 -200 ct 
48 -202 l  p ef
317 -498 m  317 -563 l  385 -563 l  385 -498 l  317 -498 l  p
317 0 m  317 -410 l  385 -410 l  385 0 l  317 0 l  p ef
736 0 m  736 -260 l  736 -280 734 -297 731 -310 ct 728 -324 724 -335 717 -343 ct 
710 -351 702 -357 691 -360 ct 680 -364 667 -365 651 -365 ct 635 -365 620 -362 607 -357 ct 
594 -351 583 -343 574 -332 ct 565 -321 558 -308 553 -292 ct 548 -276 545 -258 545 -238 ct 
545 0 l  477 0 l  477 -324 l  477 -332 477 -341 477 -351 ct 476 -360 476 -369 476 -378 ct 
476 -386 476 -394 475 -400 ct 475 -406 475 -409 475 -409 ct 539 -409 l  539 -408 539 -404 540 -399 ct 
540 -393 540 -387 541 -380 ct 541 -373 541 -366 542 -359 ct 542 -351 542 -345 542 -340 ct 
543 -340 l  550 -352 557 -363 565 -372 ct 573 -382 582 -390 592 -397 ct 602 -404 614 -409 628 -413 ct 
641 -416 657 -418 674 -418 ct 697 -418 717 -415 733 -410 ct 749 -404 763 -396 773 -384 ct 
784 -372 792 -357 797 -339 ct 802 -321 804 -299 804 -274 ct 804 0 l  736 0 l 
p ef
1540 -147 m  1540 -125 1536 -104 1527 -85 ct 1518 -66 1505 -50 1487 -36 ct 1468 -22 1445 -11 1418 -4 ct 
1390 4 1357 8 1319 8 ct 1253 8 1201 -4 1164 -27 ct 1127 -50 1103 -84 1093 -128 ct 
1163 -142 l  1167 -128 1172 -115 1180 -104 ct 1187 -93 1197 -83 1209 -75 ct 
1222 -66 1237 -60 1256 -55 ct 1274 -51 1296 -49 1322 -49 ct 1344 -49 1363 -50 1381 -54 ct 
1399 -58 1415 -63 1427 -71 ct 1440 -78 1450 -88 1458 -100 ct 1465 -112 1468 -127 1468 -143 ct 
1468 -161 1464 -175 1456 -186 ct 1448 -197 1437 -206 1423 -213 ct 1409 -220 1391 -226 1371 -231 ct 
1351 -235 1329 -241 1305 -246 ct 1290 -249 1275 -253 1260 -257 ct 1245 -261 1231 -266 1217 -271 ct 
1203 -276 1190 -283 1178 -290 ct 1166 -297 1156 -306 1147 -317 ct 1138 -327 1131 -339 1126 -352 ct 
1121 -366 1118 -381 1118 -399 ct 1118 -424 1123 -446 1134 -464 ct 1144 -482 1158 -497 1176 -509 ct 
1194 -520 1216 -529 1241 -534 ct 1265 -539 1292 -542 1321 -542 ct 1354 -542 1382 -539 1406 -534 ct 
1429 -529 1449 -521 1465 -511 ct 1482 -501 1494 -488 1504 -472 ct 1514 -457 1522 -439 1527 -419 ct 
1456 -407 l  1453 -419 1448 -431 1441 -441 ct 1434 -451 1425 -460 1415 -467 ct 
1404 -473 1391 -479 1375 -482 ct 1359 -486 1341 -487 1320 -487 ct 1295 -487 1275 -485 1258 -481 ct 
1241 -476 1228 -470 1217 -463 ct 1207 -455 1200 -446 1195 -436 ct 1191 -426 1189 -415 1189 -403 ct 
1189 -387 1193 -374 1201 -364 ct 1209 -353 1219 -345 1233 -338 ct 1247 -331 1262 -325 1280 -321 ct 
1298 -316 1317 -312 1338 -307 ct 1354 -303 1370 -300 1387 -296 ct 1403 -292 1419 -287 1434 -282 ct 
1448 -276 1462 -270 1475 -262 ct 1488 -255 1500 -246 1509 -236 ct 1519 -225 1526 -212 1532 -198 ct 
1537 -184 1540 -167 1540 -147 ct p ef
1666 -191 m  1666 -169 1668 -149 1672 -131 ct 1677 -113 1683 -97 1693 -84 ct 
1702 -71 1714 -61 1728 -54 ct 1743 -47 1760 -43 1780 -43 ct 1810 -43 1833 -49 1851 -61 ct 
1869 -73 1881 -88 1887 -106 ct 1947 -89 l  1943 -78 1937 -66 1929 -55 ct 1921 -43 1911 -33 1898 -24 ct 
1885 -14 1869 -7 1850 -1 ct 1831 5 1807 8 1780 8 ct 1719 8 1673 -10 1642 -46 ct 
1610 -82 1594 -136 1594 -207 ct 1594 -246 1599 -278 1608 -305 ct 1618 -332 1631 -353 1648 -370 ct 
1664 -387 1684 -399 1706 -406 ct 1728 -414 1752 -417 1777 -417 ct 1812 -417 1840 -412 1864 -401 ct 
1887 -390 1905 -374 1919 -355 ct 1933 -335 1943 -312 1949 -286 ct 1955 -259 1958 -231 1958 -200 ct 
1958 -191 l  1666 -191 l  p
1888 -243 m  1884 -286 1873 -318 1855 -337 ct 1836 -357 1810 -367 1776 -367 ct 
1765 -367 1753 -365 1740 -362 ct 1728 -358 1716 -351 1706 -342 ct 1695 -333 1686 -320 1679 -304 ct 
1672 -288 1667 -268 1666 -243 ct 1888 -243 l  p ef
2088 -207 m  2088 -183 2090 -162 2093 -142 ct 2097 -122 2102 -105 2111 -91 ct 
2119 -77 2129 -65 2143 -58 ct 2156 -50 2172 -46 2192 -46 ct 2216 -46 2236 -52 2252 -65 ct 
2269 -78 2279 -97 2283 -124 ct 2352 -124 l  2349 -107 2344 -90 2337 -74 ct 2329 -58 2319 -44 2306 -32 ct 
2293 -20 2277 -10 2258 -3 ct 2240 4 2218 8 2194 8 ct 2161 8 2134 3 2112 -8 ct 2089 -19 2071 -34 2057 -53 ct 
2043 -72 2033 -95 2026 -121 ct 2020 -147 2017 -175 2017 -205 ct 2017 -233 2019 -257 2024 -278 ct 
2028 -299 2035 -318 2043 -333 ct 2051 -349 2061 -363 2072 -373 ct 2083 -384 2095 -393 2108 -399 ct 
2121 -406 2135 -410 2149 -413 ct 2164 -416 2178 -417 2193 -417 ct 2216 -417 2236 -414 2254 -408 ct 
2272 -402 2288 -393 2301 -382 ct 2314 -371 2324 -358 2332 -343 ct 2340 -328 2346 -312 2349 -295 ct 
2279 -290 l  2276 -312 2267 -331 2252 -344 ct 2238 -357 2217 -364 2191 -364 ct 
2171 -364 2155 -361 2142 -354 ct 2129 -348 2119 -338 2111 -325 ct 2102 -312 2097 -296 2093 -276 ct 
2090 -256 2088 -233 2088 -207 ct p ef
2780 -205 m  2780 -133 2764 -80 2733 -45 ct 2701 -10 2655 8 2595 8 ct 2567 8 2541 4 2519 -5 ct 
2496 -13 2477 -27 2462 -44 ct 2446 -62 2434 -84 2426 -111 ct 2418 -138 2414 -169 2414 -205 ct 
2414 -347 2475 -417 2597 -417 ct 2629 -417 2657 -413 2680 -404 ct 2703 -395 2722 -382 2737 -364 ct 
2751 -347 2762 -325 2769 -298 ct 2776 -271 2780 -240 2780 -205 ct p
2708 -205 m  2708 -237 2706 -263 2701 -284 ct 2696 -305 2689 -321 2679 -334 ct 
2670 -346 2658 -355 2645 -360 ct 2631 -365 2616 -367 2599 -367 ct 2581 -367 2565 -364 2551 -359 ct 
2537 -354 2525 -345 2516 -333 ct 2506 -320 2498 -304 2493 -283 ct 2488 -262 2485 -236 2485 -205 ct 
2485 -173 2488 -147 2494 -126 ct 2499 -105 2507 -89 2516 -76 ct 2526 -64 2538 -55 2551 -50 ct 
2564 -45 2579 -42 2594 -42 ct 2612 -42 2628 -45 2642 -50 ct 2656 -55 2668 -63 2678 -76 ct 
2688 -88 2695 -105 2700 -126 ct 2706 -147 2708 -173 2708 -205 ct p ef
3118 0 m  3118 -260 l  3118 -280 3116 -297 3113 -310 ct 3110 -324 3106 -335 3099 -343 ct 
3092 -351 3084 -357 3073 -360 ct 3062 -364 3049 -365 3033 -365 ct 3017 -365 3002 -362 2989 -357 ct 
2976 -351 2965 -343 2956 -332 ct 2947 -321 2940 -308 2935 -292 ct 2930 -276 2927 -258 2927 -238 ct 
2927 0 l  2859 0 l  2859 -324 l  2859 -332 2859 -341 2859 -351 ct 2858 -360 2858 -369 2858 -378 ct 
2858 -386 2858 -394 2857 -400 ct 2857 -406 2857 -409 2857 -409 ct 2921 -409 l 
2921 -408 2921 -404 2922 -399 ct 2922 -393 2922 -387 2923 -380 ct 2923 -373 2923 -366 2924 -359 ct 
2924 -351 2924 -345 2924 -340 ct 2925 -340 l  2932 -352 2939 -363 2947 -372 ct 
2955 -382 2964 -390 2974 -397 ct 2984 -404 2996 -409 3010 -413 ct 3023 -416 3039 -418 3056 -418 ct 
3079 -418 3099 -415 3115 -410 ct 3131 -404 3145 -396 3155 -384 ct 3166 -372 3174 -357 3179 -339 ct 
3184 -321 3186 -299 3186 -274 ct 3186 0 l  3118 0 l  p ef
3539 -66 m  3526 -40 3510 -21 3489 -9 ct 3468 2 3442 8 3411 8 ct 3360 8 3322 -10 3297 -45 ct 
3273 -80 3261 -132 3261 -203 ct 3261 -346 3311 -418 3411 -418 ct 3442 -418 3468 -412 3489 -401 ct 
3510 -390 3526 -371 3539 -347 ct 3540 -347 l  3540 -349 3540 -353 3540 -359 ct 
3540 -364 3539 -370 3539 -376 ct 3539 -382 3539 -387 3539 -393 ct 3539 -398 3539 -402 3539 -404 ct 
3539 -563 l  3607 -563 l  3607 -83 l  3607 -73 3607 -63 3607 -54 ct 3608 -45 3608 -37 3608 -29 ct 
3608 -22 3609 -15 3609 -10 ct 3609 -4 3609 -1 3610 -1 ct 3544 -1 l  3544 -4 3543 -7 3543 -12 ct 
3543 -17 3542 -22 3542 -28 ct 3542 -34 3541 -40 3541 -46 ct 3541 -53 3541 -59 3541 -66 ct 
3539 -66 l  p
3332 -206 m  3332 -177 3334 -153 3338 -133 ct 3341 -112 3347 -96 3355 -83 ct 
3362 -70 3372 -60 3384 -54 ct 3397 -48 3411 -45 3429 -45 ct 3447 -45 3463 -48 3476 -54 ct 
3490 -60 3502 -69 3511 -82 ct 3520 -95 3527 -112 3532 -133 ct 3537 -154 3539 -180 3539 -210 ct 
3539 -239 3537 -264 3532 -284 ct 3527 -304 3520 -320 3511 -333 ct 3501 -345 3490 -354 3476 -359 ct 
3463 -365 3447 -368 3430 -368 ct 3413 -368 3399 -365 3386 -359 ct 3374 -353 3364 -344 3356 -331 ct 
3348 -318 3342 -301 3338 -280 ct 3334 -260 3332 -235 3332 -206 ct p ef
4011 -113 m  4011 -94 4007 -77 4000 -62 ct 3992 -47 3982 -34 3967 -24 ct 3953 -13 3936 -6 3915 0 ct 
3895 5 3871 8 3845 8 ct 3821 8 3799 6 3780 3 ct 3761 -1 3745 -7 3730 -15 ct 3716 -23 3704 -34 3694 -47 ct 
3684 -60 3677 -77 3673 -96 ct 3733 -108 l  3739 -86 3751 -70 3769 -59 ct 3787 -49 3812 -44 3845 -44 ct 
3859 -44 3873 -45 3885 -47 ct 3897 -49 3908 -53 3917 -57 ct 3925 -62 3932 -69 3937 -77 ct 
3942 -85 3945 -96 3945 -108 ct 3945 -120 3942 -130 3936 -138 ct 3930 -146 3922 -153 3912 -158 ct 
3901 -164 3889 -168 3874 -172 ct 3859 -176 3843 -180 3825 -185 ct 3809 -189 3793 -194 3776 -200 ct 
3760 -205 3746 -212 3733 -221 ct 3720 -229 3709 -240 3701 -253 ct 3693 -266 3689 -282 3689 -302 ct 
3689 -339 3702 -368 3729 -387 ct 3756 -407 3794 -417 3845 -417 ct 3891 -417 3927 -409 3953 -393 ct 
3980 -377 3997 -351 4004 -316 ct 3942 -308 l  3940 -319 3936 -328 3930 -335 ct 
3924 -342 3916 -348 3908 -353 ct 3899 -357 3890 -360 3879 -362 ct 3868 -364 3857 -365 3845 -365 ct 
3815 -365 3792 -360 3777 -351 ct 3763 -342 3755 -327 3755 -308 ct 3755 -297 3758 -288 3763 -281 ct 
3769 -274 3776 -268 3786 -263 ct 3796 -258 3807 -254 3821 -250 ct 3835 -246 3850 -242 3866 -238 ct 
3877 -235 3888 -233 3900 -229 ct 3911 -226 3922 -222 3933 -218 ct 3943 -214 3954 -208 3963 -202 ct 
3973 -196 3981 -189 3988 -181 ct 3995 -173 4001 -163 4005 -152 ct 4009 -141 4011 -128 4011 -113 ct 
p ef
4258 -200 m  4258 -165 4256 -131 4250 -99 ct 4245 -67 4237 -36 4225 -7 ct 4214 23 4199 52 4182 79 ct 
4164 107 4143 134 4118 161 ct 4053 161 l  4076 134 4097 107 4114 79 ct 4131 52 4146 23 4157 -7 ct 
4168 -37 4176 -68 4182 -100 ct 4187 -132 4190 -166 4190 -201 ct 4190 -236 4187 -270 4182 -302 ct 
4176 -334 4168 -365 4157 -395 ct 4146 -424 4131 -453 4114 -481 ct 4097 -509 4076 -536 4053 -563 ct 
4118 -563 l  4143 -536 4164 -509 4182 -481 ct 4199 -454 4214 -425 4225 -395 ct 
4237 -366 4245 -335 4250 -303 ct 4256 -271 4258 -237 4258 -202 ct 4258 -200 l 
p ef
pom
0 9000 t 
pom
count op_count sub {pop} repeat countdictstack dict_count sub {end} repeat b4_inc_state restore
%%PageTrailer
%%Trailer
%%EOF
